M48
; DRILL file {KiCad (5.1.0)-1} date 17/09/2020 18:32:11
; FORMAT={-:-/ absolute / metric / decimal}
; #@! TF.CreationDate,2020-09-17T18:32:11+01:00
; #@! TF.GenerationSoftware,Kicad,Pcbnew,(5.1.0)-1
; #@! TF.FileFunction,Plated,1,2,PTH
FMAT,2
METRIC
T1C0.400
T2C1.500
T3C4.300
%
G90
G05
T1
X130.0Y-89.4
X130.0Y-105.4
X148.0Y-88.4
X148.0Y-114.4
X158.0Y-115.4
X159.0Y-87.4
X161.0Y-118.4
X162.0Y-128.4
X163.0Y-147.4
X179.0Y-147.4
X188.0Y-128.4
X189.0Y-118.4
T2
X172.46Y-152.86
X172.46Y-157.94
X175.0Y-155.4
X177.54Y-152.86
X177.54Y-157.94
X119.46Y-98.86
X119.46Y-103.94
X122.0Y-101.4
X124.54Y-98.86
X124.54Y-103.94
T3
X125.0Y-69.4
X207.0Y-69.4
X207.0Y-152.4
X125.0Y-152.4
T0
M30
