G04 #@! TF.GenerationSoftware,KiCad,Pcbnew,(5.1.0)-1*
G04 #@! TF.CreationDate,2020-11-17T09:33:10+00:00*
G04 #@! TF.ProjectId,single_coil,73696e67-6c65-45f6-936f-696c2e6b6963,rev?*
G04 #@! TF.SameCoordinates,Original*
G04 #@! TF.FileFunction,Copper,L1,Top*
G04 #@! TF.FilePolarity,Positive*
%FSLAX46Y46*%
G04 Gerber Fmt 4.6, Leading zero omitted, Abs format (unit mm)*
G04 Created by KiCad (PCBNEW (5.1.0)-1) date 2020-11-17 09:33:10*
%MOMM*%
%LPD*%
G04 APERTURE LIST*
%ADD10C,0.750000*%
%ADD11R,3.810000X1.620000*%
%ADD12R,8.510000X7.870000*%
%ADD13C,0.100000*%
%ADD14C,1.150000*%
%ADD15C,2.250000*%
%ADD16C,0.500000*%
%ADD17C,0.800000*%
%ADD18C,0.250000*%
%ADD19C,1.500000*%
G04 APERTURE END LIST*
D10*
X170000000Y-121400000D02*
X170000000Y-142400000D01*
X188000000Y-128400000D02*
X188000000Y-192650000D01*
X147000000Y-94400000D02*
G75*
G02X148000000Y-93400000I1000000J0D01*
G01*
X147000000Y-94400000D02*
X147000000Y-106400000D01*
X160000000Y-93400000D02*
X148000000Y-93400000D01*
X145000000Y-109400000D02*
G75*
G02X144000000Y-108400000I0J1000000D01*
G01*
X144000000Y-108400000D02*
X144000000Y-87400000D01*
X160000000Y-109400000D02*
X145000000Y-109400000D01*
X163000000Y-147400000D02*
G75*
G02X162000000Y-146400000I0J1000000D01*
G01*
X180000000Y-146400000D02*
G75*
G02X179000000Y-147400000I-1000000J0D01*
G01*
X162000000Y-128400000D02*
X162000000Y-146400000D01*
X180000000Y-146400000D02*
X180000000Y-121400000D01*
X138000000Y-121400000D02*
X168000000Y-121400000D01*
X170000000Y-121400000D02*
X170000000Y-82400000D01*
X169000000Y-81400000D02*
X138000000Y-81400000D01*
X137000000Y-82400000D02*
X137000000Y-120400000D01*
X170000000Y-82400000D02*
G75*
G03X169000000Y-81400000I-1000000J0D01*
G01*
X167000000Y-83400000D02*
X140000000Y-83400000D01*
X168000000Y-119400000D02*
X168000000Y-84400000D01*
X168000000Y-84400000D02*
G75*
G03X167000000Y-83400000I-1000000J0D01*
G01*
X139000000Y-84400000D02*
X139000000Y-118400000D01*
X139000000Y-118400000D02*
G75*
G03X140000000Y-119400000I1000000J0D01*
G01*
X140000000Y-83400000D02*
G75*
G03X139000000Y-84400000I0J-1000000D01*
G01*
X166000000Y-119400000D02*
G75*
G03X167000000Y-118400000I0J1000000D01*
G01*
X167000000Y-118400000D02*
X167000000Y-85400000D01*
X140000000Y-119400000D02*
X166000000Y-119400000D01*
X166000000Y-84400000D02*
X141000000Y-84400000D01*
X167000000Y-85400000D02*
G75*
G03X166000000Y-84400000I-1000000J0D01*
G01*
X140000000Y-117400000D02*
G75*
G03X141000000Y-118400000I1000000J0D01*
G01*
X141000000Y-84400000D02*
G75*
G03X140000000Y-85400000I0J-1000000D01*
G01*
X140000000Y-85400000D02*
X140000000Y-117400000D01*
X141000000Y-118400000D02*
X161000000Y-118400000D01*
X168000000Y-82400000D02*
X139000000Y-82400000D01*
X138000000Y-81400000D02*
G75*
G03X137000000Y-82400000I0J-1000000D01*
G01*
X168000000Y-121400000D02*
G75*
G03X169000000Y-120400000I0J1000000D01*
G01*
X169000000Y-83400000D02*
G75*
G03X168000000Y-82400000I-1000000J0D01*
G01*
X169000000Y-120400000D02*
X169000000Y-83400000D01*
X137000000Y-120400000D02*
G75*
G03X138000000Y-121400000I1000000J0D01*
G01*
X138000000Y-119400000D02*
G75*
G03X139000000Y-120400000I1000000J0D01*
G01*
X138000000Y-83400000D02*
X138000000Y-119400000D01*
X139000000Y-120400000D02*
X167000000Y-120400000D01*
X139000000Y-82400000D02*
G75*
G03X138000000Y-83400000I0J-1000000D01*
G01*
X167000000Y-120400000D02*
G75*
G03X168000000Y-119400000I0J1000000D01*
G01*
X209000000Y-118400000D02*
X189000000Y-118400000D01*
X210000000Y-117400000D02*
G75*
G02X209000000Y-118400000I-1000000J0D01*
G01*
X210000000Y-85400000D02*
X210000000Y-117400000D01*
X209000000Y-84400000D02*
G75*
G02X210000000Y-85400000I0J-1000000D01*
G01*
X184000000Y-84400000D02*
X209000000Y-84400000D01*
X183000000Y-85400000D02*
G75*
G02X184000000Y-84400000I1000000J0D01*
G01*
X183000000Y-118400000D02*
X183000000Y-85400000D01*
X184000000Y-119400000D02*
G75*
G02X183000000Y-118400000I0J1000000D01*
G01*
X210000000Y-119400000D02*
X184000000Y-119400000D01*
X211000000Y-118400000D02*
G75*
G02X210000000Y-119400000I-1000000J0D01*
G01*
X211000000Y-84400000D02*
X211000000Y-118400000D01*
X210000000Y-83400000D02*
G75*
G02X211000000Y-84400000I0J-1000000D01*
G01*
X183000000Y-83400000D02*
X210000000Y-83400000D01*
X182000000Y-84400000D02*
G75*
G02X183000000Y-83400000I1000000J0D01*
G01*
X182000000Y-119400000D02*
X182000000Y-84400000D01*
X183000000Y-120400000D02*
G75*
G02X182000000Y-119400000I0J1000000D01*
G01*
X211000000Y-120400000D02*
X183000000Y-120400000D01*
X212000000Y-119400000D02*
G75*
G02X211000000Y-120400000I-1000000J0D01*
G01*
X212000000Y-83400000D02*
X212000000Y-119400000D01*
X211000000Y-82400000D02*
G75*
G02X212000000Y-83400000I0J-1000000D01*
G01*
X182000000Y-82400000D02*
X211000000Y-82400000D01*
X181000000Y-83400000D02*
G75*
G02X182000000Y-82400000I1000000J0D01*
G01*
X181000000Y-120400000D02*
X181000000Y-83400000D01*
X182000000Y-121400000D02*
G75*
G02X181000000Y-120400000I0J1000000D01*
G01*
X213000000Y-120400000D02*
G75*
G02X212000000Y-121400000I-1000000J0D01*
G01*
X212000000Y-81400000D02*
G75*
G02X213000000Y-82400000I0J-1000000D01*
G01*
X180000000Y-82400000D02*
G75*
G02X181000000Y-81400000I1000000J0D01*
G01*
X212000000Y-121400000D02*
X182000000Y-121400000D01*
X213000000Y-82400000D02*
X213000000Y-120400000D01*
X181000000Y-81400000D02*
X212000000Y-81400000D01*
X180000000Y-121400000D02*
X180000000Y-82400000D01*
D11*
X169880000Y-179410000D03*
X169880000Y-184490000D03*
D12*
X177820000Y-181950000D03*
X177800000Y-160750000D03*
D11*
X169860000Y-163290000D03*
X169860000Y-158210000D03*
D12*
X177770000Y-171350000D03*
D11*
X169830000Y-173890000D03*
X169830000Y-168810000D03*
X196210000Y-158310000D03*
X196210000Y-163390000D03*
D12*
X204150000Y-160850000D03*
D11*
X196180000Y-168910000D03*
X196180000Y-173990000D03*
D12*
X204120000Y-171450000D03*
X204170000Y-182050000D03*
D11*
X196230000Y-184590000D03*
X196230000Y-179510000D03*
D13*
G36*
X194474505Y-141801204D02*
G01*
X194498773Y-141804804D01*
X194522572Y-141810765D01*
X194545671Y-141819030D01*
X194567850Y-141829520D01*
X194588893Y-141842132D01*
X194608599Y-141856747D01*
X194626777Y-141873223D01*
X194643253Y-141891401D01*
X194657868Y-141911107D01*
X194670480Y-141932150D01*
X194680970Y-141954329D01*
X194689235Y-141977428D01*
X194695196Y-142001227D01*
X194698796Y-142025495D01*
X194700000Y-142049999D01*
X194700000Y-142700001D01*
X194698796Y-142724505D01*
X194695196Y-142748773D01*
X194689235Y-142772572D01*
X194680970Y-142795671D01*
X194670480Y-142817850D01*
X194657868Y-142838893D01*
X194643253Y-142858599D01*
X194626777Y-142876777D01*
X194608599Y-142893253D01*
X194588893Y-142907868D01*
X194567850Y-142920480D01*
X194545671Y-142930970D01*
X194522572Y-142939235D01*
X194498773Y-142945196D01*
X194474505Y-142948796D01*
X194450001Y-142950000D01*
X193549999Y-142950000D01*
X193525495Y-142948796D01*
X193501227Y-142945196D01*
X193477428Y-142939235D01*
X193454329Y-142930970D01*
X193432150Y-142920480D01*
X193411107Y-142907868D01*
X193391401Y-142893253D01*
X193373223Y-142876777D01*
X193356747Y-142858599D01*
X193342132Y-142838893D01*
X193329520Y-142817850D01*
X193319030Y-142795671D01*
X193310765Y-142772572D01*
X193304804Y-142748773D01*
X193301204Y-142724505D01*
X193300000Y-142700001D01*
X193300000Y-142049999D01*
X193301204Y-142025495D01*
X193304804Y-142001227D01*
X193310765Y-141977428D01*
X193319030Y-141954329D01*
X193329520Y-141932150D01*
X193342132Y-141911107D01*
X193356747Y-141891401D01*
X193373223Y-141873223D01*
X193391401Y-141856747D01*
X193411107Y-141842132D01*
X193432150Y-141829520D01*
X193454329Y-141819030D01*
X193477428Y-141810765D01*
X193501227Y-141804804D01*
X193525495Y-141801204D01*
X193549999Y-141800000D01*
X194450001Y-141800000D01*
X194474505Y-141801204D01*
X194474505Y-141801204D01*
G37*
D14*
X194000000Y-142375000D03*
D13*
G36*
X194474505Y-143851204D02*
G01*
X194498773Y-143854804D01*
X194522572Y-143860765D01*
X194545671Y-143869030D01*
X194567850Y-143879520D01*
X194588893Y-143892132D01*
X194608599Y-143906747D01*
X194626777Y-143923223D01*
X194643253Y-143941401D01*
X194657868Y-143961107D01*
X194670480Y-143982150D01*
X194680970Y-144004329D01*
X194689235Y-144027428D01*
X194695196Y-144051227D01*
X194698796Y-144075495D01*
X194700000Y-144099999D01*
X194700000Y-144750001D01*
X194698796Y-144774505D01*
X194695196Y-144798773D01*
X194689235Y-144822572D01*
X194680970Y-144845671D01*
X194670480Y-144867850D01*
X194657868Y-144888893D01*
X194643253Y-144908599D01*
X194626777Y-144926777D01*
X194608599Y-144943253D01*
X194588893Y-144957868D01*
X194567850Y-144970480D01*
X194545671Y-144980970D01*
X194522572Y-144989235D01*
X194498773Y-144995196D01*
X194474505Y-144998796D01*
X194450001Y-145000000D01*
X193549999Y-145000000D01*
X193525495Y-144998796D01*
X193501227Y-144995196D01*
X193477428Y-144989235D01*
X193454329Y-144980970D01*
X193432150Y-144970480D01*
X193411107Y-144957868D01*
X193391401Y-144943253D01*
X193373223Y-144926777D01*
X193356747Y-144908599D01*
X193342132Y-144888893D01*
X193329520Y-144867850D01*
X193319030Y-144845671D01*
X193310765Y-144822572D01*
X193304804Y-144798773D01*
X193301204Y-144774505D01*
X193300000Y-144750001D01*
X193300000Y-144099999D01*
X193301204Y-144075495D01*
X193304804Y-144051227D01*
X193310765Y-144027428D01*
X193319030Y-144004329D01*
X193329520Y-143982150D01*
X193342132Y-143961107D01*
X193356747Y-143941401D01*
X193373223Y-143923223D01*
X193391401Y-143906747D01*
X193411107Y-143892132D01*
X193432150Y-143879520D01*
X193454329Y-143869030D01*
X193477428Y-143860765D01*
X193501227Y-143854804D01*
X193525495Y-143851204D01*
X193549999Y-143850000D01*
X194450001Y-143850000D01*
X194474505Y-143851204D01*
X194474505Y-143851204D01*
G37*
D14*
X194000000Y-144425000D03*
D13*
G36*
X194474505Y-153851204D02*
G01*
X194498773Y-153854804D01*
X194522572Y-153860765D01*
X194545671Y-153869030D01*
X194567850Y-153879520D01*
X194588893Y-153892132D01*
X194608599Y-153906747D01*
X194626777Y-153923223D01*
X194643253Y-153941401D01*
X194657868Y-153961107D01*
X194670480Y-153982150D01*
X194680970Y-154004329D01*
X194689235Y-154027428D01*
X194695196Y-154051227D01*
X194698796Y-154075495D01*
X194700000Y-154099999D01*
X194700000Y-154750001D01*
X194698796Y-154774505D01*
X194695196Y-154798773D01*
X194689235Y-154822572D01*
X194680970Y-154845671D01*
X194670480Y-154867850D01*
X194657868Y-154888893D01*
X194643253Y-154908599D01*
X194626777Y-154926777D01*
X194608599Y-154943253D01*
X194588893Y-154957868D01*
X194567850Y-154970480D01*
X194545671Y-154980970D01*
X194522572Y-154989235D01*
X194498773Y-154995196D01*
X194474505Y-154998796D01*
X194450001Y-155000000D01*
X193549999Y-155000000D01*
X193525495Y-154998796D01*
X193501227Y-154995196D01*
X193477428Y-154989235D01*
X193454329Y-154980970D01*
X193432150Y-154970480D01*
X193411107Y-154957868D01*
X193391401Y-154943253D01*
X193373223Y-154926777D01*
X193356747Y-154908599D01*
X193342132Y-154888893D01*
X193329520Y-154867850D01*
X193319030Y-154845671D01*
X193310765Y-154822572D01*
X193304804Y-154798773D01*
X193301204Y-154774505D01*
X193300000Y-154750001D01*
X193300000Y-154099999D01*
X193301204Y-154075495D01*
X193304804Y-154051227D01*
X193310765Y-154027428D01*
X193319030Y-154004329D01*
X193329520Y-153982150D01*
X193342132Y-153961107D01*
X193356747Y-153941401D01*
X193373223Y-153923223D01*
X193391401Y-153906747D01*
X193411107Y-153892132D01*
X193432150Y-153879520D01*
X193454329Y-153869030D01*
X193477428Y-153860765D01*
X193501227Y-153854804D01*
X193525495Y-153851204D01*
X193549999Y-153850000D01*
X194450001Y-153850000D01*
X194474505Y-153851204D01*
X194474505Y-153851204D01*
G37*
D14*
X194000000Y-154425000D03*
D13*
G36*
X194474505Y-151801204D02*
G01*
X194498773Y-151804804D01*
X194522572Y-151810765D01*
X194545671Y-151819030D01*
X194567850Y-151829520D01*
X194588893Y-151842132D01*
X194608599Y-151856747D01*
X194626777Y-151873223D01*
X194643253Y-151891401D01*
X194657868Y-151911107D01*
X194670480Y-151932150D01*
X194680970Y-151954329D01*
X194689235Y-151977428D01*
X194695196Y-152001227D01*
X194698796Y-152025495D01*
X194700000Y-152049999D01*
X194700000Y-152700001D01*
X194698796Y-152724505D01*
X194695196Y-152748773D01*
X194689235Y-152772572D01*
X194680970Y-152795671D01*
X194670480Y-152817850D01*
X194657868Y-152838893D01*
X194643253Y-152858599D01*
X194626777Y-152876777D01*
X194608599Y-152893253D01*
X194588893Y-152907868D01*
X194567850Y-152920480D01*
X194545671Y-152930970D01*
X194522572Y-152939235D01*
X194498773Y-152945196D01*
X194474505Y-152948796D01*
X194450001Y-152950000D01*
X193549999Y-152950000D01*
X193525495Y-152948796D01*
X193501227Y-152945196D01*
X193477428Y-152939235D01*
X193454329Y-152930970D01*
X193432150Y-152920480D01*
X193411107Y-152907868D01*
X193391401Y-152893253D01*
X193373223Y-152876777D01*
X193356747Y-152858599D01*
X193342132Y-152838893D01*
X193329520Y-152817850D01*
X193319030Y-152795671D01*
X193310765Y-152772572D01*
X193304804Y-152748773D01*
X193301204Y-152724505D01*
X193300000Y-152700001D01*
X193300000Y-152049999D01*
X193301204Y-152025495D01*
X193304804Y-152001227D01*
X193310765Y-151977428D01*
X193319030Y-151954329D01*
X193329520Y-151932150D01*
X193342132Y-151911107D01*
X193356747Y-151891401D01*
X193373223Y-151873223D01*
X193391401Y-151856747D01*
X193411107Y-151842132D01*
X193432150Y-151829520D01*
X193454329Y-151819030D01*
X193477428Y-151810765D01*
X193501227Y-151804804D01*
X193525495Y-151801204D01*
X193549999Y-151800000D01*
X194450001Y-151800000D01*
X194474505Y-151801204D01*
X194474505Y-151801204D01*
G37*
D14*
X194000000Y-152375000D03*
D13*
G36*
X198474505Y-148851204D02*
G01*
X198498773Y-148854804D01*
X198522572Y-148860765D01*
X198545671Y-148869030D01*
X198567850Y-148879520D01*
X198588893Y-148892132D01*
X198608599Y-148906747D01*
X198626777Y-148923223D01*
X198643253Y-148941401D01*
X198657868Y-148961107D01*
X198670480Y-148982150D01*
X198680970Y-149004329D01*
X198689235Y-149027428D01*
X198695196Y-149051227D01*
X198698796Y-149075495D01*
X198700000Y-149099999D01*
X198700000Y-149750001D01*
X198698796Y-149774505D01*
X198695196Y-149798773D01*
X198689235Y-149822572D01*
X198680970Y-149845671D01*
X198670480Y-149867850D01*
X198657868Y-149888893D01*
X198643253Y-149908599D01*
X198626777Y-149926777D01*
X198608599Y-149943253D01*
X198588893Y-149957868D01*
X198567850Y-149970480D01*
X198545671Y-149980970D01*
X198522572Y-149989235D01*
X198498773Y-149995196D01*
X198474505Y-149998796D01*
X198450001Y-150000000D01*
X197549999Y-150000000D01*
X197525495Y-149998796D01*
X197501227Y-149995196D01*
X197477428Y-149989235D01*
X197454329Y-149980970D01*
X197432150Y-149970480D01*
X197411107Y-149957868D01*
X197391401Y-149943253D01*
X197373223Y-149926777D01*
X197356747Y-149908599D01*
X197342132Y-149888893D01*
X197329520Y-149867850D01*
X197319030Y-149845671D01*
X197310765Y-149822572D01*
X197304804Y-149798773D01*
X197301204Y-149774505D01*
X197300000Y-149750001D01*
X197300000Y-149099999D01*
X197301204Y-149075495D01*
X197304804Y-149051227D01*
X197310765Y-149027428D01*
X197319030Y-149004329D01*
X197329520Y-148982150D01*
X197342132Y-148961107D01*
X197356747Y-148941401D01*
X197373223Y-148923223D01*
X197391401Y-148906747D01*
X197411107Y-148892132D01*
X197432150Y-148879520D01*
X197454329Y-148869030D01*
X197477428Y-148860765D01*
X197501227Y-148854804D01*
X197525495Y-148851204D01*
X197549999Y-148850000D01*
X198450001Y-148850000D01*
X198474505Y-148851204D01*
X198474505Y-148851204D01*
G37*
D14*
X198000000Y-149425000D03*
D13*
G36*
X198474505Y-146801204D02*
G01*
X198498773Y-146804804D01*
X198522572Y-146810765D01*
X198545671Y-146819030D01*
X198567850Y-146829520D01*
X198588893Y-146842132D01*
X198608599Y-146856747D01*
X198626777Y-146873223D01*
X198643253Y-146891401D01*
X198657868Y-146911107D01*
X198670480Y-146932150D01*
X198680970Y-146954329D01*
X198689235Y-146977428D01*
X198695196Y-147001227D01*
X198698796Y-147025495D01*
X198700000Y-147049999D01*
X198700000Y-147700001D01*
X198698796Y-147724505D01*
X198695196Y-147748773D01*
X198689235Y-147772572D01*
X198680970Y-147795671D01*
X198670480Y-147817850D01*
X198657868Y-147838893D01*
X198643253Y-147858599D01*
X198626777Y-147876777D01*
X198608599Y-147893253D01*
X198588893Y-147907868D01*
X198567850Y-147920480D01*
X198545671Y-147930970D01*
X198522572Y-147939235D01*
X198498773Y-147945196D01*
X198474505Y-147948796D01*
X198450001Y-147950000D01*
X197549999Y-147950000D01*
X197525495Y-147948796D01*
X197501227Y-147945196D01*
X197477428Y-147939235D01*
X197454329Y-147930970D01*
X197432150Y-147920480D01*
X197411107Y-147907868D01*
X197391401Y-147893253D01*
X197373223Y-147876777D01*
X197356747Y-147858599D01*
X197342132Y-147838893D01*
X197329520Y-147817850D01*
X197319030Y-147795671D01*
X197310765Y-147772572D01*
X197304804Y-147748773D01*
X197301204Y-147724505D01*
X197300000Y-147700001D01*
X197300000Y-147049999D01*
X197301204Y-147025495D01*
X197304804Y-147001227D01*
X197310765Y-146977428D01*
X197319030Y-146954329D01*
X197329520Y-146932150D01*
X197342132Y-146911107D01*
X197356747Y-146891401D01*
X197373223Y-146873223D01*
X197391401Y-146856747D01*
X197411107Y-146842132D01*
X197432150Y-146829520D01*
X197454329Y-146819030D01*
X197477428Y-146810765D01*
X197501227Y-146804804D01*
X197525495Y-146801204D01*
X197549999Y-146800000D01*
X198450001Y-146800000D01*
X198474505Y-146801204D01*
X198474505Y-146801204D01*
G37*
D14*
X198000000Y-147375000D03*
D13*
G36*
X194474505Y-148851204D02*
G01*
X194498773Y-148854804D01*
X194522572Y-148860765D01*
X194545671Y-148869030D01*
X194567850Y-148879520D01*
X194588893Y-148892132D01*
X194608599Y-148906747D01*
X194626777Y-148923223D01*
X194643253Y-148941401D01*
X194657868Y-148961107D01*
X194670480Y-148982150D01*
X194680970Y-149004329D01*
X194689235Y-149027428D01*
X194695196Y-149051227D01*
X194698796Y-149075495D01*
X194700000Y-149099999D01*
X194700000Y-149750001D01*
X194698796Y-149774505D01*
X194695196Y-149798773D01*
X194689235Y-149822572D01*
X194680970Y-149845671D01*
X194670480Y-149867850D01*
X194657868Y-149888893D01*
X194643253Y-149908599D01*
X194626777Y-149926777D01*
X194608599Y-149943253D01*
X194588893Y-149957868D01*
X194567850Y-149970480D01*
X194545671Y-149980970D01*
X194522572Y-149989235D01*
X194498773Y-149995196D01*
X194474505Y-149998796D01*
X194450001Y-150000000D01*
X193549999Y-150000000D01*
X193525495Y-149998796D01*
X193501227Y-149995196D01*
X193477428Y-149989235D01*
X193454329Y-149980970D01*
X193432150Y-149970480D01*
X193411107Y-149957868D01*
X193391401Y-149943253D01*
X193373223Y-149926777D01*
X193356747Y-149908599D01*
X193342132Y-149888893D01*
X193329520Y-149867850D01*
X193319030Y-149845671D01*
X193310765Y-149822572D01*
X193304804Y-149798773D01*
X193301204Y-149774505D01*
X193300000Y-149750001D01*
X193300000Y-149099999D01*
X193301204Y-149075495D01*
X193304804Y-149051227D01*
X193310765Y-149027428D01*
X193319030Y-149004329D01*
X193329520Y-148982150D01*
X193342132Y-148961107D01*
X193356747Y-148941401D01*
X193373223Y-148923223D01*
X193391401Y-148906747D01*
X193411107Y-148892132D01*
X193432150Y-148879520D01*
X193454329Y-148869030D01*
X193477428Y-148860765D01*
X193501227Y-148854804D01*
X193525495Y-148851204D01*
X193549999Y-148850000D01*
X194450001Y-148850000D01*
X194474505Y-148851204D01*
X194474505Y-148851204D01*
G37*
D14*
X194000000Y-149425000D03*
D13*
G36*
X194474505Y-146801204D02*
G01*
X194498773Y-146804804D01*
X194522572Y-146810765D01*
X194545671Y-146819030D01*
X194567850Y-146829520D01*
X194588893Y-146842132D01*
X194608599Y-146856747D01*
X194626777Y-146873223D01*
X194643253Y-146891401D01*
X194657868Y-146911107D01*
X194670480Y-146932150D01*
X194680970Y-146954329D01*
X194689235Y-146977428D01*
X194695196Y-147001227D01*
X194698796Y-147025495D01*
X194700000Y-147049999D01*
X194700000Y-147700001D01*
X194698796Y-147724505D01*
X194695196Y-147748773D01*
X194689235Y-147772572D01*
X194680970Y-147795671D01*
X194670480Y-147817850D01*
X194657868Y-147838893D01*
X194643253Y-147858599D01*
X194626777Y-147876777D01*
X194608599Y-147893253D01*
X194588893Y-147907868D01*
X194567850Y-147920480D01*
X194545671Y-147930970D01*
X194522572Y-147939235D01*
X194498773Y-147945196D01*
X194474505Y-147948796D01*
X194450001Y-147950000D01*
X193549999Y-147950000D01*
X193525495Y-147948796D01*
X193501227Y-147945196D01*
X193477428Y-147939235D01*
X193454329Y-147930970D01*
X193432150Y-147920480D01*
X193411107Y-147907868D01*
X193391401Y-147893253D01*
X193373223Y-147876777D01*
X193356747Y-147858599D01*
X193342132Y-147838893D01*
X193329520Y-147817850D01*
X193319030Y-147795671D01*
X193310765Y-147772572D01*
X193304804Y-147748773D01*
X193301204Y-147724505D01*
X193300000Y-147700001D01*
X193300000Y-147049999D01*
X193301204Y-147025495D01*
X193304804Y-147001227D01*
X193310765Y-146977428D01*
X193319030Y-146954329D01*
X193329520Y-146932150D01*
X193342132Y-146911107D01*
X193356747Y-146891401D01*
X193373223Y-146873223D01*
X193391401Y-146856747D01*
X193411107Y-146842132D01*
X193432150Y-146829520D01*
X193454329Y-146819030D01*
X193477428Y-146810765D01*
X193501227Y-146804804D01*
X193525495Y-146801204D01*
X193549999Y-146800000D01*
X194450001Y-146800000D01*
X194474505Y-146801204D01*
X194474505Y-146801204D01*
G37*
D14*
X194000000Y-147375000D03*
D13*
G36*
X198474505Y-153851204D02*
G01*
X198498773Y-153854804D01*
X198522572Y-153860765D01*
X198545671Y-153869030D01*
X198567850Y-153879520D01*
X198588893Y-153892132D01*
X198608599Y-153906747D01*
X198626777Y-153923223D01*
X198643253Y-153941401D01*
X198657868Y-153961107D01*
X198670480Y-153982150D01*
X198680970Y-154004329D01*
X198689235Y-154027428D01*
X198695196Y-154051227D01*
X198698796Y-154075495D01*
X198700000Y-154099999D01*
X198700000Y-154750001D01*
X198698796Y-154774505D01*
X198695196Y-154798773D01*
X198689235Y-154822572D01*
X198680970Y-154845671D01*
X198670480Y-154867850D01*
X198657868Y-154888893D01*
X198643253Y-154908599D01*
X198626777Y-154926777D01*
X198608599Y-154943253D01*
X198588893Y-154957868D01*
X198567850Y-154970480D01*
X198545671Y-154980970D01*
X198522572Y-154989235D01*
X198498773Y-154995196D01*
X198474505Y-154998796D01*
X198450001Y-155000000D01*
X197549999Y-155000000D01*
X197525495Y-154998796D01*
X197501227Y-154995196D01*
X197477428Y-154989235D01*
X197454329Y-154980970D01*
X197432150Y-154970480D01*
X197411107Y-154957868D01*
X197391401Y-154943253D01*
X197373223Y-154926777D01*
X197356747Y-154908599D01*
X197342132Y-154888893D01*
X197329520Y-154867850D01*
X197319030Y-154845671D01*
X197310765Y-154822572D01*
X197304804Y-154798773D01*
X197301204Y-154774505D01*
X197300000Y-154750001D01*
X197300000Y-154099999D01*
X197301204Y-154075495D01*
X197304804Y-154051227D01*
X197310765Y-154027428D01*
X197319030Y-154004329D01*
X197329520Y-153982150D01*
X197342132Y-153961107D01*
X197356747Y-153941401D01*
X197373223Y-153923223D01*
X197391401Y-153906747D01*
X197411107Y-153892132D01*
X197432150Y-153879520D01*
X197454329Y-153869030D01*
X197477428Y-153860765D01*
X197501227Y-153854804D01*
X197525495Y-153851204D01*
X197549999Y-153850000D01*
X198450001Y-153850000D01*
X198474505Y-153851204D01*
X198474505Y-153851204D01*
G37*
D14*
X198000000Y-154425000D03*
D13*
G36*
X198474505Y-151801204D02*
G01*
X198498773Y-151804804D01*
X198522572Y-151810765D01*
X198545671Y-151819030D01*
X198567850Y-151829520D01*
X198588893Y-151842132D01*
X198608599Y-151856747D01*
X198626777Y-151873223D01*
X198643253Y-151891401D01*
X198657868Y-151911107D01*
X198670480Y-151932150D01*
X198680970Y-151954329D01*
X198689235Y-151977428D01*
X198695196Y-152001227D01*
X198698796Y-152025495D01*
X198700000Y-152049999D01*
X198700000Y-152700001D01*
X198698796Y-152724505D01*
X198695196Y-152748773D01*
X198689235Y-152772572D01*
X198680970Y-152795671D01*
X198670480Y-152817850D01*
X198657868Y-152838893D01*
X198643253Y-152858599D01*
X198626777Y-152876777D01*
X198608599Y-152893253D01*
X198588893Y-152907868D01*
X198567850Y-152920480D01*
X198545671Y-152930970D01*
X198522572Y-152939235D01*
X198498773Y-152945196D01*
X198474505Y-152948796D01*
X198450001Y-152950000D01*
X197549999Y-152950000D01*
X197525495Y-152948796D01*
X197501227Y-152945196D01*
X197477428Y-152939235D01*
X197454329Y-152930970D01*
X197432150Y-152920480D01*
X197411107Y-152907868D01*
X197391401Y-152893253D01*
X197373223Y-152876777D01*
X197356747Y-152858599D01*
X197342132Y-152838893D01*
X197329520Y-152817850D01*
X197319030Y-152795671D01*
X197310765Y-152772572D01*
X197304804Y-152748773D01*
X197301204Y-152724505D01*
X197300000Y-152700001D01*
X197300000Y-152049999D01*
X197301204Y-152025495D01*
X197304804Y-152001227D01*
X197310765Y-151977428D01*
X197319030Y-151954329D01*
X197329520Y-151932150D01*
X197342132Y-151911107D01*
X197356747Y-151891401D01*
X197373223Y-151873223D01*
X197391401Y-151856747D01*
X197411107Y-151842132D01*
X197432150Y-151829520D01*
X197454329Y-151819030D01*
X197477428Y-151810765D01*
X197501227Y-151804804D01*
X197525495Y-151801204D01*
X197549999Y-151800000D01*
X198450001Y-151800000D01*
X198474505Y-151801204D01*
X198474505Y-151801204D01*
G37*
D14*
X198000000Y-152375000D03*
D13*
G36*
X198474505Y-143851204D02*
G01*
X198498773Y-143854804D01*
X198522572Y-143860765D01*
X198545671Y-143869030D01*
X198567850Y-143879520D01*
X198588893Y-143892132D01*
X198608599Y-143906747D01*
X198626777Y-143923223D01*
X198643253Y-143941401D01*
X198657868Y-143961107D01*
X198670480Y-143982150D01*
X198680970Y-144004329D01*
X198689235Y-144027428D01*
X198695196Y-144051227D01*
X198698796Y-144075495D01*
X198700000Y-144099999D01*
X198700000Y-144750001D01*
X198698796Y-144774505D01*
X198695196Y-144798773D01*
X198689235Y-144822572D01*
X198680970Y-144845671D01*
X198670480Y-144867850D01*
X198657868Y-144888893D01*
X198643253Y-144908599D01*
X198626777Y-144926777D01*
X198608599Y-144943253D01*
X198588893Y-144957868D01*
X198567850Y-144970480D01*
X198545671Y-144980970D01*
X198522572Y-144989235D01*
X198498773Y-144995196D01*
X198474505Y-144998796D01*
X198450001Y-145000000D01*
X197549999Y-145000000D01*
X197525495Y-144998796D01*
X197501227Y-144995196D01*
X197477428Y-144989235D01*
X197454329Y-144980970D01*
X197432150Y-144970480D01*
X197411107Y-144957868D01*
X197391401Y-144943253D01*
X197373223Y-144926777D01*
X197356747Y-144908599D01*
X197342132Y-144888893D01*
X197329520Y-144867850D01*
X197319030Y-144845671D01*
X197310765Y-144822572D01*
X197304804Y-144798773D01*
X197301204Y-144774505D01*
X197300000Y-144750001D01*
X197300000Y-144099999D01*
X197301204Y-144075495D01*
X197304804Y-144051227D01*
X197310765Y-144027428D01*
X197319030Y-144004329D01*
X197329520Y-143982150D01*
X197342132Y-143961107D01*
X197356747Y-143941401D01*
X197373223Y-143923223D01*
X197391401Y-143906747D01*
X197411107Y-143892132D01*
X197432150Y-143879520D01*
X197454329Y-143869030D01*
X197477428Y-143860765D01*
X197501227Y-143854804D01*
X197525495Y-143851204D01*
X197549999Y-143850000D01*
X198450001Y-143850000D01*
X198474505Y-143851204D01*
X198474505Y-143851204D01*
G37*
D14*
X198000000Y-144425000D03*
D13*
G36*
X198474505Y-141801204D02*
G01*
X198498773Y-141804804D01*
X198522572Y-141810765D01*
X198545671Y-141819030D01*
X198567850Y-141829520D01*
X198588893Y-141842132D01*
X198608599Y-141856747D01*
X198626777Y-141873223D01*
X198643253Y-141891401D01*
X198657868Y-141911107D01*
X198670480Y-141932150D01*
X198680970Y-141954329D01*
X198689235Y-141977428D01*
X198695196Y-142001227D01*
X198698796Y-142025495D01*
X198700000Y-142049999D01*
X198700000Y-142700001D01*
X198698796Y-142724505D01*
X198695196Y-142748773D01*
X198689235Y-142772572D01*
X198680970Y-142795671D01*
X198670480Y-142817850D01*
X198657868Y-142838893D01*
X198643253Y-142858599D01*
X198626777Y-142876777D01*
X198608599Y-142893253D01*
X198588893Y-142907868D01*
X198567850Y-142920480D01*
X198545671Y-142930970D01*
X198522572Y-142939235D01*
X198498773Y-142945196D01*
X198474505Y-142948796D01*
X198450001Y-142950000D01*
X197549999Y-142950000D01*
X197525495Y-142948796D01*
X197501227Y-142945196D01*
X197477428Y-142939235D01*
X197454329Y-142930970D01*
X197432150Y-142920480D01*
X197411107Y-142907868D01*
X197391401Y-142893253D01*
X197373223Y-142876777D01*
X197356747Y-142858599D01*
X197342132Y-142838893D01*
X197329520Y-142817850D01*
X197319030Y-142795671D01*
X197310765Y-142772572D01*
X197304804Y-142748773D01*
X197301204Y-142724505D01*
X197300000Y-142700001D01*
X197300000Y-142049999D01*
X197301204Y-142025495D01*
X197304804Y-142001227D01*
X197310765Y-141977428D01*
X197319030Y-141954329D01*
X197329520Y-141932150D01*
X197342132Y-141911107D01*
X197356747Y-141891401D01*
X197373223Y-141873223D01*
X197391401Y-141856747D01*
X197411107Y-141842132D01*
X197432150Y-141829520D01*
X197454329Y-141819030D01*
X197477428Y-141810765D01*
X197501227Y-141804804D01*
X197525495Y-141801204D01*
X197549999Y-141800000D01*
X198450001Y-141800000D01*
X198474505Y-141801204D01*
X198474505Y-141801204D01*
G37*
D14*
X198000000Y-142375000D03*
D13*
G36*
X168474505Y-143851204D02*
G01*
X168498773Y-143854804D01*
X168522572Y-143860765D01*
X168545671Y-143869030D01*
X168567850Y-143879520D01*
X168588893Y-143892132D01*
X168608599Y-143906747D01*
X168626777Y-143923223D01*
X168643253Y-143941401D01*
X168657868Y-143961107D01*
X168670480Y-143982150D01*
X168680970Y-144004329D01*
X168689235Y-144027428D01*
X168695196Y-144051227D01*
X168698796Y-144075495D01*
X168700000Y-144099999D01*
X168700000Y-144750001D01*
X168698796Y-144774505D01*
X168695196Y-144798773D01*
X168689235Y-144822572D01*
X168680970Y-144845671D01*
X168670480Y-144867850D01*
X168657868Y-144888893D01*
X168643253Y-144908599D01*
X168626777Y-144926777D01*
X168608599Y-144943253D01*
X168588893Y-144957868D01*
X168567850Y-144970480D01*
X168545671Y-144980970D01*
X168522572Y-144989235D01*
X168498773Y-144995196D01*
X168474505Y-144998796D01*
X168450001Y-145000000D01*
X167549999Y-145000000D01*
X167525495Y-144998796D01*
X167501227Y-144995196D01*
X167477428Y-144989235D01*
X167454329Y-144980970D01*
X167432150Y-144970480D01*
X167411107Y-144957868D01*
X167391401Y-144943253D01*
X167373223Y-144926777D01*
X167356747Y-144908599D01*
X167342132Y-144888893D01*
X167329520Y-144867850D01*
X167319030Y-144845671D01*
X167310765Y-144822572D01*
X167304804Y-144798773D01*
X167301204Y-144774505D01*
X167300000Y-144750001D01*
X167300000Y-144099999D01*
X167301204Y-144075495D01*
X167304804Y-144051227D01*
X167310765Y-144027428D01*
X167319030Y-144004329D01*
X167329520Y-143982150D01*
X167342132Y-143961107D01*
X167356747Y-143941401D01*
X167373223Y-143923223D01*
X167391401Y-143906747D01*
X167411107Y-143892132D01*
X167432150Y-143879520D01*
X167454329Y-143869030D01*
X167477428Y-143860765D01*
X167501227Y-143854804D01*
X167525495Y-143851204D01*
X167549999Y-143850000D01*
X168450001Y-143850000D01*
X168474505Y-143851204D01*
X168474505Y-143851204D01*
G37*
D14*
X168000000Y-144425000D03*
D13*
G36*
X168474505Y-141801204D02*
G01*
X168498773Y-141804804D01*
X168522572Y-141810765D01*
X168545671Y-141819030D01*
X168567850Y-141829520D01*
X168588893Y-141842132D01*
X168608599Y-141856747D01*
X168626777Y-141873223D01*
X168643253Y-141891401D01*
X168657868Y-141911107D01*
X168670480Y-141932150D01*
X168680970Y-141954329D01*
X168689235Y-141977428D01*
X168695196Y-142001227D01*
X168698796Y-142025495D01*
X168700000Y-142049999D01*
X168700000Y-142700001D01*
X168698796Y-142724505D01*
X168695196Y-142748773D01*
X168689235Y-142772572D01*
X168680970Y-142795671D01*
X168670480Y-142817850D01*
X168657868Y-142838893D01*
X168643253Y-142858599D01*
X168626777Y-142876777D01*
X168608599Y-142893253D01*
X168588893Y-142907868D01*
X168567850Y-142920480D01*
X168545671Y-142930970D01*
X168522572Y-142939235D01*
X168498773Y-142945196D01*
X168474505Y-142948796D01*
X168450001Y-142950000D01*
X167549999Y-142950000D01*
X167525495Y-142948796D01*
X167501227Y-142945196D01*
X167477428Y-142939235D01*
X167454329Y-142930970D01*
X167432150Y-142920480D01*
X167411107Y-142907868D01*
X167391401Y-142893253D01*
X167373223Y-142876777D01*
X167356747Y-142858599D01*
X167342132Y-142838893D01*
X167329520Y-142817850D01*
X167319030Y-142795671D01*
X167310765Y-142772572D01*
X167304804Y-142748773D01*
X167301204Y-142724505D01*
X167300000Y-142700001D01*
X167300000Y-142049999D01*
X167301204Y-142025495D01*
X167304804Y-142001227D01*
X167310765Y-141977428D01*
X167319030Y-141954329D01*
X167329520Y-141932150D01*
X167342132Y-141911107D01*
X167356747Y-141891401D01*
X167373223Y-141873223D01*
X167391401Y-141856747D01*
X167411107Y-141842132D01*
X167432150Y-141829520D01*
X167454329Y-141819030D01*
X167477428Y-141810765D01*
X167501227Y-141804804D01*
X167525495Y-141801204D01*
X167549999Y-141800000D01*
X168450001Y-141800000D01*
X168474505Y-141801204D01*
X168474505Y-141801204D01*
G37*
D14*
X168000000Y-142375000D03*
D13*
G36*
X168474505Y-148851204D02*
G01*
X168498773Y-148854804D01*
X168522572Y-148860765D01*
X168545671Y-148869030D01*
X168567850Y-148879520D01*
X168588893Y-148892132D01*
X168608599Y-148906747D01*
X168626777Y-148923223D01*
X168643253Y-148941401D01*
X168657868Y-148961107D01*
X168670480Y-148982150D01*
X168680970Y-149004329D01*
X168689235Y-149027428D01*
X168695196Y-149051227D01*
X168698796Y-149075495D01*
X168700000Y-149099999D01*
X168700000Y-149750001D01*
X168698796Y-149774505D01*
X168695196Y-149798773D01*
X168689235Y-149822572D01*
X168680970Y-149845671D01*
X168670480Y-149867850D01*
X168657868Y-149888893D01*
X168643253Y-149908599D01*
X168626777Y-149926777D01*
X168608599Y-149943253D01*
X168588893Y-149957868D01*
X168567850Y-149970480D01*
X168545671Y-149980970D01*
X168522572Y-149989235D01*
X168498773Y-149995196D01*
X168474505Y-149998796D01*
X168450001Y-150000000D01*
X167549999Y-150000000D01*
X167525495Y-149998796D01*
X167501227Y-149995196D01*
X167477428Y-149989235D01*
X167454329Y-149980970D01*
X167432150Y-149970480D01*
X167411107Y-149957868D01*
X167391401Y-149943253D01*
X167373223Y-149926777D01*
X167356747Y-149908599D01*
X167342132Y-149888893D01*
X167329520Y-149867850D01*
X167319030Y-149845671D01*
X167310765Y-149822572D01*
X167304804Y-149798773D01*
X167301204Y-149774505D01*
X167300000Y-149750001D01*
X167300000Y-149099999D01*
X167301204Y-149075495D01*
X167304804Y-149051227D01*
X167310765Y-149027428D01*
X167319030Y-149004329D01*
X167329520Y-148982150D01*
X167342132Y-148961107D01*
X167356747Y-148941401D01*
X167373223Y-148923223D01*
X167391401Y-148906747D01*
X167411107Y-148892132D01*
X167432150Y-148879520D01*
X167454329Y-148869030D01*
X167477428Y-148860765D01*
X167501227Y-148854804D01*
X167525495Y-148851204D01*
X167549999Y-148850000D01*
X168450001Y-148850000D01*
X168474505Y-148851204D01*
X168474505Y-148851204D01*
G37*
D14*
X168000000Y-149425000D03*
D13*
G36*
X168474505Y-146801204D02*
G01*
X168498773Y-146804804D01*
X168522572Y-146810765D01*
X168545671Y-146819030D01*
X168567850Y-146829520D01*
X168588893Y-146842132D01*
X168608599Y-146856747D01*
X168626777Y-146873223D01*
X168643253Y-146891401D01*
X168657868Y-146911107D01*
X168670480Y-146932150D01*
X168680970Y-146954329D01*
X168689235Y-146977428D01*
X168695196Y-147001227D01*
X168698796Y-147025495D01*
X168700000Y-147049999D01*
X168700000Y-147700001D01*
X168698796Y-147724505D01*
X168695196Y-147748773D01*
X168689235Y-147772572D01*
X168680970Y-147795671D01*
X168670480Y-147817850D01*
X168657868Y-147838893D01*
X168643253Y-147858599D01*
X168626777Y-147876777D01*
X168608599Y-147893253D01*
X168588893Y-147907868D01*
X168567850Y-147920480D01*
X168545671Y-147930970D01*
X168522572Y-147939235D01*
X168498773Y-147945196D01*
X168474505Y-147948796D01*
X168450001Y-147950000D01*
X167549999Y-147950000D01*
X167525495Y-147948796D01*
X167501227Y-147945196D01*
X167477428Y-147939235D01*
X167454329Y-147930970D01*
X167432150Y-147920480D01*
X167411107Y-147907868D01*
X167391401Y-147893253D01*
X167373223Y-147876777D01*
X167356747Y-147858599D01*
X167342132Y-147838893D01*
X167329520Y-147817850D01*
X167319030Y-147795671D01*
X167310765Y-147772572D01*
X167304804Y-147748773D01*
X167301204Y-147724505D01*
X167300000Y-147700001D01*
X167300000Y-147049999D01*
X167301204Y-147025495D01*
X167304804Y-147001227D01*
X167310765Y-146977428D01*
X167319030Y-146954329D01*
X167329520Y-146932150D01*
X167342132Y-146911107D01*
X167356747Y-146891401D01*
X167373223Y-146873223D01*
X167391401Y-146856747D01*
X167411107Y-146842132D01*
X167432150Y-146829520D01*
X167454329Y-146819030D01*
X167477428Y-146810765D01*
X167501227Y-146804804D01*
X167525495Y-146801204D01*
X167549999Y-146800000D01*
X168450001Y-146800000D01*
X168474505Y-146801204D01*
X168474505Y-146801204D01*
G37*
D14*
X168000000Y-147375000D03*
D13*
G36*
X172474505Y-143851204D02*
G01*
X172498773Y-143854804D01*
X172522572Y-143860765D01*
X172545671Y-143869030D01*
X172567850Y-143879520D01*
X172588893Y-143892132D01*
X172608599Y-143906747D01*
X172626777Y-143923223D01*
X172643253Y-143941401D01*
X172657868Y-143961107D01*
X172670480Y-143982150D01*
X172680970Y-144004329D01*
X172689235Y-144027428D01*
X172695196Y-144051227D01*
X172698796Y-144075495D01*
X172700000Y-144099999D01*
X172700000Y-144750001D01*
X172698796Y-144774505D01*
X172695196Y-144798773D01*
X172689235Y-144822572D01*
X172680970Y-144845671D01*
X172670480Y-144867850D01*
X172657868Y-144888893D01*
X172643253Y-144908599D01*
X172626777Y-144926777D01*
X172608599Y-144943253D01*
X172588893Y-144957868D01*
X172567850Y-144970480D01*
X172545671Y-144980970D01*
X172522572Y-144989235D01*
X172498773Y-144995196D01*
X172474505Y-144998796D01*
X172450001Y-145000000D01*
X171549999Y-145000000D01*
X171525495Y-144998796D01*
X171501227Y-144995196D01*
X171477428Y-144989235D01*
X171454329Y-144980970D01*
X171432150Y-144970480D01*
X171411107Y-144957868D01*
X171391401Y-144943253D01*
X171373223Y-144926777D01*
X171356747Y-144908599D01*
X171342132Y-144888893D01*
X171329520Y-144867850D01*
X171319030Y-144845671D01*
X171310765Y-144822572D01*
X171304804Y-144798773D01*
X171301204Y-144774505D01*
X171300000Y-144750001D01*
X171300000Y-144099999D01*
X171301204Y-144075495D01*
X171304804Y-144051227D01*
X171310765Y-144027428D01*
X171319030Y-144004329D01*
X171329520Y-143982150D01*
X171342132Y-143961107D01*
X171356747Y-143941401D01*
X171373223Y-143923223D01*
X171391401Y-143906747D01*
X171411107Y-143892132D01*
X171432150Y-143879520D01*
X171454329Y-143869030D01*
X171477428Y-143860765D01*
X171501227Y-143854804D01*
X171525495Y-143851204D01*
X171549999Y-143850000D01*
X172450001Y-143850000D01*
X172474505Y-143851204D01*
X172474505Y-143851204D01*
G37*
D14*
X172000000Y-144425000D03*
D13*
G36*
X172474505Y-141801204D02*
G01*
X172498773Y-141804804D01*
X172522572Y-141810765D01*
X172545671Y-141819030D01*
X172567850Y-141829520D01*
X172588893Y-141842132D01*
X172608599Y-141856747D01*
X172626777Y-141873223D01*
X172643253Y-141891401D01*
X172657868Y-141911107D01*
X172670480Y-141932150D01*
X172680970Y-141954329D01*
X172689235Y-141977428D01*
X172695196Y-142001227D01*
X172698796Y-142025495D01*
X172700000Y-142049999D01*
X172700000Y-142700001D01*
X172698796Y-142724505D01*
X172695196Y-142748773D01*
X172689235Y-142772572D01*
X172680970Y-142795671D01*
X172670480Y-142817850D01*
X172657868Y-142838893D01*
X172643253Y-142858599D01*
X172626777Y-142876777D01*
X172608599Y-142893253D01*
X172588893Y-142907868D01*
X172567850Y-142920480D01*
X172545671Y-142930970D01*
X172522572Y-142939235D01*
X172498773Y-142945196D01*
X172474505Y-142948796D01*
X172450001Y-142950000D01*
X171549999Y-142950000D01*
X171525495Y-142948796D01*
X171501227Y-142945196D01*
X171477428Y-142939235D01*
X171454329Y-142930970D01*
X171432150Y-142920480D01*
X171411107Y-142907868D01*
X171391401Y-142893253D01*
X171373223Y-142876777D01*
X171356747Y-142858599D01*
X171342132Y-142838893D01*
X171329520Y-142817850D01*
X171319030Y-142795671D01*
X171310765Y-142772572D01*
X171304804Y-142748773D01*
X171301204Y-142724505D01*
X171300000Y-142700001D01*
X171300000Y-142049999D01*
X171301204Y-142025495D01*
X171304804Y-142001227D01*
X171310765Y-141977428D01*
X171319030Y-141954329D01*
X171329520Y-141932150D01*
X171342132Y-141911107D01*
X171356747Y-141891401D01*
X171373223Y-141873223D01*
X171391401Y-141856747D01*
X171411107Y-141842132D01*
X171432150Y-141829520D01*
X171454329Y-141819030D01*
X171477428Y-141810765D01*
X171501227Y-141804804D01*
X171525495Y-141801204D01*
X171549999Y-141800000D01*
X172450001Y-141800000D01*
X172474505Y-141801204D01*
X172474505Y-141801204D01*
G37*
D14*
X172000000Y-142375000D03*
D13*
G36*
X172474505Y-148851204D02*
G01*
X172498773Y-148854804D01*
X172522572Y-148860765D01*
X172545671Y-148869030D01*
X172567850Y-148879520D01*
X172588893Y-148892132D01*
X172608599Y-148906747D01*
X172626777Y-148923223D01*
X172643253Y-148941401D01*
X172657868Y-148961107D01*
X172670480Y-148982150D01*
X172680970Y-149004329D01*
X172689235Y-149027428D01*
X172695196Y-149051227D01*
X172698796Y-149075495D01*
X172700000Y-149099999D01*
X172700000Y-149750001D01*
X172698796Y-149774505D01*
X172695196Y-149798773D01*
X172689235Y-149822572D01*
X172680970Y-149845671D01*
X172670480Y-149867850D01*
X172657868Y-149888893D01*
X172643253Y-149908599D01*
X172626777Y-149926777D01*
X172608599Y-149943253D01*
X172588893Y-149957868D01*
X172567850Y-149970480D01*
X172545671Y-149980970D01*
X172522572Y-149989235D01*
X172498773Y-149995196D01*
X172474505Y-149998796D01*
X172450001Y-150000000D01*
X171549999Y-150000000D01*
X171525495Y-149998796D01*
X171501227Y-149995196D01*
X171477428Y-149989235D01*
X171454329Y-149980970D01*
X171432150Y-149970480D01*
X171411107Y-149957868D01*
X171391401Y-149943253D01*
X171373223Y-149926777D01*
X171356747Y-149908599D01*
X171342132Y-149888893D01*
X171329520Y-149867850D01*
X171319030Y-149845671D01*
X171310765Y-149822572D01*
X171304804Y-149798773D01*
X171301204Y-149774505D01*
X171300000Y-149750001D01*
X171300000Y-149099999D01*
X171301204Y-149075495D01*
X171304804Y-149051227D01*
X171310765Y-149027428D01*
X171319030Y-149004329D01*
X171329520Y-148982150D01*
X171342132Y-148961107D01*
X171356747Y-148941401D01*
X171373223Y-148923223D01*
X171391401Y-148906747D01*
X171411107Y-148892132D01*
X171432150Y-148879520D01*
X171454329Y-148869030D01*
X171477428Y-148860765D01*
X171501227Y-148854804D01*
X171525495Y-148851204D01*
X171549999Y-148850000D01*
X172450001Y-148850000D01*
X172474505Y-148851204D01*
X172474505Y-148851204D01*
G37*
D14*
X172000000Y-149425000D03*
D13*
G36*
X172474505Y-146801204D02*
G01*
X172498773Y-146804804D01*
X172522572Y-146810765D01*
X172545671Y-146819030D01*
X172567850Y-146829520D01*
X172588893Y-146842132D01*
X172608599Y-146856747D01*
X172626777Y-146873223D01*
X172643253Y-146891401D01*
X172657868Y-146911107D01*
X172670480Y-146932150D01*
X172680970Y-146954329D01*
X172689235Y-146977428D01*
X172695196Y-147001227D01*
X172698796Y-147025495D01*
X172700000Y-147049999D01*
X172700000Y-147700001D01*
X172698796Y-147724505D01*
X172695196Y-147748773D01*
X172689235Y-147772572D01*
X172680970Y-147795671D01*
X172670480Y-147817850D01*
X172657868Y-147838893D01*
X172643253Y-147858599D01*
X172626777Y-147876777D01*
X172608599Y-147893253D01*
X172588893Y-147907868D01*
X172567850Y-147920480D01*
X172545671Y-147930970D01*
X172522572Y-147939235D01*
X172498773Y-147945196D01*
X172474505Y-147948796D01*
X172450001Y-147950000D01*
X171549999Y-147950000D01*
X171525495Y-147948796D01*
X171501227Y-147945196D01*
X171477428Y-147939235D01*
X171454329Y-147930970D01*
X171432150Y-147920480D01*
X171411107Y-147907868D01*
X171391401Y-147893253D01*
X171373223Y-147876777D01*
X171356747Y-147858599D01*
X171342132Y-147838893D01*
X171329520Y-147817850D01*
X171319030Y-147795671D01*
X171310765Y-147772572D01*
X171304804Y-147748773D01*
X171301204Y-147724505D01*
X171300000Y-147700001D01*
X171300000Y-147049999D01*
X171301204Y-147025495D01*
X171304804Y-147001227D01*
X171310765Y-146977428D01*
X171319030Y-146954329D01*
X171329520Y-146932150D01*
X171342132Y-146911107D01*
X171356747Y-146891401D01*
X171373223Y-146873223D01*
X171391401Y-146856747D01*
X171411107Y-146842132D01*
X171432150Y-146829520D01*
X171454329Y-146819030D01*
X171477428Y-146810765D01*
X171501227Y-146804804D01*
X171525495Y-146801204D01*
X171549999Y-146800000D01*
X172450001Y-146800000D01*
X172474505Y-146801204D01*
X172474505Y-146801204D01*
G37*
D14*
X172000000Y-147375000D03*
D13*
G36*
X168474505Y-153851204D02*
G01*
X168498773Y-153854804D01*
X168522572Y-153860765D01*
X168545671Y-153869030D01*
X168567850Y-153879520D01*
X168588893Y-153892132D01*
X168608599Y-153906747D01*
X168626777Y-153923223D01*
X168643253Y-153941401D01*
X168657868Y-153961107D01*
X168670480Y-153982150D01*
X168680970Y-154004329D01*
X168689235Y-154027428D01*
X168695196Y-154051227D01*
X168698796Y-154075495D01*
X168700000Y-154099999D01*
X168700000Y-154750001D01*
X168698796Y-154774505D01*
X168695196Y-154798773D01*
X168689235Y-154822572D01*
X168680970Y-154845671D01*
X168670480Y-154867850D01*
X168657868Y-154888893D01*
X168643253Y-154908599D01*
X168626777Y-154926777D01*
X168608599Y-154943253D01*
X168588893Y-154957868D01*
X168567850Y-154970480D01*
X168545671Y-154980970D01*
X168522572Y-154989235D01*
X168498773Y-154995196D01*
X168474505Y-154998796D01*
X168450001Y-155000000D01*
X167549999Y-155000000D01*
X167525495Y-154998796D01*
X167501227Y-154995196D01*
X167477428Y-154989235D01*
X167454329Y-154980970D01*
X167432150Y-154970480D01*
X167411107Y-154957868D01*
X167391401Y-154943253D01*
X167373223Y-154926777D01*
X167356747Y-154908599D01*
X167342132Y-154888893D01*
X167329520Y-154867850D01*
X167319030Y-154845671D01*
X167310765Y-154822572D01*
X167304804Y-154798773D01*
X167301204Y-154774505D01*
X167300000Y-154750001D01*
X167300000Y-154099999D01*
X167301204Y-154075495D01*
X167304804Y-154051227D01*
X167310765Y-154027428D01*
X167319030Y-154004329D01*
X167329520Y-153982150D01*
X167342132Y-153961107D01*
X167356747Y-153941401D01*
X167373223Y-153923223D01*
X167391401Y-153906747D01*
X167411107Y-153892132D01*
X167432150Y-153879520D01*
X167454329Y-153869030D01*
X167477428Y-153860765D01*
X167501227Y-153854804D01*
X167525495Y-153851204D01*
X167549999Y-153850000D01*
X168450001Y-153850000D01*
X168474505Y-153851204D01*
X168474505Y-153851204D01*
G37*
D14*
X168000000Y-154425000D03*
D13*
G36*
X168474505Y-151801204D02*
G01*
X168498773Y-151804804D01*
X168522572Y-151810765D01*
X168545671Y-151819030D01*
X168567850Y-151829520D01*
X168588893Y-151842132D01*
X168608599Y-151856747D01*
X168626777Y-151873223D01*
X168643253Y-151891401D01*
X168657868Y-151911107D01*
X168670480Y-151932150D01*
X168680970Y-151954329D01*
X168689235Y-151977428D01*
X168695196Y-152001227D01*
X168698796Y-152025495D01*
X168700000Y-152049999D01*
X168700000Y-152700001D01*
X168698796Y-152724505D01*
X168695196Y-152748773D01*
X168689235Y-152772572D01*
X168680970Y-152795671D01*
X168670480Y-152817850D01*
X168657868Y-152838893D01*
X168643253Y-152858599D01*
X168626777Y-152876777D01*
X168608599Y-152893253D01*
X168588893Y-152907868D01*
X168567850Y-152920480D01*
X168545671Y-152930970D01*
X168522572Y-152939235D01*
X168498773Y-152945196D01*
X168474505Y-152948796D01*
X168450001Y-152950000D01*
X167549999Y-152950000D01*
X167525495Y-152948796D01*
X167501227Y-152945196D01*
X167477428Y-152939235D01*
X167454329Y-152930970D01*
X167432150Y-152920480D01*
X167411107Y-152907868D01*
X167391401Y-152893253D01*
X167373223Y-152876777D01*
X167356747Y-152858599D01*
X167342132Y-152838893D01*
X167329520Y-152817850D01*
X167319030Y-152795671D01*
X167310765Y-152772572D01*
X167304804Y-152748773D01*
X167301204Y-152724505D01*
X167300000Y-152700001D01*
X167300000Y-152049999D01*
X167301204Y-152025495D01*
X167304804Y-152001227D01*
X167310765Y-151977428D01*
X167319030Y-151954329D01*
X167329520Y-151932150D01*
X167342132Y-151911107D01*
X167356747Y-151891401D01*
X167373223Y-151873223D01*
X167391401Y-151856747D01*
X167411107Y-151842132D01*
X167432150Y-151829520D01*
X167454329Y-151819030D01*
X167477428Y-151810765D01*
X167501227Y-151804804D01*
X167525495Y-151801204D01*
X167549999Y-151800000D01*
X168450001Y-151800000D01*
X168474505Y-151801204D01*
X168474505Y-151801204D01*
G37*
D14*
X168000000Y-152375000D03*
D13*
G36*
X172474505Y-151801204D02*
G01*
X172498773Y-151804804D01*
X172522572Y-151810765D01*
X172545671Y-151819030D01*
X172567850Y-151829520D01*
X172588893Y-151842132D01*
X172608599Y-151856747D01*
X172626777Y-151873223D01*
X172643253Y-151891401D01*
X172657868Y-151911107D01*
X172670480Y-151932150D01*
X172680970Y-151954329D01*
X172689235Y-151977428D01*
X172695196Y-152001227D01*
X172698796Y-152025495D01*
X172700000Y-152049999D01*
X172700000Y-152700001D01*
X172698796Y-152724505D01*
X172695196Y-152748773D01*
X172689235Y-152772572D01*
X172680970Y-152795671D01*
X172670480Y-152817850D01*
X172657868Y-152838893D01*
X172643253Y-152858599D01*
X172626777Y-152876777D01*
X172608599Y-152893253D01*
X172588893Y-152907868D01*
X172567850Y-152920480D01*
X172545671Y-152930970D01*
X172522572Y-152939235D01*
X172498773Y-152945196D01*
X172474505Y-152948796D01*
X172450001Y-152950000D01*
X171549999Y-152950000D01*
X171525495Y-152948796D01*
X171501227Y-152945196D01*
X171477428Y-152939235D01*
X171454329Y-152930970D01*
X171432150Y-152920480D01*
X171411107Y-152907868D01*
X171391401Y-152893253D01*
X171373223Y-152876777D01*
X171356747Y-152858599D01*
X171342132Y-152838893D01*
X171329520Y-152817850D01*
X171319030Y-152795671D01*
X171310765Y-152772572D01*
X171304804Y-152748773D01*
X171301204Y-152724505D01*
X171300000Y-152700001D01*
X171300000Y-152049999D01*
X171301204Y-152025495D01*
X171304804Y-152001227D01*
X171310765Y-151977428D01*
X171319030Y-151954329D01*
X171329520Y-151932150D01*
X171342132Y-151911107D01*
X171356747Y-151891401D01*
X171373223Y-151873223D01*
X171391401Y-151856747D01*
X171411107Y-151842132D01*
X171432150Y-151829520D01*
X171454329Y-151819030D01*
X171477428Y-151810765D01*
X171501227Y-151804804D01*
X171525495Y-151801204D01*
X171549999Y-151800000D01*
X172450001Y-151800000D01*
X172474505Y-151801204D01*
X172474505Y-151801204D01*
G37*
D14*
X172000000Y-152375000D03*
D13*
G36*
X172474505Y-153851204D02*
G01*
X172498773Y-153854804D01*
X172522572Y-153860765D01*
X172545671Y-153869030D01*
X172567850Y-153879520D01*
X172588893Y-153892132D01*
X172608599Y-153906747D01*
X172626777Y-153923223D01*
X172643253Y-153941401D01*
X172657868Y-153961107D01*
X172670480Y-153982150D01*
X172680970Y-154004329D01*
X172689235Y-154027428D01*
X172695196Y-154051227D01*
X172698796Y-154075495D01*
X172700000Y-154099999D01*
X172700000Y-154750001D01*
X172698796Y-154774505D01*
X172695196Y-154798773D01*
X172689235Y-154822572D01*
X172680970Y-154845671D01*
X172670480Y-154867850D01*
X172657868Y-154888893D01*
X172643253Y-154908599D01*
X172626777Y-154926777D01*
X172608599Y-154943253D01*
X172588893Y-154957868D01*
X172567850Y-154970480D01*
X172545671Y-154980970D01*
X172522572Y-154989235D01*
X172498773Y-154995196D01*
X172474505Y-154998796D01*
X172450001Y-155000000D01*
X171549999Y-155000000D01*
X171525495Y-154998796D01*
X171501227Y-154995196D01*
X171477428Y-154989235D01*
X171454329Y-154980970D01*
X171432150Y-154970480D01*
X171411107Y-154957868D01*
X171391401Y-154943253D01*
X171373223Y-154926777D01*
X171356747Y-154908599D01*
X171342132Y-154888893D01*
X171329520Y-154867850D01*
X171319030Y-154845671D01*
X171310765Y-154822572D01*
X171304804Y-154798773D01*
X171301204Y-154774505D01*
X171300000Y-154750001D01*
X171300000Y-154099999D01*
X171301204Y-154075495D01*
X171304804Y-154051227D01*
X171310765Y-154027428D01*
X171319030Y-154004329D01*
X171329520Y-153982150D01*
X171342132Y-153961107D01*
X171356747Y-153941401D01*
X171373223Y-153923223D01*
X171391401Y-153906747D01*
X171411107Y-153892132D01*
X171432150Y-153879520D01*
X171454329Y-153869030D01*
X171477428Y-153860765D01*
X171501227Y-153854804D01*
X171525495Y-153851204D01*
X171549999Y-153850000D01*
X172450001Y-153850000D01*
X172474505Y-153851204D01*
X172474505Y-153851204D01*
G37*
D14*
X172000000Y-154425000D03*
D15*
X198640000Y-190060000D03*
X198640000Y-195140000D03*
X193560000Y-195140000D03*
X193560000Y-190060000D03*
X196100000Y-192600000D03*
X172340000Y-190160000D03*
X172340000Y-195240000D03*
X167260000Y-195240000D03*
X167260000Y-190160000D03*
X169800000Y-192700000D03*
D16*
X170000000Y-121400000D03*
X161000000Y-118400000D03*
X189000000Y-118400000D03*
X180000000Y-121400000D03*
D17*
X162000000Y-128400000D03*
X163000000Y-147400000D03*
X179000000Y-147400000D03*
X188000000Y-128400000D03*
X160000000Y-109400000D03*
X144000000Y-87400000D03*
X160000000Y-93400000D03*
X147000000Y-106400000D03*
X196000000Y-140900000D03*
X189000000Y-118400000D03*
X161000000Y-118400000D03*
D10*
X168000000Y-142375000D02*
X172000000Y-142375000D01*
X169975000Y-147375000D02*
X169975000Y-144425000D01*
X169975000Y-144425000D02*
X172000000Y-144425000D01*
X168000000Y-144425000D02*
X169975000Y-144425000D01*
X169975000Y-147375000D02*
X172000000Y-147375000D01*
X168000000Y-147375000D02*
X169975000Y-147375000D01*
X169975000Y-152375000D02*
X169975000Y-149425000D01*
X169975000Y-149425000D02*
X172000000Y-149425000D01*
X168000000Y-149425000D02*
X169975000Y-149425000D01*
X169975000Y-152375000D02*
X172000000Y-152375000D01*
X168000000Y-152375000D02*
X169975000Y-152375000D01*
X196025000Y-147375000D02*
X194000000Y-147375000D01*
X196025000Y-144425000D02*
X196025000Y-147375000D01*
X196025000Y-149425000D02*
X194000000Y-149425000D01*
X196025000Y-149425000D02*
X196025000Y-152375000D01*
X198000000Y-144425000D02*
X196025000Y-144425000D01*
X198000000Y-152375000D02*
X196025000Y-152375000D01*
X198000000Y-149425000D02*
X196025000Y-149425000D01*
X198000000Y-147375000D02*
X196025000Y-147375000D01*
X196025000Y-144425000D02*
X194000000Y-144425000D01*
X196025000Y-152375000D02*
X194000000Y-152375000D01*
D18*
X195980000Y-173290000D02*
X195930000Y-173240000D01*
D10*
X196000000Y-179400000D02*
X196000000Y-173930000D01*
D18*
X195930000Y-162670000D02*
X195960000Y-162640000D01*
D10*
X196000000Y-168890000D02*
X196000000Y-163400000D01*
D18*
X195960000Y-154660000D02*
X195725000Y-154425000D01*
D10*
X198000000Y-154425000D02*
X195725000Y-154425000D01*
X195725000Y-154425000D02*
X194000000Y-154425000D01*
D18*
X169830000Y-163320000D02*
X169860000Y-163290000D01*
D10*
X169830000Y-168810000D02*
X169830000Y-163320000D01*
D18*
X169830000Y-179360000D02*
X169880000Y-179410000D01*
D10*
X169830000Y-173890000D02*
X169830000Y-179360000D01*
D18*
X169800000Y-184570000D02*
X169880000Y-184490000D01*
X169860000Y-154510000D02*
X169775000Y-154425000D01*
D10*
X172000000Y-154425000D02*
X169775000Y-154425000D01*
X169775000Y-154425000D02*
X168000000Y-154425000D01*
D19*
X198640000Y-195140000D02*
X193560000Y-195140000D01*
X198640000Y-190060000D02*
X198640000Y-195140000D01*
X167260000Y-195240000D02*
X172340000Y-195240000D01*
X193460000Y-195240000D02*
X193560000Y-195140000D01*
X172340000Y-195240000D02*
X193460000Y-195240000D01*
X193460000Y-190160000D02*
X193560000Y-190060000D01*
X172340000Y-190160000D02*
X193460000Y-190160000D01*
X193340000Y-191310000D02*
X193560000Y-191090000D01*
X172340000Y-191310000D02*
X193340000Y-191310000D01*
X193560000Y-190060000D02*
X193560000Y-191090000D01*
X172340000Y-191310000D02*
X172340000Y-190160000D01*
X193530000Y-192490000D02*
X193560000Y-192460000D01*
X172340000Y-192490000D02*
X193530000Y-192490000D01*
X193560000Y-191090000D02*
X193560000Y-192460000D01*
X172340000Y-192490000D02*
X172340000Y-191310000D01*
X193410000Y-193810000D02*
X193560000Y-193960000D01*
X172340000Y-193810000D02*
X193410000Y-193810000D01*
X193560000Y-193960000D02*
X193560000Y-195140000D01*
X193560000Y-192460000D02*
X193560000Y-193960000D01*
X172340000Y-193810000D02*
X172340000Y-192490000D01*
X172340000Y-195240000D02*
X172340000Y-193810000D01*
D10*
X196000000Y-142350000D02*
X196025000Y-142375000D01*
X196000000Y-140900000D02*
X196000000Y-142350000D01*
X194000000Y-142375000D02*
X196025000Y-142375000D01*
X196025000Y-142375000D02*
X198000000Y-142375000D01*
D19*
X167260000Y-190160000D02*
X167260000Y-195240000D01*
D10*
X169800000Y-192700000D02*
X169800000Y-184570000D01*
X195960000Y-157560000D02*
X195960000Y-154660000D01*
D18*
X196100000Y-183960000D02*
X195980000Y-183840000D01*
D10*
X196000000Y-193040000D02*
X196000000Y-184400000D01*
X169860000Y-158210000D02*
X169860000Y-154510000D01*
M02*
