G04 #@! TF.GenerationSoftware,KiCad,Pcbnew,(5.1.0)-1*
G04 #@! TF.CreationDate,2020-11-17T09:33:10+00:00*
G04 #@! TF.ProjectId,single_coil,73696e67-6c65-45f6-936f-696c2e6b6963,rev?*
G04 #@! TF.SameCoordinates,Original*
G04 #@! TF.FileFunction,Soldermask,Bot*
G04 #@! TF.FilePolarity,Negative*
%FSLAX46Y46*%
G04 Gerber Fmt 4.6, Leading zero omitted, Abs format (unit mm)*
G04 Created by KiCad (PCBNEW (5.1.0)-1) date 2020-11-17 09:33:10*
%MOMM*%
%LPD*%
G04 APERTURE LIST*
%ADD10C,0.100000*%
G04 APERTURE END LIST*
D10*
G36*
X167451560Y-194079064D02*
G01*
X167603027Y-194109193D01*
X167817045Y-194197842D01*
X167817046Y-194197843D01*
X168009654Y-194326539D01*
X168173461Y-194490346D01*
X168235339Y-194582954D01*
X168302158Y-194682955D01*
X168390807Y-194896973D01*
X168436000Y-195124174D01*
X168436000Y-195355826D01*
X168390807Y-195583027D01*
X168302158Y-195797045D01*
X168302157Y-195797046D01*
X168173461Y-195989654D01*
X168009654Y-196153461D01*
X167881249Y-196239258D01*
X167817045Y-196282158D01*
X167603027Y-196370807D01*
X167451560Y-196400936D01*
X167375827Y-196416000D01*
X167144173Y-196416000D01*
X167068440Y-196400936D01*
X166916973Y-196370807D01*
X166702955Y-196282158D01*
X166638751Y-196239258D01*
X166510346Y-196153461D01*
X166346539Y-195989654D01*
X166217843Y-195797046D01*
X166217842Y-195797045D01*
X166129193Y-195583027D01*
X166084000Y-195355826D01*
X166084000Y-195124174D01*
X166129193Y-194896973D01*
X166217842Y-194682955D01*
X166284661Y-194582954D01*
X166346539Y-194490346D01*
X166510346Y-194326539D01*
X166702954Y-194197843D01*
X166702955Y-194197842D01*
X166916973Y-194109193D01*
X167068440Y-194079064D01*
X167144173Y-194064000D01*
X167375827Y-194064000D01*
X167451560Y-194079064D01*
X167451560Y-194079064D01*
G37*
G36*
X172531560Y-194079064D02*
G01*
X172683027Y-194109193D01*
X172897045Y-194197842D01*
X172897046Y-194197843D01*
X173089654Y-194326539D01*
X173253461Y-194490346D01*
X173315339Y-194582954D01*
X173382158Y-194682955D01*
X173470807Y-194896973D01*
X173516000Y-195124174D01*
X173516000Y-195355826D01*
X173470807Y-195583027D01*
X173382158Y-195797045D01*
X173382157Y-195797046D01*
X173253461Y-195989654D01*
X173089654Y-196153461D01*
X172961249Y-196239258D01*
X172897045Y-196282158D01*
X172683027Y-196370807D01*
X172531560Y-196400936D01*
X172455827Y-196416000D01*
X172224173Y-196416000D01*
X172148440Y-196400936D01*
X171996973Y-196370807D01*
X171782955Y-196282158D01*
X171718751Y-196239258D01*
X171590346Y-196153461D01*
X171426539Y-195989654D01*
X171297843Y-195797046D01*
X171297842Y-195797045D01*
X171209193Y-195583027D01*
X171164000Y-195355826D01*
X171164000Y-195124174D01*
X171209193Y-194896973D01*
X171297842Y-194682955D01*
X171364661Y-194582954D01*
X171426539Y-194490346D01*
X171590346Y-194326539D01*
X171782954Y-194197843D01*
X171782955Y-194197842D01*
X171996973Y-194109193D01*
X172148440Y-194079064D01*
X172224173Y-194064000D01*
X172455827Y-194064000D01*
X172531560Y-194079064D01*
X172531560Y-194079064D01*
G37*
G36*
X198831560Y-193979064D02*
G01*
X198983027Y-194009193D01*
X199197045Y-194097842D01*
X199197046Y-194097843D01*
X199389654Y-194226539D01*
X199553461Y-194390346D01*
X199639258Y-194518751D01*
X199682158Y-194582955D01*
X199770807Y-194796973D01*
X199816000Y-195024174D01*
X199816000Y-195255826D01*
X199770807Y-195483027D01*
X199682158Y-195697045D01*
X199682157Y-195697046D01*
X199553461Y-195889654D01*
X199389654Y-196053461D01*
X199261249Y-196139258D01*
X199197045Y-196182158D01*
X198983027Y-196270807D01*
X198831560Y-196300936D01*
X198755827Y-196316000D01*
X198524173Y-196316000D01*
X198448440Y-196300936D01*
X198296973Y-196270807D01*
X198082955Y-196182158D01*
X198018751Y-196139258D01*
X197890346Y-196053461D01*
X197726539Y-195889654D01*
X197597843Y-195697046D01*
X197597842Y-195697045D01*
X197509193Y-195483027D01*
X197464000Y-195255826D01*
X197464000Y-195024174D01*
X197509193Y-194796973D01*
X197597842Y-194582955D01*
X197640742Y-194518751D01*
X197726539Y-194390346D01*
X197890346Y-194226539D01*
X198082954Y-194097843D01*
X198082955Y-194097842D01*
X198296973Y-194009193D01*
X198448440Y-193979064D01*
X198524173Y-193964000D01*
X198755827Y-193964000D01*
X198831560Y-193979064D01*
X198831560Y-193979064D01*
G37*
G36*
X193751560Y-193979064D02*
G01*
X193903027Y-194009193D01*
X194117045Y-194097842D01*
X194117046Y-194097843D01*
X194309654Y-194226539D01*
X194473461Y-194390346D01*
X194559258Y-194518751D01*
X194602158Y-194582955D01*
X194690807Y-194796973D01*
X194736000Y-195024174D01*
X194736000Y-195255826D01*
X194690807Y-195483027D01*
X194602158Y-195697045D01*
X194602157Y-195697046D01*
X194473461Y-195889654D01*
X194309654Y-196053461D01*
X194181249Y-196139258D01*
X194117045Y-196182158D01*
X193903027Y-196270807D01*
X193751560Y-196300936D01*
X193675827Y-196316000D01*
X193444173Y-196316000D01*
X193368440Y-196300936D01*
X193216973Y-196270807D01*
X193002955Y-196182158D01*
X192938751Y-196139258D01*
X192810346Y-196053461D01*
X192646539Y-195889654D01*
X192517843Y-195697046D01*
X192517842Y-195697045D01*
X192429193Y-195483027D01*
X192384000Y-195255826D01*
X192384000Y-195024174D01*
X192429193Y-194796973D01*
X192517842Y-194582955D01*
X192560742Y-194518751D01*
X192646539Y-194390346D01*
X192810346Y-194226539D01*
X193002954Y-194097843D01*
X193002955Y-194097842D01*
X193216973Y-194009193D01*
X193368440Y-193979064D01*
X193444173Y-193964000D01*
X193675827Y-193964000D01*
X193751560Y-193979064D01*
X193751560Y-193979064D01*
G37*
G36*
X169991560Y-191539064D02*
G01*
X170143027Y-191569193D01*
X170357045Y-191657842D01*
X170357046Y-191657843D01*
X170549654Y-191786539D01*
X170713461Y-191950346D01*
X170775339Y-192042954D01*
X170842158Y-192142955D01*
X170930807Y-192356973D01*
X170976000Y-192584174D01*
X170976000Y-192815826D01*
X170930807Y-193043027D01*
X170842158Y-193257045D01*
X170842157Y-193257046D01*
X170713461Y-193449654D01*
X170549654Y-193613461D01*
X170421249Y-193699258D01*
X170357045Y-193742158D01*
X170143027Y-193830807D01*
X169991560Y-193860936D01*
X169915827Y-193876000D01*
X169684173Y-193876000D01*
X169608440Y-193860936D01*
X169456973Y-193830807D01*
X169242955Y-193742158D01*
X169178751Y-193699258D01*
X169050346Y-193613461D01*
X168886539Y-193449654D01*
X168757843Y-193257046D01*
X168757842Y-193257045D01*
X168669193Y-193043027D01*
X168624000Y-192815826D01*
X168624000Y-192584174D01*
X168669193Y-192356973D01*
X168757842Y-192142955D01*
X168824661Y-192042954D01*
X168886539Y-191950346D01*
X169050346Y-191786539D01*
X169242954Y-191657843D01*
X169242955Y-191657842D01*
X169456973Y-191569193D01*
X169608440Y-191539064D01*
X169684173Y-191524000D01*
X169915827Y-191524000D01*
X169991560Y-191539064D01*
X169991560Y-191539064D01*
G37*
G36*
X196291560Y-191439064D02*
G01*
X196443027Y-191469193D01*
X196657045Y-191557842D01*
X196657046Y-191557843D01*
X196849654Y-191686539D01*
X197013461Y-191850346D01*
X197099258Y-191978751D01*
X197142158Y-192042955D01*
X197230807Y-192256973D01*
X197276000Y-192484174D01*
X197276000Y-192715826D01*
X197230807Y-192943027D01*
X197142158Y-193157045D01*
X197142157Y-193157046D01*
X197013461Y-193349654D01*
X196849654Y-193513461D01*
X196721249Y-193599258D01*
X196657045Y-193642158D01*
X196443027Y-193730807D01*
X196291560Y-193760936D01*
X196215827Y-193776000D01*
X195984173Y-193776000D01*
X195908440Y-193760936D01*
X195756973Y-193730807D01*
X195542955Y-193642158D01*
X195478751Y-193599258D01*
X195350346Y-193513461D01*
X195186539Y-193349654D01*
X195057843Y-193157046D01*
X195057842Y-193157045D01*
X194969193Y-192943027D01*
X194924000Y-192715826D01*
X194924000Y-192484174D01*
X194969193Y-192256973D01*
X195057842Y-192042955D01*
X195100742Y-191978751D01*
X195186539Y-191850346D01*
X195350346Y-191686539D01*
X195542954Y-191557843D01*
X195542955Y-191557842D01*
X195756973Y-191469193D01*
X195908440Y-191439064D01*
X195984173Y-191424000D01*
X196215827Y-191424000D01*
X196291560Y-191439064D01*
X196291560Y-191439064D01*
G37*
G36*
X167451560Y-188999064D02*
G01*
X167603027Y-189029193D01*
X167817045Y-189117842D01*
X167817046Y-189117843D01*
X168009654Y-189246539D01*
X168173461Y-189410346D01*
X168235339Y-189502954D01*
X168302158Y-189602955D01*
X168390807Y-189816973D01*
X168436000Y-190044174D01*
X168436000Y-190275826D01*
X168390807Y-190503027D01*
X168302158Y-190717045D01*
X168302157Y-190717046D01*
X168173461Y-190909654D01*
X168009654Y-191073461D01*
X167881249Y-191159258D01*
X167817045Y-191202158D01*
X167603027Y-191290807D01*
X167451560Y-191320936D01*
X167375827Y-191336000D01*
X167144173Y-191336000D01*
X167068440Y-191320936D01*
X166916973Y-191290807D01*
X166702955Y-191202158D01*
X166638751Y-191159258D01*
X166510346Y-191073461D01*
X166346539Y-190909654D01*
X166217843Y-190717046D01*
X166217842Y-190717045D01*
X166129193Y-190503027D01*
X166084000Y-190275826D01*
X166084000Y-190044174D01*
X166129193Y-189816973D01*
X166217842Y-189602955D01*
X166284661Y-189502954D01*
X166346539Y-189410346D01*
X166510346Y-189246539D01*
X166702954Y-189117843D01*
X166702955Y-189117842D01*
X166916973Y-189029193D01*
X167068440Y-188999064D01*
X167144173Y-188984000D01*
X167375827Y-188984000D01*
X167451560Y-188999064D01*
X167451560Y-188999064D01*
G37*
G36*
X172531560Y-188999064D02*
G01*
X172683027Y-189029193D01*
X172897045Y-189117842D01*
X172897046Y-189117843D01*
X173089654Y-189246539D01*
X173253461Y-189410346D01*
X173315339Y-189502954D01*
X173382158Y-189602955D01*
X173470807Y-189816973D01*
X173516000Y-190044174D01*
X173516000Y-190275826D01*
X173470807Y-190503027D01*
X173382158Y-190717045D01*
X173382157Y-190717046D01*
X173253461Y-190909654D01*
X173089654Y-191073461D01*
X172961249Y-191159258D01*
X172897045Y-191202158D01*
X172683027Y-191290807D01*
X172531560Y-191320936D01*
X172455827Y-191336000D01*
X172224173Y-191336000D01*
X172148440Y-191320936D01*
X171996973Y-191290807D01*
X171782955Y-191202158D01*
X171718751Y-191159258D01*
X171590346Y-191073461D01*
X171426539Y-190909654D01*
X171297843Y-190717046D01*
X171297842Y-190717045D01*
X171209193Y-190503027D01*
X171164000Y-190275826D01*
X171164000Y-190044174D01*
X171209193Y-189816973D01*
X171297842Y-189602955D01*
X171364661Y-189502954D01*
X171426539Y-189410346D01*
X171590346Y-189246539D01*
X171782954Y-189117843D01*
X171782955Y-189117842D01*
X171996973Y-189029193D01*
X172148440Y-188999064D01*
X172224173Y-188984000D01*
X172455827Y-188984000D01*
X172531560Y-188999064D01*
X172531560Y-188999064D01*
G37*
G36*
X193751560Y-188899064D02*
G01*
X193903027Y-188929193D01*
X194117045Y-189017842D01*
X194117046Y-189017843D01*
X194309654Y-189146539D01*
X194473461Y-189310346D01*
X194559258Y-189438751D01*
X194602158Y-189502955D01*
X194690807Y-189716973D01*
X194736000Y-189944174D01*
X194736000Y-190175826D01*
X194690807Y-190403027D01*
X194602158Y-190617045D01*
X194602157Y-190617046D01*
X194473461Y-190809654D01*
X194309654Y-190973461D01*
X194181249Y-191059258D01*
X194117045Y-191102158D01*
X193903027Y-191190807D01*
X193751560Y-191220936D01*
X193675827Y-191236000D01*
X193444173Y-191236000D01*
X193368440Y-191220936D01*
X193216973Y-191190807D01*
X193002955Y-191102158D01*
X192938751Y-191059258D01*
X192810346Y-190973461D01*
X192646539Y-190809654D01*
X192517843Y-190617046D01*
X192517842Y-190617045D01*
X192429193Y-190403027D01*
X192384000Y-190175826D01*
X192384000Y-189944174D01*
X192429193Y-189716973D01*
X192517842Y-189502955D01*
X192560742Y-189438751D01*
X192646539Y-189310346D01*
X192810346Y-189146539D01*
X193002954Y-189017843D01*
X193002955Y-189017842D01*
X193216973Y-188929193D01*
X193368440Y-188899064D01*
X193444173Y-188884000D01*
X193675827Y-188884000D01*
X193751560Y-188899064D01*
X193751560Y-188899064D01*
G37*
G36*
X198831560Y-188899064D02*
G01*
X198983027Y-188929193D01*
X199197045Y-189017842D01*
X199197046Y-189017843D01*
X199389654Y-189146539D01*
X199553461Y-189310346D01*
X199639258Y-189438751D01*
X199682158Y-189502955D01*
X199770807Y-189716973D01*
X199816000Y-189944174D01*
X199816000Y-190175826D01*
X199770807Y-190403027D01*
X199682158Y-190617045D01*
X199682157Y-190617046D01*
X199553461Y-190809654D01*
X199389654Y-190973461D01*
X199261249Y-191059258D01*
X199197045Y-191102158D01*
X198983027Y-191190807D01*
X198831560Y-191220936D01*
X198755827Y-191236000D01*
X198524173Y-191236000D01*
X198448440Y-191220936D01*
X198296973Y-191190807D01*
X198082955Y-191102158D01*
X198018751Y-191059258D01*
X197890346Y-190973461D01*
X197726539Y-190809654D01*
X197597843Y-190617046D01*
X197597842Y-190617045D01*
X197509193Y-190403027D01*
X197464000Y-190175826D01*
X197464000Y-189944174D01*
X197509193Y-189716973D01*
X197597842Y-189502955D01*
X197640742Y-189438751D01*
X197726539Y-189310346D01*
X197890346Y-189146539D01*
X198082954Y-189017843D01*
X198082955Y-189017842D01*
X198296973Y-188929193D01*
X198448440Y-188899064D01*
X198524173Y-188884000D01*
X198755827Y-188884000D01*
X198831560Y-188899064D01*
X198831560Y-188899064D01*
G37*
M02*
