G04 #@! TF.GenerationSoftware,KiCad,Pcbnew,(5.1.0)-1*
G04 #@! TF.CreationDate,2020-09-17T18:32:08+01:00*
G04 #@! TF.ProjectId,single_coil,73696e67-6c65-45f6-936f-696c2e6b6963,rev?*
G04 #@! TF.SameCoordinates,Original*
G04 #@! TF.FileFunction,Soldermask,Bot*
G04 #@! TF.FilePolarity,Negative*
%FSLAX46Y46*%
G04 Gerber Fmt 4.6, Leading zero omitted, Abs format (unit mm)*
G04 Created by KiCad (PCBNEW (5.1.0)-1) date 2020-09-17 18:32:08*
%MOMM*%
%LPD*%
G04 APERTURE LIST*
%ADD10C,0.100000*%
G04 APERTURE END LIST*
D10*
G36*
X172651560Y-156779064D02*
G01*
X172803027Y-156809193D01*
X173017045Y-156897842D01*
X173017046Y-156897843D01*
X173209654Y-157026539D01*
X173373461Y-157190346D01*
X173459258Y-157318751D01*
X173502158Y-157382955D01*
X173590807Y-157596973D01*
X173636000Y-157824174D01*
X173636000Y-158055826D01*
X173590807Y-158283027D01*
X173502158Y-158497045D01*
X173502157Y-158497046D01*
X173373461Y-158689654D01*
X173209654Y-158853461D01*
X173081249Y-158939258D01*
X173017045Y-158982158D01*
X172803027Y-159070807D01*
X172651560Y-159100936D01*
X172575827Y-159116000D01*
X172344173Y-159116000D01*
X172268440Y-159100936D01*
X172116973Y-159070807D01*
X171902955Y-158982158D01*
X171838751Y-158939258D01*
X171710346Y-158853461D01*
X171546539Y-158689654D01*
X171417843Y-158497046D01*
X171417842Y-158497045D01*
X171329193Y-158283027D01*
X171284000Y-158055826D01*
X171284000Y-157824174D01*
X171329193Y-157596973D01*
X171417842Y-157382955D01*
X171460742Y-157318751D01*
X171546539Y-157190346D01*
X171710346Y-157026539D01*
X171902954Y-156897843D01*
X171902955Y-156897842D01*
X172116973Y-156809193D01*
X172268440Y-156779064D01*
X172344173Y-156764000D01*
X172575827Y-156764000D01*
X172651560Y-156779064D01*
X172651560Y-156779064D01*
G37*
G36*
X177731560Y-156779064D02*
G01*
X177883027Y-156809193D01*
X178097045Y-156897842D01*
X178097046Y-156897843D01*
X178289654Y-157026539D01*
X178453461Y-157190346D01*
X178539258Y-157318751D01*
X178582158Y-157382955D01*
X178670807Y-157596973D01*
X178716000Y-157824174D01*
X178716000Y-158055826D01*
X178670807Y-158283027D01*
X178582158Y-158497045D01*
X178582157Y-158497046D01*
X178453461Y-158689654D01*
X178289654Y-158853461D01*
X178161249Y-158939258D01*
X178097045Y-158982158D01*
X177883027Y-159070807D01*
X177731560Y-159100936D01*
X177655827Y-159116000D01*
X177424173Y-159116000D01*
X177348440Y-159100936D01*
X177196973Y-159070807D01*
X176982955Y-158982158D01*
X176918751Y-158939258D01*
X176790346Y-158853461D01*
X176626539Y-158689654D01*
X176497843Y-158497046D01*
X176497842Y-158497045D01*
X176409193Y-158283027D01*
X176364000Y-158055826D01*
X176364000Y-157824174D01*
X176409193Y-157596973D01*
X176497842Y-157382955D01*
X176540742Y-157318751D01*
X176626539Y-157190346D01*
X176790346Y-157026539D01*
X176982954Y-156897843D01*
X176982955Y-156897842D01*
X177196973Y-156809193D01*
X177348440Y-156779064D01*
X177424173Y-156764000D01*
X177655827Y-156764000D01*
X177731560Y-156779064D01*
X177731560Y-156779064D01*
G37*
G36*
X175191560Y-154239064D02*
G01*
X175343027Y-154269193D01*
X175557045Y-154357842D01*
X175557046Y-154357843D01*
X175749654Y-154486539D01*
X175913461Y-154650346D01*
X175999258Y-154778751D01*
X176042158Y-154842955D01*
X176130807Y-155056973D01*
X176176000Y-155284174D01*
X176176000Y-155515826D01*
X176130807Y-155743027D01*
X176042158Y-155957045D01*
X176042157Y-155957046D01*
X175913461Y-156149654D01*
X175749654Y-156313461D01*
X175621249Y-156399258D01*
X175557045Y-156442158D01*
X175343027Y-156530807D01*
X175191560Y-156560936D01*
X175115827Y-156576000D01*
X174884173Y-156576000D01*
X174808440Y-156560936D01*
X174656973Y-156530807D01*
X174442955Y-156442158D01*
X174378751Y-156399258D01*
X174250346Y-156313461D01*
X174086539Y-156149654D01*
X173957843Y-155957046D01*
X173957842Y-155957045D01*
X173869193Y-155743027D01*
X173824000Y-155515826D01*
X173824000Y-155284174D01*
X173869193Y-155056973D01*
X173957842Y-154842955D01*
X174000742Y-154778751D01*
X174086539Y-154650346D01*
X174250346Y-154486539D01*
X174442954Y-154357843D01*
X174442955Y-154357842D01*
X174656973Y-154269193D01*
X174808440Y-154239064D01*
X174884173Y-154224000D01*
X175115827Y-154224000D01*
X175191560Y-154239064D01*
X175191560Y-154239064D01*
G37*
G36*
X208108710Y-148745070D02*
G01*
X208800447Y-149031597D01*
X208800448Y-149031598D01*
X209422996Y-149447571D01*
X209952429Y-149977004D01*
X210230374Y-150392978D01*
X210368403Y-150599553D01*
X210654930Y-151291290D01*
X210801000Y-152025633D01*
X210801000Y-152774367D01*
X210654930Y-153508710D01*
X210368403Y-154200447D01*
X210368402Y-154200448D01*
X209952429Y-154822996D01*
X209422996Y-155352429D01*
X209178455Y-155515826D01*
X208800447Y-155768403D01*
X208108710Y-156054930D01*
X207374367Y-156201000D01*
X206625633Y-156201000D01*
X205891290Y-156054930D01*
X205199553Y-155768403D01*
X204821545Y-155515826D01*
X204577004Y-155352429D01*
X204047571Y-154822996D01*
X203631598Y-154200448D01*
X203631597Y-154200447D01*
X203345070Y-153508710D01*
X203199000Y-152774367D01*
X203199000Y-152025633D01*
X203345070Y-151291290D01*
X203631597Y-150599553D01*
X203769626Y-150392978D01*
X204047571Y-149977004D01*
X204577004Y-149447571D01*
X205199552Y-149031598D01*
X205199553Y-149031597D01*
X205891290Y-148745070D01*
X206625633Y-148599000D01*
X207374367Y-148599000D01*
X208108710Y-148745070D01*
X208108710Y-148745070D01*
G37*
G36*
X126108710Y-148745070D02*
G01*
X126800447Y-149031597D01*
X126800448Y-149031598D01*
X127422996Y-149447571D01*
X127952429Y-149977004D01*
X128230374Y-150392978D01*
X128368403Y-150599553D01*
X128654930Y-151291290D01*
X128801000Y-152025633D01*
X128801000Y-152774367D01*
X128654930Y-153508710D01*
X128368403Y-154200447D01*
X128368402Y-154200448D01*
X127952429Y-154822996D01*
X127422996Y-155352429D01*
X127178455Y-155515826D01*
X126800447Y-155768403D01*
X126108710Y-156054930D01*
X125374367Y-156201000D01*
X124625633Y-156201000D01*
X123891290Y-156054930D01*
X123199553Y-155768403D01*
X122821545Y-155515826D01*
X122577004Y-155352429D01*
X122047571Y-154822996D01*
X121631598Y-154200448D01*
X121631597Y-154200447D01*
X121345070Y-153508710D01*
X121199000Y-152774367D01*
X121199000Y-152025633D01*
X121345070Y-151291290D01*
X121631597Y-150599553D01*
X121769626Y-150392978D01*
X122047571Y-149977004D01*
X122577004Y-149447571D01*
X123199552Y-149031598D01*
X123199553Y-149031597D01*
X123891290Y-148745070D01*
X124625633Y-148599000D01*
X125374367Y-148599000D01*
X126108710Y-148745070D01*
X126108710Y-148745070D01*
G37*
G36*
X172651560Y-151699064D02*
G01*
X172803027Y-151729193D01*
X173017045Y-151817842D01*
X173017046Y-151817843D01*
X173209654Y-151946539D01*
X173373461Y-152110346D01*
X173459258Y-152238751D01*
X173502158Y-152302955D01*
X173590807Y-152516973D01*
X173636000Y-152744174D01*
X173636000Y-152975826D01*
X173590807Y-153203027D01*
X173502158Y-153417045D01*
X173502157Y-153417046D01*
X173373461Y-153609654D01*
X173209654Y-153773461D01*
X173081249Y-153859258D01*
X173017045Y-153902158D01*
X172803027Y-153990807D01*
X172651560Y-154020936D01*
X172575827Y-154036000D01*
X172344173Y-154036000D01*
X172268440Y-154020936D01*
X172116973Y-153990807D01*
X171902955Y-153902158D01*
X171838751Y-153859258D01*
X171710346Y-153773461D01*
X171546539Y-153609654D01*
X171417843Y-153417046D01*
X171417842Y-153417045D01*
X171329193Y-153203027D01*
X171284000Y-152975826D01*
X171284000Y-152744174D01*
X171329193Y-152516973D01*
X171417842Y-152302955D01*
X171460742Y-152238751D01*
X171546539Y-152110346D01*
X171710346Y-151946539D01*
X171902954Y-151817843D01*
X171902955Y-151817842D01*
X172116973Y-151729193D01*
X172268440Y-151699064D01*
X172344173Y-151684000D01*
X172575827Y-151684000D01*
X172651560Y-151699064D01*
X172651560Y-151699064D01*
G37*
G36*
X177731560Y-151699064D02*
G01*
X177883027Y-151729193D01*
X178097045Y-151817842D01*
X178097046Y-151817843D01*
X178289654Y-151946539D01*
X178453461Y-152110346D01*
X178539258Y-152238751D01*
X178582158Y-152302955D01*
X178670807Y-152516973D01*
X178716000Y-152744174D01*
X178716000Y-152975826D01*
X178670807Y-153203027D01*
X178582158Y-153417045D01*
X178582157Y-153417046D01*
X178453461Y-153609654D01*
X178289654Y-153773461D01*
X178161249Y-153859258D01*
X178097045Y-153902158D01*
X177883027Y-153990807D01*
X177731560Y-154020936D01*
X177655827Y-154036000D01*
X177424173Y-154036000D01*
X177348440Y-154020936D01*
X177196973Y-153990807D01*
X176982955Y-153902158D01*
X176918751Y-153859258D01*
X176790346Y-153773461D01*
X176626539Y-153609654D01*
X176497843Y-153417046D01*
X176497842Y-153417045D01*
X176409193Y-153203027D01*
X176364000Y-152975826D01*
X176364000Y-152744174D01*
X176409193Y-152516973D01*
X176497842Y-152302955D01*
X176540742Y-152238751D01*
X176626539Y-152110346D01*
X176790346Y-151946539D01*
X176982954Y-151817843D01*
X176982955Y-151817842D01*
X177196973Y-151729193D01*
X177348440Y-151699064D01*
X177424173Y-151684000D01*
X177655827Y-151684000D01*
X177731560Y-151699064D01*
X177731560Y-151699064D01*
G37*
G36*
X124731560Y-102779064D02*
G01*
X124883027Y-102809193D01*
X125097045Y-102897842D01*
X125097046Y-102897843D01*
X125289654Y-103026539D01*
X125453461Y-103190346D01*
X125539258Y-103318751D01*
X125582158Y-103382955D01*
X125670807Y-103596973D01*
X125716000Y-103824174D01*
X125716000Y-104055826D01*
X125670807Y-104283027D01*
X125582158Y-104497045D01*
X125582157Y-104497046D01*
X125453461Y-104689654D01*
X125289654Y-104853461D01*
X125161249Y-104939258D01*
X125097045Y-104982158D01*
X124883027Y-105070807D01*
X124731560Y-105100936D01*
X124655827Y-105116000D01*
X124424173Y-105116000D01*
X124348440Y-105100936D01*
X124196973Y-105070807D01*
X123982955Y-104982158D01*
X123918751Y-104939258D01*
X123790346Y-104853461D01*
X123626539Y-104689654D01*
X123497843Y-104497046D01*
X123497842Y-104497045D01*
X123409193Y-104283027D01*
X123364000Y-104055826D01*
X123364000Y-103824174D01*
X123409193Y-103596973D01*
X123497842Y-103382955D01*
X123540742Y-103318751D01*
X123626539Y-103190346D01*
X123790346Y-103026539D01*
X123982954Y-102897843D01*
X123982955Y-102897842D01*
X124196973Y-102809193D01*
X124348440Y-102779064D01*
X124424173Y-102764000D01*
X124655827Y-102764000D01*
X124731560Y-102779064D01*
X124731560Y-102779064D01*
G37*
G36*
X119651560Y-102779064D02*
G01*
X119803027Y-102809193D01*
X120017045Y-102897842D01*
X120017046Y-102897843D01*
X120209654Y-103026539D01*
X120373461Y-103190346D01*
X120459258Y-103318751D01*
X120502158Y-103382955D01*
X120590807Y-103596973D01*
X120636000Y-103824174D01*
X120636000Y-104055826D01*
X120590807Y-104283027D01*
X120502158Y-104497045D01*
X120502157Y-104497046D01*
X120373461Y-104689654D01*
X120209654Y-104853461D01*
X120081249Y-104939258D01*
X120017045Y-104982158D01*
X119803027Y-105070807D01*
X119651560Y-105100936D01*
X119575827Y-105116000D01*
X119344173Y-105116000D01*
X119268440Y-105100936D01*
X119116973Y-105070807D01*
X118902955Y-104982158D01*
X118838751Y-104939258D01*
X118710346Y-104853461D01*
X118546539Y-104689654D01*
X118417843Y-104497046D01*
X118417842Y-104497045D01*
X118329193Y-104283027D01*
X118284000Y-104055826D01*
X118284000Y-103824174D01*
X118329193Y-103596973D01*
X118417842Y-103382955D01*
X118460742Y-103318751D01*
X118546539Y-103190346D01*
X118710346Y-103026539D01*
X118902954Y-102897843D01*
X118902955Y-102897842D01*
X119116973Y-102809193D01*
X119268440Y-102779064D01*
X119344173Y-102764000D01*
X119575827Y-102764000D01*
X119651560Y-102779064D01*
X119651560Y-102779064D01*
G37*
G36*
X122191560Y-100239064D02*
G01*
X122343027Y-100269193D01*
X122557045Y-100357842D01*
X122557046Y-100357843D01*
X122749654Y-100486539D01*
X122913461Y-100650346D01*
X122999258Y-100778751D01*
X123042158Y-100842955D01*
X123130807Y-101056973D01*
X123176000Y-101284174D01*
X123176000Y-101515826D01*
X123130807Y-101743027D01*
X123042158Y-101957045D01*
X123042157Y-101957046D01*
X122913461Y-102149654D01*
X122749654Y-102313461D01*
X122621249Y-102399258D01*
X122557045Y-102442158D01*
X122343027Y-102530807D01*
X122191560Y-102560936D01*
X122115827Y-102576000D01*
X121884173Y-102576000D01*
X121808440Y-102560936D01*
X121656973Y-102530807D01*
X121442955Y-102442158D01*
X121378751Y-102399258D01*
X121250346Y-102313461D01*
X121086539Y-102149654D01*
X120957843Y-101957046D01*
X120957842Y-101957045D01*
X120869193Y-101743027D01*
X120824000Y-101515826D01*
X120824000Y-101284174D01*
X120869193Y-101056973D01*
X120957842Y-100842955D01*
X121000742Y-100778751D01*
X121086539Y-100650346D01*
X121250346Y-100486539D01*
X121442954Y-100357843D01*
X121442955Y-100357842D01*
X121656973Y-100269193D01*
X121808440Y-100239064D01*
X121884173Y-100224000D01*
X122115827Y-100224000D01*
X122191560Y-100239064D01*
X122191560Y-100239064D01*
G37*
G36*
X119651560Y-97699064D02*
G01*
X119803027Y-97729193D01*
X120017045Y-97817842D01*
X120017046Y-97817843D01*
X120209654Y-97946539D01*
X120373461Y-98110346D01*
X120459258Y-98238751D01*
X120502158Y-98302955D01*
X120590807Y-98516973D01*
X120636000Y-98744174D01*
X120636000Y-98975826D01*
X120590807Y-99203027D01*
X120502158Y-99417045D01*
X120502157Y-99417046D01*
X120373461Y-99609654D01*
X120209654Y-99773461D01*
X120081249Y-99859258D01*
X120017045Y-99902158D01*
X119803027Y-99990807D01*
X119651560Y-100020936D01*
X119575827Y-100036000D01*
X119344173Y-100036000D01*
X119268440Y-100020936D01*
X119116973Y-99990807D01*
X118902955Y-99902158D01*
X118838751Y-99859258D01*
X118710346Y-99773461D01*
X118546539Y-99609654D01*
X118417843Y-99417046D01*
X118417842Y-99417045D01*
X118329193Y-99203027D01*
X118284000Y-98975826D01*
X118284000Y-98744174D01*
X118329193Y-98516973D01*
X118417842Y-98302955D01*
X118460742Y-98238751D01*
X118546539Y-98110346D01*
X118710346Y-97946539D01*
X118902954Y-97817843D01*
X118902955Y-97817842D01*
X119116973Y-97729193D01*
X119268440Y-97699064D01*
X119344173Y-97684000D01*
X119575827Y-97684000D01*
X119651560Y-97699064D01*
X119651560Y-97699064D01*
G37*
G36*
X124731560Y-97699064D02*
G01*
X124883027Y-97729193D01*
X125097045Y-97817842D01*
X125097046Y-97817843D01*
X125289654Y-97946539D01*
X125453461Y-98110346D01*
X125539258Y-98238751D01*
X125582158Y-98302955D01*
X125670807Y-98516973D01*
X125716000Y-98744174D01*
X125716000Y-98975826D01*
X125670807Y-99203027D01*
X125582158Y-99417045D01*
X125582157Y-99417046D01*
X125453461Y-99609654D01*
X125289654Y-99773461D01*
X125161249Y-99859258D01*
X125097045Y-99902158D01*
X124883027Y-99990807D01*
X124731560Y-100020936D01*
X124655827Y-100036000D01*
X124424173Y-100036000D01*
X124348440Y-100020936D01*
X124196973Y-99990807D01*
X123982955Y-99902158D01*
X123918751Y-99859258D01*
X123790346Y-99773461D01*
X123626539Y-99609654D01*
X123497843Y-99417046D01*
X123497842Y-99417045D01*
X123409193Y-99203027D01*
X123364000Y-98975826D01*
X123364000Y-98744174D01*
X123409193Y-98516973D01*
X123497842Y-98302955D01*
X123540742Y-98238751D01*
X123626539Y-98110346D01*
X123790346Y-97946539D01*
X123982954Y-97817843D01*
X123982955Y-97817842D01*
X124196973Y-97729193D01*
X124348440Y-97699064D01*
X124424173Y-97684000D01*
X124655827Y-97684000D01*
X124731560Y-97699064D01*
X124731560Y-97699064D01*
G37*
G36*
X126108710Y-65745070D02*
G01*
X126800447Y-66031597D01*
X126800448Y-66031598D01*
X127422996Y-66447571D01*
X127952429Y-66977004D01*
X128230374Y-67392978D01*
X128368403Y-67599553D01*
X128654930Y-68291290D01*
X128801000Y-69025633D01*
X128801000Y-69774367D01*
X128654930Y-70508710D01*
X128368403Y-71200447D01*
X128368402Y-71200448D01*
X127952429Y-71822996D01*
X127422996Y-72352429D01*
X127007022Y-72630374D01*
X126800447Y-72768403D01*
X126108710Y-73054930D01*
X125374367Y-73201000D01*
X124625633Y-73201000D01*
X123891290Y-73054930D01*
X123199553Y-72768403D01*
X122992978Y-72630374D01*
X122577004Y-72352429D01*
X122047571Y-71822996D01*
X121631598Y-71200448D01*
X121631597Y-71200447D01*
X121345070Y-70508710D01*
X121199000Y-69774367D01*
X121199000Y-69025633D01*
X121345070Y-68291290D01*
X121631597Y-67599553D01*
X121769626Y-67392978D01*
X122047571Y-66977004D01*
X122577004Y-66447571D01*
X123199552Y-66031598D01*
X123199553Y-66031597D01*
X123891290Y-65745070D01*
X124625633Y-65599000D01*
X125374367Y-65599000D01*
X126108710Y-65745070D01*
X126108710Y-65745070D01*
G37*
G36*
X208108710Y-65745070D02*
G01*
X208800447Y-66031597D01*
X208800448Y-66031598D01*
X209422996Y-66447571D01*
X209952429Y-66977004D01*
X210230374Y-67392978D01*
X210368403Y-67599553D01*
X210654930Y-68291290D01*
X210801000Y-69025633D01*
X210801000Y-69774367D01*
X210654930Y-70508710D01*
X210368403Y-71200447D01*
X210368402Y-71200448D01*
X209952429Y-71822996D01*
X209422996Y-72352429D01*
X209007022Y-72630374D01*
X208800447Y-72768403D01*
X208108710Y-73054930D01*
X207374367Y-73201000D01*
X206625633Y-73201000D01*
X205891290Y-73054930D01*
X205199553Y-72768403D01*
X204992978Y-72630374D01*
X204577004Y-72352429D01*
X204047571Y-71822996D01*
X203631598Y-71200448D01*
X203631597Y-71200447D01*
X203345070Y-70508710D01*
X203199000Y-69774367D01*
X203199000Y-69025633D01*
X203345070Y-68291290D01*
X203631597Y-67599553D01*
X203769626Y-67392978D01*
X204047571Y-66977004D01*
X204577004Y-66447571D01*
X205199552Y-66031598D01*
X205199553Y-66031597D01*
X205891290Y-65745070D01*
X206625633Y-65599000D01*
X207374367Y-65599000D01*
X208108710Y-65745070D01*
X208108710Y-65745070D01*
G37*
M02*
