G04 #@! TF.GenerationSoftware,KiCad,Pcbnew,(5.1.0)-1*
G04 #@! TF.CreationDate,2020-11-17T10:12:00+00:00*
G04 #@! TF.ProjectId,3Dcoil,3344636f-696c-42e6-9b69-6361645f7063,rev?*
G04 #@! TF.SameCoordinates,Original*
G04 #@! TF.FileFunction,Copper,L1,Top*
G04 #@! TF.FilePolarity,Positive*
%FSLAX46Y46*%
G04 Gerber Fmt 4.6, Leading zero omitted, Abs format (unit mm)*
G04 Created by KiCad (PCBNEW (5.1.0)-1) date 2020-11-17 10:12:00*
%MOMM*%
%LPD*%
G04 APERTURE LIST*
%ADD10C,1.500000*%
%ADD11C,1.600000*%
%ADD12C,0.750000*%
%ADD13R,8.510000X7.870000*%
%ADD14R,3.810000X1.620000*%
%ADD15C,2.250000*%
%ADD16C,0.100000*%
%ADD17C,1.150000*%
%ADD18C,0.800000*%
%ADD19C,0.250000*%
G04 APERTURE END LIST*
D10*
X150031631Y-193100000D02*
X163031631Y-193100000D01*
X150031631Y-187600000D02*
X162781631Y-187600000D01*
D11*
X150031631Y-188850000D02*
X163031631Y-188850000D01*
D10*
X150031631Y-191850000D02*
X163031631Y-191850000D01*
D11*
X150031631Y-190350000D02*
X162781631Y-190350000D01*
D12*
X144781631Y-190100000D02*
X119281631Y-190100000D01*
X147600000Y-131100000D02*
X147600000Y-138850000D01*
X165500000Y-132400000D02*
X165500000Y-138900000D01*
X119281631Y-190100000D02*
G75*
G02X114281631Y-185100000I0J5000000D01*
G01*
X114281631Y-104501227D02*
X114281631Y-185100000D01*
X160500000Y-127400000D02*
G75*
G02X165500000Y-132400000I0J-5000000D01*
G01*
X160500000Y-127400000D02*
G75*
G02X155500000Y-122400000I0J5000000D01*
G01*
X147600000Y-131100000D02*
G75*
G02X152600000Y-126100000I5000000J0D01*
G01*
X122600000Y-110500000D02*
G75*
G02X120100000Y-108000000I0J2500000D01*
G01*
X120100000Y-78900000D02*
X120100000Y-108000000D01*
X120100000Y-78900000D02*
G75*
G02X122600000Y-76400000I2500000J0D01*
G01*
X147600000Y-76400000D02*
X122600000Y-76400000D01*
X147600000Y-76400000D02*
G75*
G02X150100000Y-78900000I0J-2500000D01*
G01*
X150100000Y-81400000D02*
X150100000Y-78900000D01*
X152600000Y-83900000D02*
G75*
G02X150100000Y-81400000I0J2500000D01*
G01*
X144500000Y-122400000D02*
X144500000Y-132400000D01*
X129281631Y-99501227D02*
G75*
G02X140100000Y-91200000I10818369J-2898773D01*
G01*
X140101941Y-117844369D02*
G75*
G02X142300000Y-86800000I2198059J15444369D01*
G01*
X142305314Y-122279219D02*
G75*
G02X144500000Y-82400000I2194686J19879219D01*
G01*
X140101941Y-117844369D02*
X140100000Y-91200000D01*
X142305314Y-122279219D02*
X142300000Y-86800000D01*
X144500000Y-122400000D02*
X144500000Y-82400000D01*
X171100000Y-102400000D02*
G75*
G03X159900000Y-91200000I-11200000J0D01*
G01*
X159898059Y-117844369D02*
G75*
G03X157700000Y-86800000I-2198059J15444369D01*
G01*
X157694686Y-122279219D02*
G75*
G03X155500000Y-82400000I-2194686J19879219D01*
G01*
X159898059Y-117844369D02*
X159900000Y-91200000D01*
X157694686Y-122279219D02*
X157700000Y-86800000D01*
X155500000Y-122400000D02*
X155500000Y-82400000D01*
D13*
X173531631Y-179001227D03*
D14*
X165591631Y-181541227D03*
X165591631Y-176461227D03*
D13*
X173531631Y-168501227D03*
D14*
X165591631Y-171041227D03*
X165591631Y-165961227D03*
D13*
X173531631Y-158001227D03*
D14*
X165591631Y-160541227D03*
X165591631Y-155461227D03*
D13*
X139811631Y-178751227D03*
D14*
X147751631Y-176211227D03*
X147751631Y-181291227D03*
D13*
X139811631Y-168311227D03*
D14*
X147751631Y-165771227D03*
X147751631Y-170851227D03*
D13*
X139781631Y-157751227D03*
D14*
X147721631Y-155211227D03*
X147721631Y-160291227D03*
D15*
X150071631Y-187711227D03*
X150071631Y-192791227D03*
X144991631Y-192791227D03*
X144991631Y-187711227D03*
X147531631Y-190251227D03*
X168071631Y-187711227D03*
X168071631Y-192791227D03*
X162991631Y-192791227D03*
X162991631Y-187711227D03*
X165531631Y-190251227D03*
D16*
G36*
X150074505Y-140301204D02*
G01*
X150098773Y-140304804D01*
X150122572Y-140310765D01*
X150145671Y-140319030D01*
X150167850Y-140329520D01*
X150188893Y-140342132D01*
X150208599Y-140356747D01*
X150226777Y-140373223D01*
X150243253Y-140391401D01*
X150257868Y-140411107D01*
X150270480Y-140432150D01*
X150280970Y-140454329D01*
X150289235Y-140477428D01*
X150295196Y-140501227D01*
X150298796Y-140525495D01*
X150300000Y-140549999D01*
X150300000Y-141200001D01*
X150298796Y-141224505D01*
X150295196Y-141248773D01*
X150289235Y-141272572D01*
X150280970Y-141295671D01*
X150270480Y-141317850D01*
X150257868Y-141338893D01*
X150243253Y-141358599D01*
X150226777Y-141376777D01*
X150208599Y-141393253D01*
X150188893Y-141407868D01*
X150167850Y-141420480D01*
X150145671Y-141430970D01*
X150122572Y-141439235D01*
X150098773Y-141445196D01*
X150074505Y-141448796D01*
X150050001Y-141450000D01*
X149149999Y-141450000D01*
X149125495Y-141448796D01*
X149101227Y-141445196D01*
X149077428Y-141439235D01*
X149054329Y-141430970D01*
X149032150Y-141420480D01*
X149011107Y-141407868D01*
X148991401Y-141393253D01*
X148973223Y-141376777D01*
X148956747Y-141358599D01*
X148942132Y-141338893D01*
X148929520Y-141317850D01*
X148919030Y-141295671D01*
X148910765Y-141272572D01*
X148904804Y-141248773D01*
X148901204Y-141224505D01*
X148900000Y-141200001D01*
X148900000Y-140549999D01*
X148901204Y-140525495D01*
X148904804Y-140501227D01*
X148910765Y-140477428D01*
X148919030Y-140454329D01*
X148929520Y-140432150D01*
X148942132Y-140411107D01*
X148956747Y-140391401D01*
X148973223Y-140373223D01*
X148991401Y-140356747D01*
X149011107Y-140342132D01*
X149032150Y-140329520D01*
X149054329Y-140319030D01*
X149077428Y-140310765D01*
X149101227Y-140304804D01*
X149125495Y-140301204D01*
X149149999Y-140300000D01*
X150050001Y-140300000D01*
X150074505Y-140301204D01*
X150074505Y-140301204D01*
G37*
D17*
X149600000Y-140875000D03*
D16*
G36*
X150074505Y-138251204D02*
G01*
X150098773Y-138254804D01*
X150122572Y-138260765D01*
X150145671Y-138269030D01*
X150167850Y-138279520D01*
X150188893Y-138292132D01*
X150208599Y-138306747D01*
X150226777Y-138323223D01*
X150243253Y-138341401D01*
X150257868Y-138361107D01*
X150270480Y-138382150D01*
X150280970Y-138404329D01*
X150289235Y-138427428D01*
X150295196Y-138451227D01*
X150298796Y-138475495D01*
X150300000Y-138499999D01*
X150300000Y-139150001D01*
X150298796Y-139174505D01*
X150295196Y-139198773D01*
X150289235Y-139222572D01*
X150280970Y-139245671D01*
X150270480Y-139267850D01*
X150257868Y-139288893D01*
X150243253Y-139308599D01*
X150226777Y-139326777D01*
X150208599Y-139343253D01*
X150188893Y-139357868D01*
X150167850Y-139370480D01*
X150145671Y-139380970D01*
X150122572Y-139389235D01*
X150098773Y-139395196D01*
X150074505Y-139398796D01*
X150050001Y-139400000D01*
X149149999Y-139400000D01*
X149125495Y-139398796D01*
X149101227Y-139395196D01*
X149077428Y-139389235D01*
X149054329Y-139380970D01*
X149032150Y-139370480D01*
X149011107Y-139357868D01*
X148991401Y-139343253D01*
X148973223Y-139326777D01*
X148956747Y-139308599D01*
X148942132Y-139288893D01*
X148929520Y-139267850D01*
X148919030Y-139245671D01*
X148910765Y-139222572D01*
X148904804Y-139198773D01*
X148901204Y-139174505D01*
X148900000Y-139150001D01*
X148900000Y-138499999D01*
X148901204Y-138475495D01*
X148904804Y-138451227D01*
X148910765Y-138427428D01*
X148919030Y-138404329D01*
X148929520Y-138382150D01*
X148942132Y-138361107D01*
X148956747Y-138341401D01*
X148973223Y-138323223D01*
X148991401Y-138306747D01*
X149011107Y-138292132D01*
X149032150Y-138279520D01*
X149054329Y-138269030D01*
X149077428Y-138260765D01*
X149101227Y-138254804D01*
X149125495Y-138251204D01*
X149149999Y-138250000D01*
X150050001Y-138250000D01*
X150074505Y-138251204D01*
X150074505Y-138251204D01*
G37*
D17*
X149600000Y-138825000D03*
D16*
G36*
X146074505Y-140301204D02*
G01*
X146098773Y-140304804D01*
X146122572Y-140310765D01*
X146145671Y-140319030D01*
X146167850Y-140329520D01*
X146188893Y-140342132D01*
X146208599Y-140356747D01*
X146226777Y-140373223D01*
X146243253Y-140391401D01*
X146257868Y-140411107D01*
X146270480Y-140432150D01*
X146280970Y-140454329D01*
X146289235Y-140477428D01*
X146295196Y-140501227D01*
X146298796Y-140525495D01*
X146300000Y-140549999D01*
X146300000Y-141200001D01*
X146298796Y-141224505D01*
X146295196Y-141248773D01*
X146289235Y-141272572D01*
X146280970Y-141295671D01*
X146270480Y-141317850D01*
X146257868Y-141338893D01*
X146243253Y-141358599D01*
X146226777Y-141376777D01*
X146208599Y-141393253D01*
X146188893Y-141407868D01*
X146167850Y-141420480D01*
X146145671Y-141430970D01*
X146122572Y-141439235D01*
X146098773Y-141445196D01*
X146074505Y-141448796D01*
X146050001Y-141450000D01*
X145149999Y-141450000D01*
X145125495Y-141448796D01*
X145101227Y-141445196D01*
X145077428Y-141439235D01*
X145054329Y-141430970D01*
X145032150Y-141420480D01*
X145011107Y-141407868D01*
X144991401Y-141393253D01*
X144973223Y-141376777D01*
X144956747Y-141358599D01*
X144942132Y-141338893D01*
X144929520Y-141317850D01*
X144919030Y-141295671D01*
X144910765Y-141272572D01*
X144904804Y-141248773D01*
X144901204Y-141224505D01*
X144900000Y-141200001D01*
X144900000Y-140549999D01*
X144901204Y-140525495D01*
X144904804Y-140501227D01*
X144910765Y-140477428D01*
X144919030Y-140454329D01*
X144929520Y-140432150D01*
X144942132Y-140411107D01*
X144956747Y-140391401D01*
X144973223Y-140373223D01*
X144991401Y-140356747D01*
X145011107Y-140342132D01*
X145032150Y-140329520D01*
X145054329Y-140319030D01*
X145077428Y-140310765D01*
X145101227Y-140304804D01*
X145125495Y-140301204D01*
X145149999Y-140300000D01*
X146050001Y-140300000D01*
X146074505Y-140301204D01*
X146074505Y-140301204D01*
G37*
D17*
X145600000Y-140875000D03*
D16*
G36*
X146074505Y-138251204D02*
G01*
X146098773Y-138254804D01*
X146122572Y-138260765D01*
X146145671Y-138269030D01*
X146167850Y-138279520D01*
X146188893Y-138292132D01*
X146208599Y-138306747D01*
X146226777Y-138323223D01*
X146243253Y-138341401D01*
X146257868Y-138361107D01*
X146270480Y-138382150D01*
X146280970Y-138404329D01*
X146289235Y-138427428D01*
X146295196Y-138451227D01*
X146298796Y-138475495D01*
X146300000Y-138499999D01*
X146300000Y-139150001D01*
X146298796Y-139174505D01*
X146295196Y-139198773D01*
X146289235Y-139222572D01*
X146280970Y-139245671D01*
X146270480Y-139267850D01*
X146257868Y-139288893D01*
X146243253Y-139308599D01*
X146226777Y-139326777D01*
X146208599Y-139343253D01*
X146188893Y-139357868D01*
X146167850Y-139370480D01*
X146145671Y-139380970D01*
X146122572Y-139389235D01*
X146098773Y-139395196D01*
X146074505Y-139398796D01*
X146050001Y-139400000D01*
X145149999Y-139400000D01*
X145125495Y-139398796D01*
X145101227Y-139395196D01*
X145077428Y-139389235D01*
X145054329Y-139380970D01*
X145032150Y-139370480D01*
X145011107Y-139357868D01*
X144991401Y-139343253D01*
X144973223Y-139326777D01*
X144956747Y-139308599D01*
X144942132Y-139288893D01*
X144929520Y-139267850D01*
X144919030Y-139245671D01*
X144910765Y-139222572D01*
X144904804Y-139198773D01*
X144901204Y-139174505D01*
X144900000Y-139150001D01*
X144900000Y-138499999D01*
X144901204Y-138475495D01*
X144904804Y-138451227D01*
X144910765Y-138427428D01*
X144919030Y-138404329D01*
X144929520Y-138382150D01*
X144942132Y-138361107D01*
X144956747Y-138341401D01*
X144973223Y-138323223D01*
X144991401Y-138306747D01*
X145011107Y-138292132D01*
X145032150Y-138279520D01*
X145054329Y-138269030D01*
X145077428Y-138260765D01*
X145101227Y-138254804D01*
X145125495Y-138251204D01*
X145149999Y-138250000D01*
X146050001Y-138250000D01*
X146074505Y-138251204D01*
X146074505Y-138251204D01*
G37*
D17*
X145600000Y-138825000D03*
D16*
G36*
X150074505Y-145301204D02*
G01*
X150098773Y-145304804D01*
X150122572Y-145310765D01*
X150145671Y-145319030D01*
X150167850Y-145329520D01*
X150188893Y-145342132D01*
X150208599Y-145356747D01*
X150226777Y-145373223D01*
X150243253Y-145391401D01*
X150257868Y-145411107D01*
X150270480Y-145432150D01*
X150280970Y-145454329D01*
X150289235Y-145477428D01*
X150295196Y-145501227D01*
X150298796Y-145525495D01*
X150300000Y-145549999D01*
X150300000Y-146200001D01*
X150298796Y-146224505D01*
X150295196Y-146248773D01*
X150289235Y-146272572D01*
X150280970Y-146295671D01*
X150270480Y-146317850D01*
X150257868Y-146338893D01*
X150243253Y-146358599D01*
X150226777Y-146376777D01*
X150208599Y-146393253D01*
X150188893Y-146407868D01*
X150167850Y-146420480D01*
X150145671Y-146430970D01*
X150122572Y-146439235D01*
X150098773Y-146445196D01*
X150074505Y-146448796D01*
X150050001Y-146450000D01*
X149149999Y-146450000D01*
X149125495Y-146448796D01*
X149101227Y-146445196D01*
X149077428Y-146439235D01*
X149054329Y-146430970D01*
X149032150Y-146420480D01*
X149011107Y-146407868D01*
X148991401Y-146393253D01*
X148973223Y-146376777D01*
X148956747Y-146358599D01*
X148942132Y-146338893D01*
X148929520Y-146317850D01*
X148919030Y-146295671D01*
X148910765Y-146272572D01*
X148904804Y-146248773D01*
X148901204Y-146224505D01*
X148900000Y-146200001D01*
X148900000Y-145549999D01*
X148901204Y-145525495D01*
X148904804Y-145501227D01*
X148910765Y-145477428D01*
X148919030Y-145454329D01*
X148929520Y-145432150D01*
X148942132Y-145411107D01*
X148956747Y-145391401D01*
X148973223Y-145373223D01*
X148991401Y-145356747D01*
X149011107Y-145342132D01*
X149032150Y-145329520D01*
X149054329Y-145319030D01*
X149077428Y-145310765D01*
X149101227Y-145304804D01*
X149125495Y-145301204D01*
X149149999Y-145300000D01*
X150050001Y-145300000D01*
X150074505Y-145301204D01*
X150074505Y-145301204D01*
G37*
D17*
X149600000Y-145875000D03*
D16*
G36*
X150074505Y-143251204D02*
G01*
X150098773Y-143254804D01*
X150122572Y-143260765D01*
X150145671Y-143269030D01*
X150167850Y-143279520D01*
X150188893Y-143292132D01*
X150208599Y-143306747D01*
X150226777Y-143323223D01*
X150243253Y-143341401D01*
X150257868Y-143361107D01*
X150270480Y-143382150D01*
X150280970Y-143404329D01*
X150289235Y-143427428D01*
X150295196Y-143451227D01*
X150298796Y-143475495D01*
X150300000Y-143499999D01*
X150300000Y-144150001D01*
X150298796Y-144174505D01*
X150295196Y-144198773D01*
X150289235Y-144222572D01*
X150280970Y-144245671D01*
X150270480Y-144267850D01*
X150257868Y-144288893D01*
X150243253Y-144308599D01*
X150226777Y-144326777D01*
X150208599Y-144343253D01*
X150188893Y-144357868D01*
X150167850Y-144370480D01*
X150145671Y-144380970D01*
X150122572Y-144389235D01*
X150098773Y-144395196D01*
X150074505Y-144398796D01*
X150050001Y-144400000D01*
X149149999Y-144400000D01*
X149125495Y-144398796D01*
X149101227Y-144395196D01*
X149077428Y-144389235D01*
X149054329Y-144380970D01*
X149032150Y-144370480D01*
X149011107Y-144357868D01*
X148991401Y-144343253D01*
X148973223Y-144326777D01*
X148956747Y-144308599D01*
X148942132Y-144288893D01*
X148929520Y-144267850D01*
X148919030Y-144245671D01*
X148910765Y-144222572D01*
X148904804Y-144198773D01*
X148901204Y-144174505D01*
X148900000Y-144150001D01*
X148900000Y-143499999D01*
X148901204Y-143475495D01*
X148904804Y-143451227D01*
X148910765Y-143427428D01*
X148919030Y-143404329D01*
X148929520Y-143382150D01*
X148942132Y-143361107D01*
X148956747Y-143341401D01*
X148973223Y-143323223D01*
X148991401Y-143306747D01*
X149011107Y-143292132D01*
X149032150Y-143279520D01*
X149054329Y-143269030D01*
X149077428Y-143260765D01*
X149101227Y-143254804D01*
X149125495Y-143251204D01*
X149149999Y-143250000D01*
X150050001Y-143250000D01*
X150074505Y-143251204D01*
X150074505Y-143251204D01*
G37*
D17*
X149600000Y-143825000D03*
D16*
G36*
X146074505Y-145301204D02*
G01*
X146098773Y-145304804D01*
X146122572Y-145310765D01*
X146145671Y-145319030D01*
X146167850Y-145329520D01*
X146188893Y-145342132D01*
X146208599Y-145356747D01*
X146226777Y-145373223D01*
X146243253Y-145391401D01*
X146257868Y-145411107D01*
X146270480Y-145432150D01*
X146280970Y-145454329D01*
X146289235Y-145477428D01*
X146295196Y-145501227D01*
X146298796Y-145525495D01*
X146300000Y-145549999D01*
X146300000Y-146200001D01*
X146298796Y-146224505D01*
X146295196Y-146248773D01*
X146289235Y-146272572D01*
X146280970Y-146295671D01*
X146270480Y-146317850D01*
X146257868Y-146338893D01*
X146243253Y-146358599D01*
X146226777Y-146376777D01*
X146208599Y-146393253D01*
X146188893Y-146407868D01*
X146167850Y-146420480D01*
X146145671Y-146430970D01*
X146122572Y-146439235D01*
X146098773Y-146445196D01*
X146074505Y-146448796D01*
X146050001Y-146450000D01*
X145149999Y-146450000D01*
X145125495Y-146448796D01*
X145101227Y-146445196D01*
X145077428Y-146439235D01*
X145054329Y-146430970D01*
X145032150Y-146420480D01*
X145011107Y-146407868D01*
X144991401Y-146393253D01*
X144973223Y-146376777D01*
X144956747Y-146358599D01*
X144942132Y-146338893D01*
X144929520Y-146317850D01*
X144919030Y-146295671D01*
X144910765Y-146272572D01*
X144904804Y-146248773D01*
X144901204Y-146224505D01*
X144900000Y-146200001D01*
X144900000Y-145549999D01*
X144901204Y-145525495D01*
X144904804Y-145501227D01*
X144910765Y-145477428D01*
X144919030Y-145454329D01*
X144929520Y-145432150D01*
X144942132Y-145411107D01*
X144956747Y-145391401D01*
X144973223Y-145373223D01*
X144991401Y-145356747D01*
X145011107Y-145342132D01*
X145032150Y-145329520D01*
X145054329Y-145319030D01*
X145077428Y-145310765D01*
X145101227Y-145304804D01*
X145125495Y-145301204D01*
X145149999Y-145300000D01*
X146050001Y-145300000D01*
X146074505Y-145301204D01*
X146074505Y-145301204D01*
G37*
D17*
X145600000Y-145875000D03*
D16*
G36*
X146074505Y-143251204D02*
G01*
X146098773Y-143254804D01*
X146122572Y-143260765D01*
X146145671Y-143269030D01*
X146167850Y-143279520D01*
X146188893Y-143292132D01*
X146208599Y-143306747D01*
X146226777Y-143323223D01*
X146243253Y-143341401D01*
X146257868Y-143361107D01*
X146270480Y-143382150D01*
X146280970Y-143404329D01*
X146289235Y-143427428D01*
X146295196Y-143451227D01*
X146298796Y-143475495D01*
X146300000Y-143499999D01*
X146300000Y-144150001D01*
X146298796Y-144174505D01*
X146295196Y-144198773D01*
X146289235Y-144222572D01*
X146280970Y-144245671D01*
X146270480Y-144267850D01*
X146257868Y-144288893D01*
X146243253Y-144308599D01*
X146226777Y-144326777D01*
X146208599Y-144343253D01*
X146188893Y-144357868D01*
X146167850Y-144370480D01*
X146145671Y-144380970D01*
X146122572Y-144389235D01*
X146098773Y-144395196D01*
X146074505Y-144398796D01*
X146050001Y-144400000D01*
X145149999Y-144400000D01*
X145125495Y-144398796D01*
X145101227Y-144395196D01*
X145077428Y-144389235D01*
X145054329Y-144380970D01*
X145032150Y-144370480D01*
X145011107Y-144357868D01*
X144991401Y-144343253D01*
X144973223Y-144326777D01*
X144956747Y-144308599D01*
X144942132Y-144288893D01*
X144929520Y-144267850D01*
X144919030Y-144245671D01*
X144910765Y-144222572D01*
X144904804Y-144198773D01*
X144901204Y-144174505D01*
X144900000Y-144150001D01*
X144900000Y-143499999D01*
X144901204Y-143475495D01*
X144904804Y-143451227D01*
X144910765Y-143427428D01*
X144919030Y-143404329D01*
X144929520Y-143382150D01*
X144942132Y-143361107D01*
X144956747Y-143341401D01*
X144973223Y-143323223D01*
X144991401Y-143306747D01*
X145011107Y-143292132D01*
X145032150Y-143279520D01*
X145054329Y-143269030D01*
X145077428Y-143260765D01*
X145101227Y-143254804D01*
X145125495Y-143251204D01*
X145149999Y-143250000D01*
X146050001Y-143250000D01*
X146074505Y-143251204D01*
X146074505Y-143251204D01*
G37*
D17*
X145600000Y-143825000D03*
D16*
G36*
X150074505Y-150301204D02*
G01*
X150098773Y-150304804D01*
X150122572Y-150310765D01*
X150145671Y-150319030D01*
X150167850Y-150329520D01*
X150188893Y-150342132D01*
X150208599Y-150356747D01*
X150226777Y-150373223D01*
X150243253Y-150391401D01*
X150257868Y-150411107D01*
X150270480Y-150432150D01*
X150280970Y-150454329D01*
X150289235Y-150477428D01*
X150295196Y-150501227D01*
X150298796Y-150525495D01*
X150300000Y-150549999D01*
X150300000Y-151200001D01*
X150298796Y-151224505D01*
X150295196Y-151248773D01*
X150289235Y-151272572D01*
X150280970Y-151295671D01*
X150270480Y-151317850D01*
X150257868Y-151338893D01*
X150243253Y-151358599D01*
X150226777Y-151376777D01*
X150208599Y-151393253D01*
X150188893Y-151407868D01*
X150167850Y-151420480D01*
X150145671Y-151430970D01*
X150122572Y-151439235D01*
X150098773Y-151445196D01*
X150074505Y-151448796D01*
X150050001Y-151450000D01*
X149149999Y-151450000D01*
X149125495Y-151448796D01*
X149101227Y-151445196D01*
X149077428Y-151439235D01*
X149054329Y-151430970D01*
X149032150Y-151420480D01*
X149011107Y-151407868D01*
X148991401Y-151393253D01*
X148973223Y-151376777D01*
X148956747Y-151358599D01*
X148942132Y-151338893D01*
X148929520Y-151317850D01*
X148919030Y-151295671D01*
X148910765Y-151272572D01*
X148904804Y-151248773D01*
X148901204Y-151224505D01*
X148900000Y-151200001D01*
X148900000Y-150549999D01*
X148901204Y-150525495D01*
X148904804Y-150501227D01*
X148910765Y-150477428D01*
X148919030Y-150454329D01*
X148929520Y-150432150D01*
X148942132Y-150411107D01*
X148956747Y-150391401D01*
X148973223Y-150373223D01*
X148991401Y-150356747D01*
X149011107Y-150342132D01*
X149032150Y-150329520D01*
X149054329Y-150319030D01*
X149077428Y-150310765D01*
X149101227Y-150304804D01*
X149125495Y-150301204D01*
X149149999Y-150300000D01*
X150050001Y-150300000D01*
X150074505Y-150301204D01*
X150074505Y-150301204D01*
G37*
D17*
X149600000Y-150875000D03*
D16*
G36*
X150074505Y-148251204D02*
G01*
X150098773Y-148254804D01*
X150122572Y-148260765D01*
X150145671Y-148269030D01*
X150167850Y-148279520D01*
X150188893Y-148292132D01*
X150208599Y-148306747D01*
X150226777Y-148323223D01*
X150243253Y-148341401D01*
X150257868Y-148361107D01*
X150270480Y-148382150D01*
X150280970Y-148404329D01*
X150289235Y-148427428D01*
X150295196Y-148451227D01*
X150298796Y-148475495D01*
X150300000Y-148499999D01*
X150300000Y-149150001D01*
X150298796Y-149174505D01*
X150295196Y-149198773D01*
X150289235Y-149222572D01*
X150280970Y-149245671D01*
X150270480Y-149267850D01*
X150257868Y-149288893D01*
X150243253Y-149308599D01*
X150226777Y-149326777D01*
X150208599Y-149343253D01*
X150188893Y-149357868D01*
X150167850Y-149370480D01*
X150145671Y-149380970D01*
X150122572Y-149389235D01*
X150098773Y-149395196D01*
X150074505Y-149398796D01*
X150050001Y-149400000D01*
X149149999Y-149400000D01*
X149125495Y-149398796D01*
X149101227Y-149395196D01*
X149077428Y-149389235D01*
X149054329Y-149380970D01*
X149032150Y-149370480D01*
X149011107Y-149357868D01*
X148991401Y-149343253D01*
X148973223Y-149326777D01*
X148956747Y-149308599D01*
X148942132Y-149288893D01*
X148929520Y-149267850D01*
X148919030Y-149245671D01*
X148910765Y-149222572D01*
X148904804Y-149198773D01*
X148901204Y-149174505D01*
X148900000Y-149150001D01*
X148900000Y-148499999D01*
X148901204Y-148475495D01*
X148904804Y-148451227D01*
X148910765Y-148427428D01*
X148919030Y-148404329D01*
X148929520Y-148382150D01*
X148942132Y-148361107D01*
X148956747Y-148341401D01*
X148973223Y-148323223D01*
X148991401Y-148306747D01*
X149011107Y-148292132D01*
X149032150Y-148279520D01*
X149054329Y-148269030D01*
X149077428Y-148260765D01*
X149101227Y-148254804D01*
X149125495Y-148251204D01*
X149149999Y-148250000D01*
X150050001Y-148250000D01*
X150074505Y-148251204D01*
X150074505Y-148251204D01*
G37*
D17*
X149600000Y-148825000D03*
D16*
G36*
X146074505Y-150301204D02*
G01*
X146098773Y-150304804D01*
X146122572Y-150310765D01*
X146145671Y-150319030D01*
X146167850Y-150329520D01*
X146188893Y-150342132D01*
X146208599Y-150356747D01*
X146226777Y-150373223D01*
X146243253Y-150391401D01*
X146257868Y-150411107D01*
X146270480Y-150432150D01*
X146280970Y-150454329D01*
X146289235Y-150477428D01*
X146295196Y-150501227D01*
X146298796Y-150525495D01*
X146300000Y-150549999D01*
X146300000Y-151200001D01*
X146298796Y-151224505D01*
X146295196Y-151248773D01*
X146289235Y-151272572D01*
X146280970Y-151295671D01*
X146270480Y-151317850D01*
X146257868Y-151338893D01*
X146243253Y-151358599D01*
X146226777Y-151376777D01*
X146208599Y-151393253D01*
X146188893Y-151407868D01*
X146167850Y-151420480D01*
X146145671Y-151430970D01*
X146122572Y-151439235D01*
X146098773Y-151445196D01*
X146074505Y-151448796D01*
X146050001Y-151450000D01*
X145149999Y-151450000D01*
X145125495Y-151448796D01*
X145101227Y-151445196D01*
X145077428Y-151439235D01*
X145054329Y-151430970D01*
X145032150Y-151420480D01*
X145011107Y-151407868D01*
X144991401Y-151393253D01*
X144973223Y-151376777D01*
X144956747Y-151358599D01*
X144942132Y-151338893D01*
X144929520Y-151317850D01*
X144919030Y-151295671D01*
X144910765Y-151272572D01*
X144904804Y-151248773D01*
X144901204Y-151224505D01*
X144900000Y-151200001D01*
X144900000Y-150549999D01*
X144901204Y-150525495D01*
X144904804Y-150501227D01*
X144910765Y-150477428D01*
X144919030Y-150454329D01*
X144929520Y-150432150D01*
X144942132Y-150411107D01*
X144956747Y-150391401D01*
X144973223Y-150373223D01*
X144991401Y-150356747D01*
X145011107Y-150342132D01*
X145032150Y-150329520D01*
X145054329Y-150319030D01*
X145077428Y-150310765D01*
X145101227Y-150304804D01*
X145125495Y-150301204D01*
X145149999Y-150300000D01*
X146050001Y-150300000D01*
X146074505Y-150301204D01*
X146074505Y-150301204D01*
G37*
D17*
X145600000Y-150875000D03*
D16*
G36*
X146074505Y-148251204D02*
G01*
X146098773Y-148254804D01*
X146122572Y-148260765D01*
X146145671Y-148269030D01*
X146167850Y-148279520D01*
X146188893Y-148292132D01*
X146208599Y-148306747D01*
X146226777Y-148323223D01*
X146243253Y-148341401D01*
X146257868Y-148361107D01*
X146270480Y-148382150D01*
X146280970Y-148404329D01*
X146289235Y-148427428D01*
X146295196Y-148451227D01*
X146298796Y-148475495D01*
X146300000Y-148499999D01*
X146300000Y-149150001D01*
X146298796Y-149174505D01*
X146295196Y-149198773D01*
X146289235Y-149222572D01*
X146280970Y-149245671D01*
X146270480Y-149267850D01*
X146257868Y-149288893D01*
X146243253Y-149308599D01*
X146226777Y-149326777D01*
X146208599Y-149343253D01*
X146188893Y-149357868D01*
X146167850Y-149370480D01*
X146145671Y-149380970D01*
X146122572Y-149389235D01*
X146098773Y-149395196D01*
X146074505Y-149398796D01*
X146050001Y-149400000D01*
X145149999Y-149400000D01*
X145125495Y-149398796D01*
X145101227Y-149395196D01*
X145077428Y-149389235D01*
X145054329Y-149380970D01*
X145032150Y-149370480D01*
X145011107Y-149357868D01*
X144991401Y-149343253D01*
X144973223Y-149326777D01*
X144956747Y-149308599D01*
X144942132Y-149288893D01*
X144929520Y-149267850D01*
X144919030Y-149245671D01*
X144910765Y-149222572D01*
X144904804Y-149198773D01*
X144901204Y-149174505D01*
X144900000Y-149150001D01*
X144900000Y-148499999D01*
X144901204Y-148475495D01*
X144904804Y-148451227D01*
X144910765Y-148427428D01*
X144919030Y-148404329D01*
X144929520Y-148382150D01*
X144942132Y-148361107D01*
X144956747Y-148341401D01*
X144973223Y-148323223D01*
X144991401Y-148306747D01*
X145011107Y-148292132D01*
X145032150Y-148279520D01*
X145054329Y-148269030D01*
X145077428Y-148260765D01*
X145101227Y-148254804D01*
X145125495Y-148251204D01*
X145149999Y-148250000D01*
X146050001Y-148250000D01*
X146074505Y-148251204D01*
X146074505Y-148251204D01*
G37*
D17*
X145600000Y-148825000D03*
D16*
G36*
X168224505Y-140451204D02*
G01*
X168248773Y-140454804D01*
X168272572Y-140460765D01*
X168295671Y-140469030D01*
X168317850Y-140479520D01*
X168338893Y-140492132D01*
X168358599Y-140506747D01*
X168376777Y-140523223D01*
X168393253Y-140541401D01*
X168407868Y-140561107D01*
X168420480Y-140582150D01*
X168430970Y-140604329D01*
X168439235Y-140627428D01*
X168445196Y-140651227D01*
X168448796Y-140675495D01*
X168450000Y-140699999D01*
X168450000Y-141350001D01*
X168448796Y-141374505D01*
X168445196Y-141398773D01*
X168439235Y-141422572D01*
X168430970Y-141445671D01*
X168420480Y-141467850D01*
X168407868Y-141488893D01*
X168393253Y-141508599D01*
X168376777Y-141526777D01*
X168358599Y-141543253D01*
X168338893Y-141557868D01*
X168317850Y-141570480D01*
X168295671Y-141580970D01*
X168272572Y-141589235D01*
X168248773Y-141595196D01*
X168224505Y-141598796D01*
X168200001Y-141600000D01*
X167299999Y-141600000D01*
X167275495Y-141598796D01*
X167251227Y-141595196D01*
X167227428Y-141589235D01*
X167204329Y-141580970D01*
X167182150Y-141570480D01*
X167161107Y-141557868D01*
X167141401Y-141543253D01*
X167123223Y-141526777D01*
X167106747Y-141508599D01*
X167092132Y-141488893D01*
X167079520Y-141467850D01*
X167069030Y-141445671D01*
X167060765Y-141422572D01*
X167054804Y-141398773D01*
X167051204Y-141374505D01*
X167050000Y-141350001D01*
X167050000Y-140699999D01*
X167051204Y-140675495D01*
X167054804Y-140651227D01*
X167060765Y-140627428D01*
X167069030Y-140604329D01*
X167079520Y-140582150D01*
X167092132Y-140561107D01*
X167106747Y-140541401D01*
X167123223Y-140523223D01*
X167141401Y-140506747D01*
X167161107Y-140492132D01*
X167182150Y-140479520D01*
X167204329Y-140469030D01*
X167227428Y-140460765D01*
X167251227Y-140454804D01*
X167275495Y-140451204D01*
X167299999Y-140450000D01*
X168200001Y-140450000D01*
X168224505Y-140451204D01*
X168224505Y-140451204D01*
G37*
D17*
X167750000Y-141025000D03*
D16*
G36*
X168224505Y-138401204D02*
G01*
X168248773Y-138404804D01*
X168272572Y-138410765D01*
X168295671Y-138419030D01*
X168317850Y-138429520D01*
X168338893Y-138442132D01*
X168358599Y-138456747D01*
X168376777Y-138473223D01*
X168393253Y-138491401D01*
X168407868Y-138511107D01*
X168420480Y-138532150D01*
X168430970Y-138554329D01*
X168439235Y-138577428D01*
X168445196Y-138601227D01*
X168448796Y-138625495D01*
X168450000Y-138649999D01*
X168450000Y-139300001D01*
X168448796Y-139324505D01*
X168445196Y-139348773D01*
X168439235Y-139372572D01*
X168430970Y-139395671D01*
X168420480Y-139417850D01*
X168407868Y-139438893D01*
X168393253Y-139458599D01*
X168376777Y-139476777D01*
X168358599Y-139493253D01*
X168338893Y-139507868D01*
X168317850Y-139520480D01*
X168295671Y-139530970D01*
X168272572Y-139539235D01*
X168248773Y-139545196D01*
X168224505Y-139548796D01*
X168200001Y-139550000D01*
X167299999Y-139550000D01*
X167275495Y-139548796D01*
X167251227Y-139545196D01*
X167227428Y-139539235D01*
X167204329Y-139530970D01*
X167182150Y-139520480D01*
X167161107Y-139507868D01*
X167141401Y-139493253D01*
X167123223Y-139476777D01*
X167106747Y-139458599D01*
X167092132Y-139438893D01*
X167079520Y-139417850D01*
X167069030Y-139395671D01*
X167060765Y-139372572D01*
X167054804Y-139348773D01*
X167051204Y-139324505D01*
X167050000Y-139300001D01*
X167050000Y-138649999D01*
X167051204Y-138625495D01*
X167054804Y-138601227D01*
X167060765Y-138577428D01*
X167069030Y-138554329D01*
X167079520Y-138532150D01*
X167092132Y-138511107D01*
X167106747Y-138491401D01*
X167123223Y-138473223D01*
X167141401Y-138456747D01*
X167161107Y-138442132D01*
X167182150Y-138429520D01*
X167204329Y-138419030D01*
X167227428Y-138410765D01*
X167251227Y-138404804D01*
X167275495Y-138401204D01*
X167299999Y-138400000D01*
X168200001Y-138400000D01*
X168224505Y-138401204D01*
X168224505Y-138401204D01*
G37*
D17*
X167750000Y-138975000D03*
D16*
G36*
X164224505Y-140451204D02*
G01*
X164248773Y-140454804D01*
X164272572Y-140460765D01*
X164295671Y-140469030D01*
X164317850Y-140479520D01*
X164338893Y-140492132D01*
X164358599Y-140506747D01*
X164376777Y-140523223D01*
X164393253Y-140541401D01*
X164407868Y-140561107D01*
X164420480Y-140582150D01*
X164430970Y-140604329D01*
X164439235Y-140627428D01*
X164445196Y-140651227D01*
X164448796Y-140675495D01*
X164450000Y-140699999D01*
X164450000Y-141350001D01*
X164448796Y-141374505D01*
X164445196Y-141398773D01*
X164439235Y-141422572D01*
X164430970Y-141445671D01*
X164420480Y-141467850D01*
X164407868Y-141488893D01*
X164393253Y-141508599D01*
X164376777Y-141526777D01*
X164358599Y-141543253D01*
X164338893Y-141557868D01*
X164317850Y-141570480D01*
X164295671Y-141580970D01*
X164272572Y-141589235D01*
X164248773Y-141595196D01*
X164224505Y-141598796D01*
X164200001Y-141600000D01*
X163299999Y-141600000D01*
X163275495Y-141598796D01*
X163251227Y-141595196D01*
X163227428Y-141589235D01*
X163204329Y-141580970D01*
X163182150Y-141570480D01*
X163161107Y-141557868D01*
X163141401Y-141543253D01*
X163123223Y-141526777D01*
X163106747Y-141508599D01*
X163092132Y-141488893D01*
X163079520Y-141467850D01*
X163069030Y-141445671D01*
X163060765Y-141422572D01*
X163054804Y-141398773D01*
X163051204Y-141374505D01*
X163050000Y-141350001D01*
X163050000Y-140699999D01*
X163051204Y-140675495D01*
X163054804Y-140651227D01*
X163060765Y-140627428D01*
X163069030Y-140604329D01*
X163079520Y-140582150D01*
X163092132Y-140561107D01*
X163106747Y-140541401D01*
X163123223Y-140523223D01*
X163141401Y-140506747D01*
X163161107Y-140492132D01*
X163182150Y-140479520D01*
X163204329Y-140469030D01*
X163227428Y-140460765D01*
X163251227Y-140454804D01*
X163275495Y-140451204D01*
X163299999Y-140450000D01*
X164200001Y-140450000D01*
X164224505Y-140451204D01*
X164224505Y-140451204D01*
G37*
D17*
X163750000Y-141025000D03*
D16*
G36*
X164224505Y-138401204D02*
G01*
X164248773Y-138404804D01*
X164272572Y-138410765D01*
X164295671Y-138419030D01*
X164317850Y-138429520D01*
X164338893Y-138442132D01*
X164358599Y-138456747D01*
X164376777Y-138473223D01*
X164393253Y-138491401D01*
X164407868Y-138511107D01*
X164420480Y-138532150D01*
X164430970Y-138554329D01*
X164439235Y-138577428D01*
X164445196Y-138601227D01*
X164448796Y-138625495D01*
X164450000Y-138649999D01*
X164450000Y-139300001D01*
X164448796Y-139324505D01*
X164445196Y-139348773D01*
X164439235Y-139372572D01*
X164430970Y-139395671D01*
X164420480Y-139417850D01*
X164407868Y-139438893D01*
X164393253Y-139458599D01*
X164376777Y-139476777D01*
X164358599Y-139493253D01*
X164338893Y-139507868D01*
X164317850Y-139520480D01*
X164295671Y-139530970D01*
X164272572Y-139539235D01*
X164248773Y-139545196D01*
X164224505Y-139548796D01*
X164200001Y-139550000D01*
X163299999Y-139550000D01*
X163275495Y-139548796D01*
X163251227Y-139545196D01*
X163227428Y-139539235D01*
X163204329Y-139530970D01*
X163182150Y-139520480D01*
X163161107Y-139507868D01*
X163141401Y-139493253D01*
X163123223Y-139476777D01*
X163106747Y-139458599D01*
X163092132Y-139438893D01*
X163079520Y-139417850D01*
X163069030Y-139395671D01*
X163060765Y-139372572D01*
X163054804Y-139348773D01*
X163051204Y-139324505D01*
X163050000Y-139300001D01*
X163050000Y-138649999D01*
X163051204Y-138625495D01*
X163054804Y-138601227D01*
X163060765Y-138577428D01*
X163069030Y-138554329D01*
X163079520Y-138532150D01*
X163092132Y-138511107D01*
X163106747Y-138491401D01*
X163123223Y-138473223D01*
X163141401Y-138456747D01*
X163161107Y-138442132D01*
X163182150Y-138429520D01*
X163204329Y-138419030D01*
X163227428Y-138410765D01*
X163251227Y-138404804D01*
X163275495Y-138401204D01*
X163299999Y-138400000D01*
X164200001Y-138400000D01*
X164224505Y-138401204D01*
X164224505Y-138401204D01*
G37*
D17*
X163750000Y-138975000D03*
D16*
G36*
X168224505Y-145451204D02*
G01*
X168248773Y-145454804D01*
X168272572Y-145460765D01*
X168295671Y-145469030D01*
X168317850Y-145479520D01*
X168338893Y-145492132D01*
X168358599Y-145506747D01*
X168376777Y-145523223D01*
X168393253Y-145541401D01*
X168407868Y-145561107D01*
X168420480Y-145582150D01*
X168430970Y-145604329D01*
X168439235Y-145627428D01*
X168445196Y-145651227D01*
X168448796Y-145675495D01*
X168450000Y-145699999D01*
X168450000Y-146350001D01*
X168448796Y-146374505D01*
X168445196Y-146398773D01*
X168439235Y-146422572D01*
X168430970Y-146445671D01*
X168420480Y-146467850D01*
X168407868Y-146488893D01*
X168393253Y-146508599D01*
X168376777Y-146526777D01*
X168358599Y-146543253D01*
X168338893Y-146557868D01*
X168317850Y-146570480D01*
X168295671Y-146580970D01*
X168272572Y-146589235D01*
X168248773Y-146595196D01*
X168224505Y-146598796D01*
X168200001Y-146600000D01*
X167299999Y-146600000D01*
X167275495Y-146598796D01*
X167251227Y-146595196D01*
X167227428Y-146589235D01*
X167204329Y-146580970D01*
X167182150Y-146570480D01*
X167161107Y-146557868D01*
X167141401Y-146543253D01*
X167123223Y-146526777D01*
X167106747Y-146508599D01*
X167092132Y-146488893D01*
X167079520Y-146467850D01*
X167069030Y-146445671D01*
X167060765Y-146422572D01*
X167054804Y-146398773D01*
X167051204Y-146374505D01*
X167050000Y-146350001D01*
X167050000Y-145699999D01*
X167051204Y-145675495D01*
X167054804Y-145651227D01*
X167060765Y-145627428D01*
X167069030Y-145604329D01*
X167079520Y-145582150D01*
X167092132Y-145561107D01*
X167106747Y-145541401D01*
X167123223Y-145523223D01*
X167141401Y-145506747D01*
X167161107Y-145492132D01*
X167182150Y-145479520D01*
X167204329Y-145469030D01*
X167227428Y-145460765D01*
X167251227Y-145454804D01*
X167275495Y-145451204D01*
X167299999Y-145450000D01*
X168200001Y-145450000D01*
X168224505Y-145451204D01*
X168224505Y-145451204D01*
G37*
D17*
X167750000Y-146025000D03*
D16*
G36*
X168224505Y-143401204D02*
G01*
X168248773Y-143404804D01*
X168272572Y-143410765D01*
X168295671Y-143419030D01*
X168317850Y-143429520D01*
X168338893Y-143442132D01*
X168358599Y-143456747D01*
X168376777Y-143473223D01*
X168393253Y-143491401D01*
X168407868Y-143511107D01*
X168420480Y-143532150D01*
X168430970Y-143554329D01*
X168439235Y-143577428D01*
X168445196Y-143601227D01*
X168448796Y-143625495D01*
X168450000Y-143649999D01*
X168450000Y-144300001D01*
X168448796Y-144324505D01*
X168445196Y-144348773D01*
X168439235Y-144372572D01*
X168430970Y-144395671D01*
X168420480Y-144417850D01*
X168407868Y-144438893D01*
X168393253Y-144458599D01*
X168376777Y-144476777D01*
X168358599Y-144493253D01*
X168338893Y-144507868D01*
X168317850Y-144520480D01*
X168295671Y-144530970D01*
X168272572Y-144539235D01*
X168248773Y-144545196D01*
X168224505Y-144548796D01*
X168200001Y-144550000D01*
X167299999Y-144550000D01*
X167275495Y-144548796D01*
X167251227Y-144545196D01*
X167227428Y-144539235D01*
X167204329Y-144530970D01*
X167182150Y-144520480D01*
X167161107Y-144507868D01*
X167141401Y-144493253D01*
X167123223Y-144476777D01*
X167106747Y-144458599D01*
X167092132Y-144438893D01*
X167079520Y-144417850D01*
X167069030Y-144395671D01*
X167060765Y-144372572D01*
X167054804Y-144348773D01*
X167051204Y-144324505D01*
X167050000Y-144300001D01*
X167050000Y-143649999D01*
X167051204Y-143625495D01*
X167054804Y-143601227D01*
X167060765Y-143577428D01*
X167069030Y-143554329D01*
X167079520Y-143532150D01*
X167092132Y-143511107D01*
X167106747Y-143491401D01*
X167123223Y-143473223D01*
X167141401Y-143456747D01*
X167161107Y-143442132D01*
X167182150Y-143429520D01*
X167204329Y-143419030D01*
X167227428Y-143410765D01*
X167251227Y-143404804D01*
X167275495Y-143401204D01*
X167299999Y-143400000D01*
X168200001Y-143400000D01*
X168224505Y-143401204D01*
X168224505Y-143401204D01*
G37*
D17*
X167750000Y-143975000D03*
D16*
G36*
X164224505Y-145451204D02*
G01*
X164248773Y-145454804D01*
X164272572Y-145460765D01*
X164295671Y-145469030D01*
X164317850Y-145479520D01*
X164338893Y-145492132D01*
X164358599Y-145506747D01*
X164376777Y-145523223D01*
X164393253Y-145541401D01*
X164407868Y-145561107D01*
X164420480Y-145582150D01*
X164430970Y-145604329D01*
X164439235Y-145627428D01*
X164445196Y-145651227D01*
X164448796Y-145675495D01*
X164450000Y-145699999D01*
X164450000Y-146350001D01*
X164448796Y-146374505D01*
X164445196Y-146398773D01*
X164439235Y-146422572D01*
X164430970Y-146445671D01*
X164420480Y-146467850D01*
X164407868Y-146488893D01*
X164393253Y-146508599D01*
X164376777Y-146526777D01*
X164358599Y-146543253D01*
X164338893Y-146557868D01*
X164317850Y-146570480D01*
X164295671Y-146580970D01*
X164272572Y-146589235D01*
X164248773Y-146595196D01*
X164224505Y-146598796D01*
X164200001Y-146600000D01*
X163299999Y-146600000D01*
X163275495Y-146598796D01*
X163251227Y-146595196D01*
X163227428Y-146589235D01*
X163204329Y-146580970D01*
X163182150Y-146570480D01*
X163161107Y-146557868D01*
X163141401Y-146543253D01*
X163123223Y-146526777D01*
X163106747Y-146508599D01*
X163092132Y-146488893D01*
X163079520Y-146467850D01*
X163069030Y-146445671D01*
X163060765Y-146422572D01*
X163054804Y-146398773D01*
X163051204Y-146374505D01*
X163050000Y-146350001D01*
X163050000Y-145699999D01*
X163051204Y-145675495D01*
X163054804Y-145651227D01*
X163060765Y-145627428D01*
X163069030Y-145604329D01*
X163079520Y-145582150D01*
X163092132Y-145561107D01*
X163106747Y-145541401D01*
X163123223Y-145523223D01*
X163141401Y-145506747D01*
X163161107Y-145492132D01*
X163182150Y-145479520D01*
X163204329Y-145469030D01*
X163227428Y-145460765D01*
X163251227Y-145454804D01*
X163275495Y-145451204D01*
X163299999Y-145450000D01*
X164200001Y-145450000D01*
X164224505Y-145451204D01*
X164224505Y-145451204D01*
G37*
D17*
X163750000Y-146025000D03*
D16*
G36*
X164224505Y-143401204D02*
G01*
X164248773Y-143404804D01*
X164272572Y-143410765D01*
X164295671Y-143419030D01*
X164317850Y-143429520D01*
X164338893Y-143442132D01*
X164358599Y-143456747D01*
X164376777Y-143473223D01*
X164393253Y-143491401D01*
X164407868Y-143511107D01*
X164420480Y-143532150D01*
X164430970Y-143554329D01*
X164439235Y-143577428D01*
X164445196Y-143601227D01*
X164448796Y-143625495D01*
X164450000Y-143649999D01*
X164450000Y-144300001D01*
X164448796Y-144324505D01*
X164445196Y-144348773D01*
X164439235Y-144372572D01*
X164430970Y-144395671D01*
X164420480Y-144417850D01*
X164407868Y-144438893D01*
X164393253Y-144458599D01*
X164376777Y-144476777D01*
X164358599Y-144493253D01*
X164338893Y-144507868D01*
X164317850Y-144520480D01*
X164295671Y-144530970D01*
X164272572Y-144539235D01*
X164248773Y-144545196D01*
X164224505Y-144548796D01*
X164200001Y-144550000D01*
X163299999Y-144550000D01*
X163275495Y-144548796D01*
X163251227Y-144545196D01*
X163227428Y-144539235D01*
X163204329Y-144530970D01*
X163182150Y-144520480D01*
X163161107Y-144507868D01*
X163141401Y-144493253D01*
X163123223Y-144476777D01*
X163106747Y-144458599D01*
X163092132Y-144438893D01*
X163079520Y-144417850D01*
X163069030Y-144395671D01*
X163060765Y-144372572D01*
X163054804Y-144348773D01*
X163051204Y-144324505D01*
X163050000Y-144300001D01*
X163050000Y-143649999D01*
X163051204Y-143625495D01*
X163054804Y-143601227D01*
X163060765Y-143577428D01*
X163069030Y-143554329D01*
X163079520Y-143532150D01*
X163092132Y-143511107D01*
X163106747Y-143491401D01*
X163123223Y-143473223D01*
X163141401Y-143456747D01*
X163161107Y-143442132D01*
X163182150Y-143429520D01*
X163204329Y-143419030D01*
X163227428Y-143410765D01*
X163251227Y-143404804D01*
X163275495Y-143401204D01*
X163299999Y-143400000D01*
X164200001Y-143400000D01*
X164224505Y-143401204D01*
X164224505Y-143401204D01*
G37*
D17*
X163750000Y-143975000D03*
D16*
G36*
X168224505Y-150451204D02*
G01*
X168248773Y-150454804D01*
X168272572Y-150460765D01*
X168295671Y-150469030D01*
X168317850Y-150479520D01*
X168338893Y-150492132D01*
X168358599Y-150506747D01*
X168376777Y-150523223D01*
X168393253Y-150541401D01*
X168407868Y-150561107D01*
X168420480Y-150582150D01*
X168430970Y-150604329D01*
X168439235Y-150627428D01*
X168445196Y-150651227D01*
X168448796Y-150675495D01*
X168450000Y-150699999D01*
X168450000Y-151350001D01*
X168448796Y-151374505D01*
X168445196Y-151398773D01*
X168439235Y-151422572D01*
X168430970Y-151445671D01*
X168420480Y-151467850D01*
X168407868Y-151488893D01*
X168393253Y-151508599D01*
X168376777Y-151526777D01*
X168358599Y-151543253D01*
X168338893Y-151557868D01*
X168317850Y-151570480D01*
X168295671Y-151580970D01*
X168272572Y-151589235D01*
X168248773Y-151595196D01*
X168224505Y-151598796D01*
X168200001Y-151600000D01*
X167299999Y-151600000D01*
X167275495Y-151598796D01*
X167251227Y-151595196D01*
X167227428Y-151589235D01*
X167204329Y-151580970D01*
X167182150Y-151570480D01*
X167161107Y-151557868D01*
X167141401Y-151543253D01*
X167123223Y-151526777D01*
X167106747Y-151508599D01*
X167092132Y-151488893D01*
X167079520Y-151467850D01*
X167069030Y-151445671D01*
X167060765Y-151422572D01*
X167054804Y-151398773D01*
X167051204Y-151374505D01*
X167050000Y-151350001D01*
X167050000Y-150699999D01*
X167051204Y-150675495D01*
X167054804Y-150651227D01*
X167060765Y-150627428D01*
X167069030Y-150604329D01*
X167079520Y-150582150D01*
X167092132Y-150561107D01*
X167106747Y-150541401D01*
X167123223Y-150523223D01*
X167141401Y-150506747D01*
X167161107Y-150492132D01*
X167182150Y-150479520D01*
X167204329Y-150469030D01*
X167227428Y-150460765D01*
X167251227Y-150454804D01*
X167275495Y-150451204D01*
X167299999Y-150450000D01*
X168200001Y-150450000D01*
X168224505Y-150451204D01*
X168224505Y-150451204D01*
G37*
D17*
X167750000Y-151025000D03*
D16*
G36*
X168224505Y-148401204D02*
G01*
X168248773Y-148404804D01*
X168272572Y-148410765D01*
X168295671Y-148419030D01*
X168317850Y-148429520D01*
X168338893Y-148442132D01*
X168358599Y-148456747D01*
X168376777Y-148473223D01*
X168393253Y-148491401D01*
X168407868Y-148511107D01*
X168420480Y-148532150D01*
X168430970Y-148554329D01*
X168439235Y-148577428D01*
X168445196Y-148601227D01*
X168448796Y-148625495D01*
X168450000Y-148649999D01*
X168450000Y-149300001D01*
X168448796Y-149324505D01*
X168445196Y-149348773D01*
X168439235Y-149372572D01*
X168430970Y-149395671D01*
X168420480Y-149417850D01*
X168407868Y-149438893D01*
X168393253Y-149458599D01*
X168376777Y-149476777D01*
X168358599Y-149493253D01*
X168338893Y-149507868D01*
X168317850Y-149520480D01*
X168295671Y-149530970D01*
X168272572Y-149539235D01*
X168248773Y-149545196D01*
X168224505Y-149548796D01*
X168200001Y-149550000D01*
X167299999Y-149550000D01*
X167275495Y-149548796D01*
X167251227Y-149545196D01*
X167227428Y-149539235D01*
X167204329Y-149530970D01*
X167182150Y-149520480D01*
X167161107Y-149507868D01*
X167141401Y-149493253D01*
X167123223Y-149476777D01*
X167106747Y-149458599D01*
X167092132Y-149438893D01*
X167079520Y-149417850D01*
X167069030Y-149395671D01*
X167060765Y-149372572D01*
X167054804Y-149348773D01*
X167051204Y-149324505D01*
X167050000Y-149300001D01*
X167050000Y-148649999D01*
X167051204Y-148625495D01*
X167054804Y-148601227D01*
X167060765Y-148577428D01*
X167069030Y-148554329D01*
X167079520Y-148532150D01*
X167092132Y-148511107D01*
X167106747Y-148491401D01*
X167123223Y-148473223D01*
X167141401Y-148456747D01*
X167161107Y-148442132D01*
X167182150Y-148429520D01*
X167204329Y-148419030D01*
X167227428Y-148410765D01*
X167251227Y-148404804D01*
X167275495Y-148401204D01*
X167299999Y-148400000D01*
X168200001Y-148400000D01*
X168224505Y-148401204D01*
X168224505Y-148401204D01*
G37*
D17*
X167750000Y-148975000D03*
D16*
G36*
X164224505Y-150451204D02*
G01*
X164248773Y-150454804D01*
X164272572Y-150460765D01*
X164295671Y-150469030D01*
X164317850Y-150479520D01*
X164338893Y-150492132D01*
X164358599Y-150506747D01*
X164376777Y-150523223D01*
X164393253Y-150541401D01*
X164407868Y-150561107D01*
X164420480Y-150582150D01*
X164430970Y-150604329D01*
X164439235Y-150627428D01*
X164445196Y-150651227D01*
X164448796Y-150675495D01*
X164450000Y-150699999D01*
X164450000Y-151350001D01*
X164448796Y-151374505D01*
X164445196Y-151398773D01*
X164439235Y-151422572D01*
X164430970Y-151445671D01*
X164420480Y-151467850D01*
X164407868Y-151488893D01*
X164393253Y-151508599D01*
X164376777Y-151526777D01*
X164358599Y-151543253D01*
X164338893Y-151557868D01*
X164317850Y-151570480D01*
X164295671Y-151580970D01*
X164272572Y-151589235D01*
X164248773Y-151595196D01*
X164224505Y-151598796D01*
X164200001Y-151600000D01*
X163299999Y-151600000D01*
X163275495Y-151598796D01*
X163251227Y-151595196D01*
X163227428Y-151589235D01*
X163204329Y-151580970D01*
X163182150Y-151570480D01*
X163161107Y-151557868D01*
X163141401Y-151543253D01*
X163123223Y-151526777D01*
X163106747Y-151508599D01*
X163092132Y-151488893D01*
X163079520Y-151467850D01*
X163069030Y-151445671D01*
X163060765Y-151422572D01*
X163054804Y-151398773D01*
X163051204Y-151374505D01*
X163050000Y-151350001D01*
X163050000Y-150699999D01*
X163051204Y-150675495D01*
X163054804Y-150651227D01*
X163060765Y-150627428D01*
X163069030Y-150604329D01*
X163079520Y-150582150D01*
X163092132Y-150561107D01*
X163106747Y-150541401D01*
X163123223Y-150523223D01*
X163141401Y-150506747D01*
X163161107Y-150492132D01*
X163182150Y-150479520D01*
X163204329Y-150469030D01*
X163227428Y-150460765D01*
X163251227Y-150454804D01*
X163275495Y-150451204D01*
X163299999Y-150450000D01*
X164200001Y-150450000D01*
X164224505Y-150451204D01*
X164224505Y-150451204D01*
G37*
D17*
X163750000Y-151025000D03*
D16*
G36*
X164224505Y-148401204D02*
G01*
X164248773Y-148404804D01*
X164272572Y-148410765D01*
X164295671Y-148419030D01*
X164317850Y-148429520D01*
X164338893Y-148442132D01*
X164358599Y-148456747D01*
X164376777Y-148473223D01*
X164393253Y-148491401D01*
X164407868Y-148511107D01*
X164420480Y-148532150D01*
X164430970Y-148554329D01*
X164439235Y-148577428D01*
X164445196Y-148601227D01*
X164448796Y-148625495D01*
X164450000Y-148649999D01*
X164450000Y-149300001D01*
X164448796Y-149324505D01*
X164445196Y-149348773D01*
X164439235Y-149372572D01*
X164430970Y-149395671D01*
X164420480Y-149417850D01*
X164407868Y-149438893D01*
X164393253Y-149458599D01*
X164376777Y-149476777D01*
X164358599Y-149493253D01*
X164338893Y-149507868D01*
X164317850Y-149520480D01*
X164295671Y-149530970D01*
X164272572Y-149539235D01*
X164248773Y-149545196D01*
X164224505Y-149548796D01*
X164200001Y-149550000D01*
X163299999Y-149550000D01*
X163275495Y-149548796D01*
X163251227Y-149545196D01*
X163227428Y-149539235D01*
X163204329Y-149530970D01*
X163182150Y-149520480D01*
X163161107Y-149507868D01*
X163141401Y-149493253D01*
X163123223Y-149476777D01*
X163106747Y-149458599D01*
X163092132Y-149438893D01*
X163079520Y-149417850D01*
X163069030Y-149395671D01*
X163060765Y-149372572D01*
X163054804Y-149348773D01*
X163051204Y-149324505D01*
X163050000Y-149300001D01*
X163050000Y-148649999D01*
X163051204Y-148625495D01*
X163054804Y-148601227D01*
X163060765Y-148577428D01*
X163069030Y-148554329D01*
X163079520Y-148532150D01*
X163092132Y-148511107D01*
X163106747Y-148491401D01*
X163123223Y-148473223D01*
X163141401Y-148456747D01*
X163161107Y-148442132D01*
X163182150Y-148429520D01*
X163204329Y-148419030D01*
X163227428Y-148410765D01*
X163251227Y-148404804D01*
X163275495Y-148401204D01*
X163299999Y-148400000D01*
X164200001Y-148400000D01*
X164224505Y-148401204D01*
X164224505Y-148401204D01*
G37*
D17*
X163750000Y-148975000D03*
D18*
X144500000Y-132400000D03*
X171100000Y-102400000D03*
X122600000Y-110500000D03*
X152600000Y-126100000D03*
X129281631Y-99501227D03*
X152600000Y-83900000D03*
X114281631Y-104501227D03*
D19*
X165750000Y-151100000D02*
X165825000Y-151025000D01*
D12*
X163750000Y-151025000D02*
X165825000Y-151025000D01*
X165825000Y-151025000D02*
X167750000Y-151025000D01*
D19*
X165591631Y-151258369D02*
X165825000Y-151025000D01*
D12*
X165591631Y-155461227D02*
X165591631Y-151258369D01*
X165775000Y-148975000D02*
X165775000Y-146025000D01*
X165775000Y-146025000D02*
X167750000Y-146025000D01*
X163750000Y-146025000D02*
X165775000Y-146025000D01*
X165775000Y-148975000D02*
X167750000Y-148975000D01*
X163750000Y-148975000D02*
X165775000Y-148975000D01*
X165775000Y-143975000D02*
X165775000Y-141025000D01*
X165775000Y-141025000D02*
X167750000Y-141025000D01*
X163750000Y-141025000D02*
X165775000Y-141025000D01*
X165775000Y-143975000D02*
X167750000Y-143975000D01*
X163750000Y-143975000D02*
X165775000Y-143975000D01*
D19*
X147600000Y-151000000D02*
X147475000Y-150875000D01*
D12*
X145600000Y-150875000D02*
X147475000Y-150875000D01*
X147475000Y-150875000D02*
X149600000Y-150875000D01*
D19*
X147721631Y-151121631D02*
X147475000Y-150875000D01*
D12*
X147721631Y-155211227D02*
X147721631Y-151121631D01*
D19*
X147675000Y-145925000D02*
X147725000Y-145875000D01*
D12*
X147675000Y-148825000D02*
X147675000Y-145925000D01*
X147725000Y-145875000D02*
X149600000Y-145875000D01*
X145600000Y-145875000D02*
X147725000Y-145875000D01*
X147675000Y-148825000D02*
X149600000Y-148825000D01*
X145600000Y-148825000D02*
X147675000Y-148825000D01*
D19*
X147675000Y-140925000D02*
X147725000Y-140875000D01*
D12*
X147675000Y-143825000D02*
X147675000Y-140925000D01*
X147725000Y-140875000D02*
X149600000Y-140875000D01*
X145600000Y-140875000D02*
X147725000Y-140875000D01*
X147675000Y-143825000D02*
X149600000Y-143825000D01*
X145600000Y-143825000D02*
X147675000Y-143825000D01*
D10*
X150071631Y-189302217D02*
X150071631Y-192791227D01*
X150071631Y-187711227D02*
X150071631Y-189302217D01*
X150071631Y-192791227D02*
X144991631Y-192791227D01*
X144991631Y-192791227D02*
X144991631Y-187711227D01*
X162991631Y-187711227D02*
X162991631Y-192791227D01*
X162991631Y-192791227D02*
X168071631Y-192791227D01*
X168071631Y-189302217D02*
X168071631Y-192791227D01*
X168071631Y-187711227D02*
X168071631Y-189302217D01*
D12*
X163750000Y-138975000D02*
X167750000Y-138975000D01*
X145600000Y-138825000D02*
X149600000Y-138825000D01*
D19*
X165531631Y-181601227D02*
X165591631Y-181541227D01*
D12*
X165531631Y-190251227D02*
X165531631Y-181601227D01*
D19*
X147531631Y-181511227D02*
X147751631Y-181291227D01*
D12*
X147531631Y-190251227D02*
X147531631Y-181511227D01*
X165591631Y-175401227D02*
X165591631Y-171041227D01*
D19*
X165591631Y-176461227D02*
X165591631Y-175401227D01*
D12*
X165591631Y-165961227D02*
X165591631Y-160541227D01*
D19*
X147751631Y-160321227D02*
X147721631Y-160291227D01*
D12*
X147751631Y-165771227D02*
X147751631Y-160321227D01*
X147751631Y-175151227D02*
X147751631Y-170851227D01*
X147751631Y-176211227D02*
X147751631Y-175151227D01*
M02*
