EESchema Schematic File Version 4
LIBS:PCB_coil_2-cache
EELAYER 29 0
EELAYER END
$Descr A4 11693 8268
encoding utf-8
Sheet 1 1
Title ""
Date ""
Rev ""
Comp ""
Comment1 ""
Comment2 ""
Comment3 ""
Comment4 ""
$EndDescr
$Comp
L Device:R R_p1
U 1 1 5F291341
P 4750 2350
F 0 "R_p1" H 4820 2396 50  0000 L CNN
F 1 "1R" H 4820 2305 50  0000 L CNN
F 2 "Resistor_SMD:R_2512_6332Metric_Pad1.52x3.35mm_HandSolder" V 4680 2350 50  0001 C CNN
F 3 "https://uk.rs-online.com/web/p/surface-mount-fixed-resistors/7216274/" H 4750 2350 50  0001 C CNN
	1    4750 2350
	1    0    0    -1  
$EndComp
$Comp
L power:GND #PWR0101
U 1 1 5F2B02A9
P 4900 2600
F 0 "#PWR0101" H 4900 2350 50  0001 C CNN
F 1 "GND" H 4905 2427 50  0000 C CNN
F 2 "" H 4900 2600 50  0001 C CNN
F 3 "" H 4900 2600 50  0001 C CNN
	1    4900 2600
	1    0    0    -1  
$EndComp
$Comp
L PCB_coil_2-rescue:AD8361ARMZ-RF U1
U 1 1 5F2B18E9
P 6250 1800
F 0 "U1" H 7050 2187 60  0000 C CNN
F 1 "AD8361ARMZ" H 7050 2081 60  0000 C CNN
F 2 "ICs:AD8361ARMZ" H 7050 2040 60  0001 C CNN
F 3 "" H 6250 1800 60  0000 C CNN
	1    6250 1800
	1    0    0    -1  
$EndComp
$Comp
L Device:C C1
U 1 1 5F2B4589
P 5900 2000
F 0 "C1" V 5648 2000 50  0000 C CNN
F 1 "1n" V 5739 2000 50  0000 C CNN
F 2 "Capacitor_SMD:C_0805_2012Metric_Pad1.15x1.40mm_HandSolder" H 5938 1850 50  0001 C CNN
F 3 "~" H 5900 2000 50  0001 C CNN
	1    5900 2000
	0    1    1    0   
$EndComp
$Comp
L power:GND #PWR0102
U 1 1 5F2B5497
P 7950 2200
F 0 "#PWR0102" H 7950 1950 50  0001 C CNN
F 1 "GND" H 7955 2027 50  0000 C CNN
F 2 "" H 7950 2200 50  0001 C CNN
F 3 "" H 7950 2200 50  0001 C CNN
	1    7950 2200
	1    0    0    -1  
$EndComp
$Comp
L power:GND #PWR0103
U 1 1 5F2B5D01
P 6150 2200
F 0 "#PWR0103" H 6150 1950 50  0001 C CNN
F 1 "GND" H 6155 2027 50  0000 C CNN
F 2 "" H 6150 2200 50  0001 C CNN
F 3 "" H 6150 2200 50  0001 C CNN
	1    6150 2200
	1    0    0    -1  
$EndComp
Wire Wire Line
	6150 2200 6150 2100
Wire Wire Line
	6150 2100 6250 2100
Wire Wire Line
	7950 2200 7950 2100
Wire Wire Line
	7950 2100 7850 2100
Wire Wire Line
	6050 2000 6250 2000
$Comp
L Device:R R1
U 1 1 5F2B7264
P 5650 2250
F 0 "R1" H 5720 2296 50  0000 L CNN
F 1 "225R" H 5720 2205 50  0000 L CNN
F 2 "Resistor_SMD:R_0805_2012Metric_Pad1.15x1.40mm_HandSolder" V 5580 2250 50  0001 C CNN
F 3 "~" H 5650 2250 50  0001 C CNN
	1    5650 2250
	1    0    0    -1  
$EndComp
$Comp
L power:GND #PWR0104
U 1 1 5F2B7D21
P 5650 2500
F 0 "#PWR0104" H 5650 2250 50  0001 C CNN
F 1 "GND" H 5655 2327 50  0000 C CNN
F 2 "" H 5650 2500 50  0001 C CNN
F 3 "" H 5650 2500 50  0001 C CNN
	1    5650 2500
	1    0    0    -1  
$EndComp
Wire Wire Line
	5650 2500 5650 2400
Wire Wire Line
	5650 2100 5650 2000
Wire Wire Line
	5650 2000 5750 2000
Wire Wire Line
	4750 2000 5650 2000
Connection ~ 5650 2000
$Comp
L Device:C C2
U 1 1 5F2B999B
P 5450 1250
F 0 "C2" H 5565 1296 50  0000 L CNN
F 1 "0.01u" H 5565 1205 50  0000 L CNN
F 2 "Capacitor_SMD:C_0805_2012Metric_Pad1.15x1.40mm_HandSolder" H 5488 1100 50  0001 C CNN
F 3 "~" H 5450 1250 50  0001 C CNN
	1    5450 1250
	1    0    0    -1  
$EndComp
$Comp
L Device:C C3
U 1 1 5F2BA9A1
P 5900 1250
F 0 "C3" H 6015 1296 50  0000 L CNN
F 1 "100p" H 6015 1205 50  0000 L CNN
F 2 "Capacitor_SMD:C_0805_2012Metric_Pad1.15x1.40mm_HandSolder" H 5938 1100 50  0001 C CNN
F 3 "~" H 5900 1250 50  0001 C CNN
	1    5900 1250
	1    0    0    -1  
$EndComp
$Comp
L power:GND #PWR0105
U 1 1 5F2BBAC3
P 5450 1400
F 0 "#PWR0105" H 5450 1150 50  0001 C CNN
F 1 "GND" H 5455 1227 50  0000 C CNN
F 2 "" H 5450 1400 50  0001 C CNN
F 3 "" H 5450 1400 50  0001 C CNN
	1    5450 1400
	1    0    0    -1  
$EndComp
$Comp
L power:GND #PWR0106
U 1 1 5F2BBFD8
P 5900 1400
F 0 "#PWR0106" H 5900 1150 50  0001 C CNN
F 1 "GND" H 5905 1227 50  0000 C CNN
F 2 "" H 5900 1400 50  0001 C CNN
F 3 "" H 5900 1400 50  0001 C CNN
	1    5900 1400
	1    0    0    -1  
$EndComp
Wire Wire Line
	5450 1100 5900 1100
Connection ~ 5900 1100
Wire Wire Line
	5900 1100 6250 1100
$Comp
L Device:C C4
U 1 1 5F2C058C
P 7050 1100
F 0 "C4" V 6798 1100 50  0000 C CNN
F 1 "6.8n" V 6889 1100 50  0000 C CNN
F 2 "Capacitor_SMD:C_0805_2012Metric_Pad1.15x1.40mm_HandSolder" H 7088 950 50  0001 C CNN
F 3 "~" H 7050 1100 50  0001 C CNN
	1    7050 1100
	0    1    1    0   
$EndComp
Wire Wire Line
	7850 2000 8050 2000
Wire Wire Line
	8050 1100 7200 1100
Wire Wire Line
	6900 1100 6250 1100
Connection ~ 6250 1100
Wire Wire Line
	6250 1100 6250 1800
Wire Wire Line
	8050 2000 8050 1100
$Comp
L Device:C C5
U 1 1 5F2CFFDA
P 8650 2150
F 0 "C5" H 8765 2196 50  0000 L CNN
F 1 "C" H 8765 2105 50  0000 L CNN
F 2 "Capacitor_SMD:C_0805_2012Metric_Pad1.15x1.40mm_HandSolder" H 8688 2000 50  0001 C CNN
F 3 "~" H 8650 2150 50  0001 C CNN
	1    8650 2150
	1    0    0    -1  
$EndComp
$Comp
L Device:R R2
U 1 1 5F2D0AEA
P 8400 1900
F 0 "R2" V 8193 1900 50  0000 C CNN
F 1 "R" V 8284 1900 50  0000 C CNN
F 2 "Resistor_SMD:R_0805_2012Metric_Pad1.15x1.40mm_HandSolder" V 8330 1900 50  0001 C CNN
F 3 "~" H 8400 1900 50  0001 C CNN
	1    8400 1900
	0    1    1    0   
$EndComp
Wire Wire Line
	7850 1900 8250 1900
$Comp
L power:GND #PWR0108
U 1 1 5F2D1B38
P 8650 2300
F 0 "#PWR0108" H 8650 2050 50  0001 C CNN
F 1 "GND" H 8655 2127 50  0000 C CNN
F 2 "" H 8650 2300 50  0001 C CNN
F 3 "" H 8650 2300 50  0001 C CNN
	1    8650 2300
	1    0    0    -1  
$EndComp
$Comp
L Connector:Conn_Coaxial J2
U 1 1 5F2D232B
P 9100 1900
F 0 "J2" H 9200 1875 50  0000 L CNN
F 1 "Conn_Coaxial" H 9200 1784 50  0000 L CNN
F 2 "Connector_Coaxial:SMA_Molex_73251-2200_Horizontal" H 9100 1900 50  0001 C CNN
F 3 " ~" H 9100 1900 50  0001 C CNN
	1    9100 1900
	1    0    0    -1  
$EndComp
Wire Wire Line
	8550 1900 8650 1900
Wire Wire Line
	8650 2000 8650 1900
Connection ~ 8650 1900
Wire Wire Line
	8650 1900 8900 1900
$Comp
L power:GND #PWR0109
U 1 1 5F2D360F
P 9100 2200
F 0 "#PWR0109" H 9100 1950 50  0001 C CNN
F 1 "GND" H 9105 2027 50  0000 C CNN
F 2 "" H 9100 2200 50  0001 C CNN
F 3 "" H 9100 2200 50  0001 C CNN
	1    9100 2200
	1    0    0    -1  
$EndComp
Wire Wire Line
	9100 2200 9100 2100
$Comp
L power:GND #PWR0110
U 1 1 5F2D3FF9
P 8150 2200
F 0 "#PWR0110" H 8150 1950 50  0001 C CNN
F 1 "GND" H 8155 2027 50  0000 C CNN
F 2 "" H 8150 2200 50  0001 C CNN
F 3 "" H 8150 2200 50  0001 C CNN
	1    8150 2200
	1    0    0    -1  
$EndComp
Wire Wire Line
	8150 2200 8150 1800
Wire Wire Line
	8150 1800 7850 1800
$Comp
L Device:R R_p2
U 1 1 5F2D7729
P 5100 2350
F 0 "R_p2" H 5170 2396 50  0000 L CNN
F 1 "1R" H 5170 2305 50  0000 L CNN
F 2 "Resistor_SMD:R_2512_6332Metric_Pad1.52x3.35mm_HandSolder" V 5030 2350 50  0001 C CNN
F 3 "https://uk.rs-online.com/web/p/surface-mount-fixed-resistors/7216274/" H 5100 2350 50  0001 C CNN
	1    5100 2350
	1    0    0    -1  
$EndComp
Wire Wire Line
	4750 2200 5100 2200
Wire Wire Line
	4750 2500 4900 2500
Wire Wire Line
	4900 2600 4900 2500
Connection ~ 4900 2500
Wire Wire Line
	4900 2500 5100 2500
Wire Wire Line
	4750 2000 4750 2200
Connection ~ 4750 2200
$Comp
L PCB_coil_2-rescue:antenna-RF A4
U 1 1 5F2ECA37
P 4400 2050
F 0 "A4" H 4400 2325 50  0000 C CNN
F 1 "antenna" H 4400 2234 50  0000 C CNN
F 2 "antenna:coil_front_4" H 4400 2000 50  0001 C CNN
F 3 "" H 4400 2000 50  0001 C CNN
	1    4400 2050
	1    0    0    -1  
$EndComp
$Comp
L PCB_coil_2-rescue:antenna-RF A3
U 1 1 5F2EDF94
P 3750 2050
F 0 "A3" H 3750 2325 50  0000 C CNN
F 1 "antenna" H 3750 2234 50  0000 C CNN
F 2 "antenna:coil_front_3" H 3750 2000 50  0001 C CNN
F 3 "" H 3750 2000 50  0001 C CNN
	1    3750 2050
	1    0    0    -1  
$EndComp
$Comp
L PCB_coil_2-rescue:antenna-RF A2
U 1 1 5F2EE900
P 3100 2050
F 0 "A2" H 3100 2325 50  0000 C CNN
F 1 "antenna" H 3100 2234 50  0000 C CNN
F 2 "antenna:coil_front_2" H 3100 2000 50  0001 C CNN
F 3 "" H 3100 2000 50  0001 C CNN
	1    3100 2050
	1    0    0    -1  
$EndComp
$Comp
L PCB_coil_2-rescue:antenna-RF A1
U 1 1 5F2EF06C
P 2450 2050
F 0 "A1" H 2450 2325 50  0000 C CNN
F 1 "antenna" H 2450 2234 50  0000 C CNN
F 2 "antenna:coil_B" H 2450 2000 50  0001 C CNN
F 3 "" H 2450 2000 50  0001 C CNN
	1    2450 2050
	1    0    0    -1  
$EndComp
Wire Wire Line
	4750 2000 4700 2000
Connection ~ 4750 2000
Wire Wire Line
	4100 2000 4050 2000
Wire Wire Line
	3450 2000 3400 2000
Wire Wire Line
	2800 2000 2750 2000
$Comp
L Connector:Conn_Coaxial J1
U 1 1 5F2F578A
P 1850 2000
F 0 "J1" H 1778 2238 50  0000 C CNN
F 1 "Conn_Coaxial" H 1778 2147 50  0000 C CNN
F 2 "Connector_Coaxial:SMA_Molex_73251-2200_Horizontal" H 1850 2000 50  0001 C CNN
F 3 " ~" H 1850 2000 50  0001 C CNN
	1    1850 2000
	-1   0    0    -1  
$EndComp
Wire Wire Line
	2050 2000 2150 2000
$Comp
L power:GND #PWR0107
U 1 1 5F2F9D3B
P 1850 2300
F 0 "#PWR0107" H 1850 2050 50  0001 C CNN
F 1 "GND" H 1855 2127 50  0000 C CNN
F 2 "" H 1850 2300 50  0001 C CNN
F 3 "" H 1850 2300 50  0001 C CNN
	1    1850 2300
	1    0    0    -1  
$EndComp
Wire Wire Line
	1850 2200 1850 2300
$Comp
L Connector:Conn_01x02_Male J3
U 1 1 5F2FAD48
P 4500 1100
F 0 "J3" H 4608 1281 50  0000 C CNN
F 1 "Conn_01x02_Male" H 4608 1190 50  0000 C CNN
F 2 "Connector_Molex:Molex_PicoBlade_53261-0271_1x02-1MP_P1.25mm_Horizontal" H 4500 1100 50  0001 C CNN
F 3 "~" H 4500 1100 50  0001 C CNN
	1    4500 1100
	1    0    0    -1  
$EndComp
Wire Wire Line
	4700 1100 5200 1100
Connection ~ 5450 1100
$Comp
L power:GND #PWR0111
U 1 1 5F2FFF5C
P 4700 1300
F 0 "#PWR0111" H 4700 1050 50  0001 C CNN
F 1 "GND" H 4705 1127 50  0000 C CNN
F 2 "" H 4700 1300 50  0001 C CNN
F 3 "" H 4700 1300 50  0001 C CNN
	1    4700 1300
	1    0    0    -1  
$EndComp
Wire Wire Line
	4700 1300 4700 1200
$Comp
L Device:R R_p3
U 1 1 5F2E024B
P 5200 4850
F 0 "R_p3" H 5270 4896 50  0000 L CNN
F 1 "1R" H 5270 4805 50  0000 L CNN
F 2 "Resistor_SMD:R_2512_6332Metric_Pad1.52x3.35mm_HandSolder" V 5130 4850 50  0001 C CNN
F 3 "https://uk.rs-online.com/web/p/surface-mount-fixed-resistors/7216274/" H 5200 4850 50  0001 C CNN
	1    5200 4850
	1    0    0    -1  
$EndComp
$Comp
L power:GND #PWR0112
U 1 1 5F2E0251
P 5350 5100
F 0 "#PWR0112" H 5350 4850 50  0001 C CNN
F 1 "GND" H 5355 4927 50  0000 C CNN
F 2 "" H 5350 5100 50  0001 C CNN
F 3 "" H 5350 5100 50  0001 C CNN
	1    5350 5100
	1    0    0    -1  
$EndComp
$Comp
L PCB_coil_2-rescue:AD8361ARMZ-RF U2
U 1 1 5F2E0257
P 6700 4300
F 0 "U2" H 7500 4687 60  0000 C CNN
F 1 "AD8361ARMZ" H 7500 4581 60  0000 C CNN
F 2 "ICs:AD8361ARMZ" H 7500 4540 60  0001 C CNN
F 3 "" H 6700 4300 60  0000 C CNN
	1    6700 4300
	1    0    0    -1  
$EndComp
$Comp
L Device:C C6
U 1 1 5F2E025D
P 6350 4500
F 0 "C6" V 6098 4500 50  0000 C CNN
F 1 "1n" V 6189 4500 50  0000 C CNN
F 2 "Capacitor_SMD:C_0805_2012Metric_Pad1.15x1.40mm_HandSolder" H 6388 4350 50  0001 C CNN
F 3 "~" H 6350 4500 50  0001 C CNN
	1    6350 4500
	0    1    1    0   
$EndComp
$Comp
L power:GND #PWR0113
U 1 1 5F2E0263
P 8400 4700
F 0 "#PWR0113" H 8400 4450 50  0001 C CNN
F 1 "GND" H 8405 4527 50  0000 C CNN
F 2 "" H 8400 4700 50  0001 C CNN
F 3 "" H 8400 4700 50  0001 C CNN
	1    8400 4700
	1    0    0    -1  
$EndComp
$Comp
L power:GND #PWR0114
U 1 1 5F2E0269
P 6600 4700
F 0 "#PWR0114" H 6600 4450 50  0001 C CNN
F 1 "GND" H 6605 4527 50  0000 C CNN
F 2 "" H 6600 4700 50  0001 C CNN
F 3 "" H 6600 4700 50  0001 C CNN
	1    6600 4700
	1    0    0    -1  
$EndComp
Wire Wire Line
	6600 4700 6600 4600
Wire Wire Line
	6600 4600 6700 4600
Wire Wire Line
	8400 4700 8400 4600
Wire Wire Line
	8400 4600 8300 4600
Wire Wire Line
	6500 4500 6700 4500
$Comp
L Device:R R3
U 1 1 5F2E0274
P 6100 4750
F 0 "R3" H 6170 4796 50  0000 L CNN
F 1 "225R" H 6170 4705 50  0000 L CNN
F 2 "Resistor_SMD:R_0805_2012Metric_Pad1.15x1.40mm_HandSolder" V 6030 4750 50  0001 C CNN
F 3 "~" H 6100 4750 50  0001 C CNN
	1    6100 4750
	1    0    0    -1  
$EndComp
$Comp
L power:GND #PWR0115
U 1 1 5F2E027A
P 6100 5000
F 0 "#PWR0115" H 6100 4750 50  0001 C CNN
F 1 "GND" H 6105 4827 50  0000 C CNN
F 2 "" H 6100 5000 50  0001 C CNN
F 3 "" H 6100 5000 50  0001 C CNN
	1    6100 5000
	1    0    0    -1  
$EndComp
Wire Wire Line
	6100 5000 6100 4900
Wire Wire Line
	6100 4600 6100 4500
Wire Wire Line
	6100 4500 6200 4500
Wire Wire Line
	5200 4500 6100 4500
Connection ~ 6100 4500
$Comp
L Device:C C7
U 1 1 5F2E0285
P 5900 3750
F 0 "C7" H 6015 3796 50  0000 L CNN
F 1 "0.01u" H 6015 3705 50  0000 L CNN
F 2 "Capacitor_SMD:C_0805_2012Metric_Pad1.15x1.40mm_HandSolder" H 5938 3600 50  0001 C CNN
F 3 "~" H 5900 3750 50  0001 C CNN
	1    5900 3750
	1    0    0    -1  
$EndComp
$Comp
L Device:C C8
U 1 1 5F2E028B
P 6350 3750
F 0 "C8" H 6465 3796 50  0000 L CNN
F 1 "100p" H 6465 3705 50  0000 L CNN
F 2 "Capacitor_SMD:C_0805_2012Metric_Pad1.15x1.40mm_HandSolder" H 6388 3600 50  0001 C CNN
F 3 "~" H 6350 3750 50  0001 C CNN
	1    6350 3750
	1    0    0    -1  
$EndComp
$Comp
L power:GND #PWR0116
U 1 1 5F2E0291
P 5900 3900
F 0 "#PWR0116" H 5900 3650 50  0001 C CNN
F 1 "GND" H 5905 3727 50  0000 C CNN
F 2 "" H 5900 3900 50  0001 C CNN
F 3 "" H 5900 3900 50  0001 C CNN
	1    5900 3900
	1    0    0    -1  
$EndComp
$Comp
L power:GND #PWR0117
U 1 1 5F2E0297
P 6350 3900
F 0 "#PWR0117" H 6350 3650 50  0001 C CNN
F 1 "GND" H 6355 3727 50  0000 C CNN
F 2 "" H 6350 3900 50  0001 C CNN
F 3 "" H 6350 3900 50  0001 C CNN
	1    6350 3900
	1    0    0    -1  
$EndComp
Connection ~ 6350 3600
Wire Wire Line
	6350 3600 6700 3600
$Comp
L Device:C C9
U 1 1 5F2E02A0
P 7500 3600
F 0 "C9" V 7248 3600 50  0000 C CNN
F 1 "6.8n" V 7339 3600 50  0000 C CNN
F 2 "Capacitor_SMD:C_0805_2012Metric_Pad1.15x1.40mm_HandSolder" H 7538 3450 50  0001 C CNN
F 3 "~" H 7500 3600 50  0001 C CNN
	1    7500 3600
	0    1    1    0   
$EndComp
Wire Wire Line
	8300 4500 8500 4500
Wire Wire Line
	8500 3600 7650 3600
Wire Wire Line
	7350 3600 6700 3600
Connection ~ 6700 3600
Wire Wire Line
	6700 3600 6700 4300
Wire Wire Line
	8500 4500 8500 3600
$Comp
L Device:C C10
U 1 1 5F2E02AC
P 9100 4650
F 0 "C10" H 9215 4696 50  0000 L CNN
F 1 "C" H 9215 4605 50  0000 L CNN
F 2 "Capacitor_SMD:C_0805_2012Metric_Pad1.15x1.40mm_HandSolder" H 9138 4500 50  0001 C CNN
F 3 "~" H 9100 4650 50  0001 C CNN
	1    9100 4650
	1    0    0    -1  
$EndComp
$Comp
L Device:R R4
U 1 1 5F2E02B2
P 8850 4400
F 0 "R4" V 8643 4400 50  0000 C CNN
F 1 "R" V 8734 4400 50  0000 C CNN
F 2 "Resistor_SMD:R_0805_2012Metric_Pad1.15x1.40mm_HandSolder" V 8780 4400 50  0001 C CNN
F 3 "~" H 8850 4400 50  0001 C CNN
	1    8850 4400
	0    1    1    0   
$EndComp
Wire Wire Line
	8300 4400 8700 4400
$Comp
L power:GND #PWR0118
U 1 1 5F2E02B9
P 9100 4800
F 0 "#PWR0118" H 9100 4550 50  0001 C CNN
F 1 "GND" H 9105 4627 50  0000 C CNN
F 2 "" H 9100 4800 50  0001 C CNN
F 3 "" H 9100 4800 50  0001 C CNN
	1    9100 4800
	1    0    0    -1  
$EndComp
$Comp
L Connector:Conn_Coaxial J5
U 1 1 5F2E02BF
P 9550 4400
F 0 "J5" H 9650 4375 50  0000 L CNN
F 1 "Conn_Coaxial" H 9650 4284 50  0000 L CNN
F 2 "Connector_Coaxial:SMA_Molex_73251-2200_Horizontal" H 9550 4400 50  0001 C CNN
F 3 " ~" H 9550 4400 50  0001 C CNN
	1    9550 4400
	1    0    0    -1  
$EndComp
Wire Wire Line
	9000 4400 9100 4400
Wire Wire Line
	9100 4500 9100 4400
Connection ~ 9100 4400
Wire Wire Line
	9100 4400 9350 4400
$Comp
L power:GND #PWR0119
U 1 1 5F2E02C9
P 9550 4700
F 0 "#PWR0119" H 9550 4450 50  0001 C CNN
F 1 "GND" H 9555 4527 50  0000 C CNN
F 2 "" H 9550 4700 50  0001 C CNN
F 3 "" H 9550 4700 50  0001 C CNN
	1    9550 4700
	1    0    0    -1  
$EndComp
Wire Wire Line
	9550 4700 9550 4600
$Comp
L power:GND #PWR0120
U 1 1 5F2E02D0
P 8600 4700
F 0 "#PWR0120" H 8600 4450 50  0001 C CNN
F 1 "GND" H 8605 4527 50  0000 C CNN
F 2 "" H 8600 4700 50  0001 C CNN
F 3 "" H 8600 4700 50  0001 C CNN
	1    8600 4700
	1    0    0    -1  
$EndComp
Wire Wire Line
	8600 4700 8600 4300
Wire Wire Line
	8600 4300 8300 4300
$Comp
L Device:R R_p4
U 1 1 5F2E02D8
P 5550 4850
F 0 "R_p4" H 5620 4896 50  0000 L CNN
F 1 "1R" H 5620 4805 50  0000 L CNN
F 2 "Resistor_SMD:R_2512_6332Metric_Pad1.52x3.35mm_HandSolder" V 5480 4850 50  0001 C CNN
F 3 "https://uk.rs-online.com/web/p/surface-mount-fixed-resistors/7216274/" H 5550 4850 50  0001 C CNN
	1    5550 4850
	1    0    0    -1  
$EndComp
Wire Wire Line
	5200 4700 5550 4700
Wire Wire Line
	5200 5000 5350 5000
Wire Wire Line
	5350 5100 5350 5000
Connection ~ 5350 5000
Wire Wire Line
	5350 5000 5550 5000
Wire Wire Line
	5200 4500 5200 4700
Connection ~ 5200 4700
$Comp
L PCB_coil_2-rescue:antenna-RF A8
U 1 1 5F2E02E5
P 4850 4550
F 0 "A8" H 4850 4825 50  0000 C CNN
F 1 "antenna" H 4850 4734 50  0000 C CNN
F 2 "antenna:coil_back_4" H 4850 4500 50  0001 C CNN
F 3 "" H 4850 4500 50  0001 C CNN
	1    4850 4550
	1    0    0    -1  
$EndComp
$Comp
L PCB_coil_2-rescue:antenna-RF A7
U 1 1 5F2E02EB
P 4200 4550
F 0 "A7" H 4200 4825 50  0000 C CNN
F 1 "antenna" H 4200 4734 50  0000 C CNN
F 2 "antenna:coil_back_3" H 4200 4500 50  0001 C CNN
F 3 "" H 4200 4500 50  0001 C CNN
	1    4200 4550
	1    0    0    -1  
$EndComp
$Comp
L PCB_coil_2-rescue:antenna-RF A6
U 1 1 5F2E02F1
P 3550 4550
F 0 "A6" H 3550 4825 50  0000 C CNN
F 1 "antenna" H 3550 4734 50  0000 C CNN
F 2 "antenna:coil_back_2" H 3550 4500 50  0001 C CNN
F 3 "" H 3550 4500 50  0001 C CNN
	1    3550 4550
	1    0    0    -1  
$EndComp
$Comp
L PCB_coil_2-rescue:antenna-RF A5
U 1 1 5F2E02F7
P 2900 4550
F 0 "A5" H 2900 4825 50  0000 C CNN
F 1 "antenna" H 2900 4734 50  0000 C CNN
F 2 "antenna:coil_back_1" H 2900 4500 50  0001 C CNN
F 3 "" H 2900 4500 50  0001 C CNN
	1    2900 4550
	1    0    0    -1  
$EndComp
Wire Wire Line
	5200 4500 5150 4500
Connection ~ 5200 4500
Wire Wire Line
	4550 4500 4500 4500
Wire Wire Line
	3900 4500 3850 4500
Wire Wire Line
	3250 4500 3200 4500
$Comp
L Connector:Conn_Coaxial J4
U 1 1 5F2E0302
P 2300 4500
F 0 "J4" H 2228 4738 50  0000 C CNN
F 1 "Conn_Coaxial" H 2228 4647 50  0000 C CNN
F 2 "Connector_Coaxial:SMA_Molex_73251-2200_Horizontal" H 2300 4500 50  0001 C CNN
F 3 " ~" H 2300 4500 50  0001 C CNN
	1    2300 4500
	-1   0    0    -1  
$EndComp
Wire Wire Line
	2500 4500 2600 4500
$Comp
L power:GND #PWR0121
U 1 1 5F2E0309
P 2300 4800
F 0 "#PWR0121" H 2300 4550 50  0001 C CNN
F 1 "GND" H 2305 4627 50  0000 C CNN
F 2 "" H 2300 4800 50  0001 C CNN
F 3 "" H 2300 4800 50  0001 C CNN
	1    2300 4800
	1    0    0    -1  
$EndComp
Wire Wire Line
	2300 4700 2300 4800
Wire Wire Line
	5900 3600 6150 3600
Wire Wire Line
	6150 3000 6150 3600
Connection ~ 6150 3600
Wire Wire Line
	6150 3600 6350 3600
Wire Wire Line
	5200 1100 5200 1850
Wire Wire Line
	5200 1850 5450 1850
Wire Wire Line
	5450 1850 5450 3000
Wire Wire Line
	5450 3000 6150 3000
Connection ~ 5200 1100
Wire Wire Line
	5200 1100 5450 1100
$EndSCHEMATC
