G04 #@! TF.GenerationSoftware,KiCad,Pcbnew,(5.1.0)-1*
G04 #@! TF.CreationDate,2020-09-17T18:32:08+01:00*
G04 #@! TF.ProjectId,single_coil,73696e67-6c65-45f6-936f-696c2e6b6963,rev?*
G04 #@! TF.SameCoordinates,Original*
G04 #@! TF.FileFunction,Profile,NP*
%FSLAX46Y46*%
G04 Gerber Fmt 4.6, Leading zero omitted, Abs format (unit mm)*
G04 Created by KiCad (PCBNEW (5.1.0)-1) date 2020-09-17 18:32:08*
%MOMM*%
%LPD*%
G04 APERTURE LIST*
%ADD10C,0.100000*%
G04 APERTURE END LIST*
D10*
X117000000Y-61400000D02*
X117000000Y-160400000D01*
X117000000Y-160400000D02*
X215000000Y-160400000D01*
X215000000Y-160400000D02*
X215000000Y-79400000D01*
X215000000Y-79400000D02*
X215000000Y-61400000D01*
X215000000Y-61400000D02*
X117000000Y-61400000D01*
M02*
