(module AD8361ARMZ (layer F.Cu) (tedit 0)
  (fp_text reference REF** (at 0 0) (layer F.SilkS)
    (effects (font (size 1 1) (thickness 0.15)))
  )
  (fp_text value RM_8_ADI (at 0 0) (layer F.SilkS)
    (effects (font (size 1 1) (thickness 0.15)))
  )
  (fp_arc (start 0 -1.6002) (end 0.3048 -1.6002) (angle 180) (layer F.Fab) (width 0.1524))
  (fp_line (start -1.8542 1.4445) (end -3.182099 1.4445) (layer F.CrtYd) (width 0.1524))
  (fp_line (start -1.8542 1.8542) (end -1.8542 1.4445) (layer F.CrtYd) (width 0.1524))
  (fp_line (start 1.8542 1.8542) (end -1.8542 1.8542) (layer F.CrtYd) (width 0.1524))
  (fp_line (start 1.8542 1.4445) (end 1.8542 1.8542) (layer F.CrtYd) (width 0.1524))
  (fp_line (start 3.182099 1.4445) (end 1.8542 1.4445) (layer F.CrtYd) (width 0.1524))
  (fp_line (start 3.182099 -1.4445) (end 3.182099 1.4445) (layer F.CrtYd) (width 0.1524))
  (fp_line (start 1.8542 -1.4445) (end 3.182099 -1.4445) (layer F.CrtYd) (width 0.1524))
  (fp_line (start 1.8542 -1.8542) (end 1.8542 -1.4445) (layer F.CrtYd) (width 0.1524))
  (fp_line (start -1.8542 -1.8542) (end 1.8542 -1.8542) (layer F.CrtYd) (width 0.1524))
  (fp_line (start -1.8542 -1.4445) (end -1.8542 -1.8542) (layer F.CrtYd) (width 0.1524))
  (fp_line (start -3.182099 -1.4445) (end -1.8542 -1.4445) (layer F.CrtYd) (width 0.1524))
  (fp_line (start -3.182099 1.4445) (end -3.182099 -1.4445) (layer F.CrtYd) (width 0.1524))
  (fp_line (start 1.7272 -1.523239) (end 1.7272 -1.7272) (layer F.SilkS) (width 0.1524))
  (fp_line (start -1.7272 1.523239) (end -1.7272 1.7272) (layer F.SilkS) (width 0.1524))
  (fp_line (start -1.6002 -1.6002) (end -1.6002 1.6002) (layer F.Fab) (width 0.1524))
  (fp_line (start 1.6002 -1.6002) (end -1.6002 -1.6002) (layer F.Fab) (width 0.1524))
  (fp_line (start 1.6002 1.6002) (end 1.6002 -1.6002) (layer F.Fab) (width 0.1524))
  (fp_line (start -1.6002 1.6002) (end 1.6002 1.6002) (layer F.Fab) (width 0.1524))
  (fp_line (start -1.7272 -1.7272) (end -1.7272 -1.523239) (layer F.SilkS) (width 0.1524))
  (fp_line (start 1.7272 -1.7272) (end -1.7272 -1.7272) (layer F.SilkS) (width 0.1524))
  (fp_line (start 1.7272 1.7272) (end 1.7272 1.523239) (layer F.SilkS) (width 0.1524))
  (fp_line (start -1.7272 1.7272) (end 1.7272 1.7272) (layer F.SilkS) (width 0.1524))
  (fp_line (start 2.5781 -1.1655) (end 1.6002 -1.1655) (layer F.Fab) (width 0.1524))
  (fp_line (start 2.5781 -0.7845) (end 2.5781 -1.1655) (layer F.Fab) (width 0.1524))
  (fp_line (start 1.6002 -0.7845) (end 2.5781 -0.7845) (layer F.Fab) (width 0.1524))
  (fp_line (start 1.6002 -1.1655) (end 1.6002 -0.7845) (layer F.Fab) (width 0.1524))
  (fp_line (start 2.5781 -0.5155) (end 1.6002 -0.5155) (layer F.Fab) (width 0.1524))
  (fp_line (start 2.5781 -0.1345) (end 2.5781 -0.5155) (layer F.Fab) (width 0.1524))
  (fp_line (start 1.6002 -0.1345) (end 2.5781 -0.1345) (layer F.Fab) (width 0.1524))
  (fp_line (start 1.6002 -0.5155) (end 1.6002 -0.1345) (layer F.Fab) (width 0.1524))
  (fp_line (start 2.5781 0.1345) (end 1.6002 0.1345) (layer F.Fab) (width 0.1524))
  (fp_line (start 2.5781 0.5155) (end 2.5781 0.1345) (layer F.Fab) (width 0.1524))
  (fp_line (start 1.6002 0.5155) (end 2.5781 0.5155) (layer F.Fab) (width 0.1524))
  (fp_line (start 1.6002 0.1345) (end 1.6002 0.5155) (layer F.Fab) (width 0.1524))
  (fp_line (start 2.5781 0.7845) (end 1.6002 0.7845) (layer F.Fab) (width 0.1524))
  (fp_line (start 2.5781 1.1655) (end 2.5781 0.7845) (layer F.Fab) (width 0.1524))
  (fp_line (start 1.6002 1.1655) (end 2.5781 1.1655) (layer F.Fab) (width 0.1524))
  (fp_line (start 1.6002 0.7845) (end 1.6002 1.1655) (layer F.Fab) (width 0.1524))
  (fp_line (start -2.5781 1.1655) (end -1.6002 1.1655) (layer F.Fab) (width 0.1524))
  (fp_line (start -2.5781 0.7845) (end -2.5781 1.1655) (layer F.Fab) (width 0.1524))
  (fp_line (start -1.6002 0.7845) (end -2.5781 0.7845) (layer F.Fab) (width 0.1524))
  (fp_line (start -1.6002 1.1655) (end -1.6002 0.7845) (layer F.Fab) (width 0.1524))
  (fp_line (start -2.5781 0.5155) (end -1.6002 0.5155) (layer F.Fab) (width 0.1524))
  (fp_line (start -2.5781 0.1345) (end -2.5781 0.5155) (layer F.Fab) (width 0.1524))
  (fp_line (start -1.6002 0.1345) (end -2.5781 0.1345) (layer F.Fab) (width 0.1524))
  (fp_line (start -1.6002 0.5155) (end -1.6002 0.1345) (layer F.Fab) (width 0.1524))
  (fp_line (start -2.5781 -0.1345) (end -1.6002 -0.1345) (layer F.Fab) (width 0.1524))
  (fp_line (start -2.5781 -0.5155) (end -2.5781 -0.1345) (layer F.Fab) (width 0.1524))
  (fp_line (start -1.6002 -0.5155) (end -2.5781 -0.5155) (layer F.Fab) (width 0.1524))
  (fp_line (start -1.6002 -0.1345) (end -1.6002 -0.5155) (layer F.Fab) (width 0.1524))
  (fp_line (start -2.5781 -0.7845) (end -1.6002 -0.7845) (layer F.Fab) (width 0.1524))
  (fp_line (start -2.5781 -1.1655) (end -2.5781 -0.7845) (layer F.Fab) (width 0.1524))
  (fp_line (start -1.6002 -1.1655) (end -2.5781 -1.1655) (layer F.Fab) (width 0.1524))
  (fp_line (start -1.6002 -0.7845) (end -1.6002 -1.1655) (layer F.Fab) (width 0.1524))
  (fp_text user * (at -1.2192 -1.524) (layer F.Fab)
    (effects (font (size 1 1) (thickness 0.15)))
  )
  (fp_text user * (at -2.4257 -2.549) (layer F.SilkS)
    (effects (font (size 1 1) (thickness 0.15)))
  )
  (fp_text user 0.06in/1.513mm (at -2.1717 4.0132) (layer Dwgs.User)
    (effects (font (size 1 1) (thickness 0.15)))
  )
  (fp_text user 0.171in/4.343mm (at 0 -4.0132) (layer Dwgs.User)
    (effects (font (size 1 1) (thickness 0.15)))
  )
  (fp_text user 0.017in/0.431mm (at 5.2197 -0.975) (layer Dwgs.User)
    (effects (font (size 1 1) (thickness 0.15)))
  )
  (fp_text user 0.026in/0.65mm (at -5.2197 -0.65) (layer Dwgs.User)
    (effects (font (size 1 1) (thickness 0.15)))
  )
  (fp_text user * (at -1.2192 -1.524) (layer F.Fab)
    (effects (font (size 1 1) (thickness 0.15)))
  )
  (fp_text user * (at -2.4257 -2.549) (layer F.SilkS)
    (effects (font (size 1 1) (thickness 0.15)))
  )
  (fp_text user "Copyright 2016 Accelerated Designs. All rights reserved." (at 0 0) (layer Cmts.User)
    (effects (font (size 0.127 0.127) (thickness 0.002)))
  )
  (pad 8 smd rect (at 2.1717 -0.974999) (size 1.512799 0.431) (layers F.Cu F.Paste F.Mask))
  (pad 7 smd rect (at 2.1717 -0.325001) (size 1.512799 0.431) (layers F.Cu F.Paste F.Mask))
  (pad 6 smd rect (at 2.1717 0.325001) (size 1.512799 0.431) (layers F.Cu F.Paste F.Mask))
  (pad 5 smd rect (at 2.1717 0.974999) (size 1.512799 0.431) (layers F.Cu F.Paste F.Mask))
  (pad 4 smd rect (at -2.1717 0.974999) (size 1.512799 0.431) (layers F.Cu F.Paste F.Mask))
  (pad 3 smd rect (at -2.1717 0.325001) (size 1.512799 0.431) (layers F.Cu F.Paste F.Mask))
  (pad 2 smd rect (at -2.1717 -0.325001) (size 1.512799 0.431) (layers F.Cu F.Paste F.Mask))
  (pad 1 smd rect (at -2.1717 -0.974999) (size 1.512799 0.431) (layers F.Cu F.Paste F.Mask))
)
