G04 #@! TF.GenerationSoftware,KiCad,Pcbnew,(5.1.0)-1*
G04 #@! TF.CreationDate,2021-06-03T15:28:15+01:00*
G04 #@! TF.ProjectId,single_coil,73696e67-6c65-45f6-936f-696c2e6b6963,rev?*
G04 #@! TF.SameCoordinates,Original*
G04 #@! TF.FileFunction,Soldermask,Bot*
G04 #@! TF.FilePolarity,Negative*
%FSLAX46Y46*%
G04 Gerber Fmt 4.6, Leading zero omitted, Abs format (unit mm)*
G04 Created by KiCad (PCBNEW (5.1.0)-1) date 2021-06-03 15:28:15*
%MOMM*%
%LPD*%
G04 APERTURE LIST*
%ADD10C,0.100000*%
G04 APERTURE END LIST*
D10*
G36*
X156812194Y-178713035D02*
G01*
X156908382Y-178752878D01*
X157044413Y-178809223D01*
X157253403Y-178948866D01*
X157431134Y-179126597D01*
X157570777Y-179335587D01*
X157627122Y-179471618D01*
X157666965Y-179567806D01*
X157716000Y-179814324D01*
X157716000Y-180065676D01*
X157666965Y-180312194D01*
X157627122Y-180408382D01*
X157570777Y-180544413D01*
X157431134Y-180753403D01*
X157253403Y-180931134D01*
X157044413Y-181070777D01*
X156908382Y-181127122D01*
X156812194Y-181166965D01*
X156565676Y-181216000D01*
X156314324Y-181216000D01*
X156067806Y-181166965D01*
X155971618Y-181127122D01*
X155835587Y-181070777D01*
X155626597Y-180931134D01*
X155448866Y-180753403D01*
X155309223Y-180544413D01*
X155252878Y-180408382D01*
X155213035Y-180312194D01*
X155164000Y-180065676D01*
X155164000Y-179814324D01*
X155213035Y-179567806D01*
X155252878Y-179471618D01*
X155309223Y-179335587D01*
X155448866Y-179126597D01*
X155626597Y-178948866D01*
X155835587Y-178809223D01*
X155971618Y-178752878D01*
X156067806Y-178713035D01*
X156314324Y-178664000D01*
X156565676Y-178664000D01*
X156812194Y-178713035D01*
X156812194Y-178713035D01*
G37*
G36*
X151732194Y-178713035D02*
G01*
X151828382Y-178752878D01*
X151964413Y-178809223D01*
X152173403Y-178948866D01*
X152351134Y-179126597D01*
X152490777Y-179335587D01*
X152547122Y-179471618D01*
X152586965Y-179567806D01*
X152636000Y-179814324D01*
X152636000Y-180065676D01*
X152586965Y-180312194D01*
X152547122Y-180408382D01*
X152490777Y-180544413D01*
X152351134Y-180753403D01*
X152173403Y-180931134D01*
X151964413Y-181070777D01*
X151828382Y-181127122D01*
X151732194Y-181166965D01*
X151485676Y-181216000D01*
X151234324Y-181216000D01*
X150987806Y-181166965D01*
X150891618Y-181127122D01*
X150755587Y-181070777D01*
X150546597Y-180931134D01*
X150368866Y-180753403D01*
X150229223Y-180544413D01*
X150172878Y-180408382D01*
X150133035Y-180312194D01*
X150084000Y-180065676D01*
X150084000Y-179814324D01*
X150133035Y-179567806D01*
X150172878Y-179471618D01*
X150229223Y-179335587D01*
X150368866Y-179126597D01*
X150546597Y-178948866D01*
X150755587Y-178809223D01*
X150891618Y-178752878D01*
X150987806Y-178713035D01*
X151234324Y-178664000D01*
X151485676Y-178664000D01*
X151732194Y-178713035D01*
X151732194Y-178713035D01*
G37*
G36*
X185662194Y-178713035D02*
G01*
X185758382Y-178752878D01*
X185894413Y-178809223D01*
X186103403Y-178948866D01*
X186281134Y-179126597D01*
X186420777Y-179335587D01*
X186477122Y-179471618D01*
X186516965Y-179567806D01*
X186566000Y-179814324D01*
X186566000Y-180065676D01*
X186516965Y-180312194D01*
X186477122Y-180408382D01*
X186420777Y-180544413D01*
X186281134Y-180753403D01*
X186103403Y-180931134D01*
X185894413Y-181070777D01*
X185758382Y-181127122D01*
X185662194Y-181166965D01*
X185415676Y-181216000D01*
X185164324Y-181216000D01*
X184917806Y-181166965D01*
X184821618Y-181127122D01*
X184685587Y-181070777D01*
X184476597Y-180931134D01*
X184298866Y-180753403D01*
X184159223Y-180544413D01*
X184102878Y-180408382D01*
X184063035Y-180312194D01*
X184014000Y-180065676D01*
X184014000Y-179814324D01*
X184063035Y-179567806D01*
X184102878Y-179471618D01*
X184159223Y-179335587D01*
X184298866Y-179126597D01*
X184476597Y-178948866D01*
X184685587Y-178809223D01*
X184821618Y-178752878D01*
X184917806Y-178713035D01*
X185164324Y-178664000D01*
X185415676Y-178664000D01*
X185662194Y-178713035D01*
X185662194Y-178713035D01*
G37*
G36*
X180582194Y-178713035D02*
G01*
X180678382Y-178752878D01*
X180814413Y-178809223D01*
X181023403Y-178948866D01*
X181201134Y-179126597D01*
X181340777Y-179335587D01*
X181397122Y-179471618D01*
X181436965Y-179567806D01*
X181486000Y-179814324D01*
X181486000Y-180065676D01*
X181436965Y-180312194D01*
X181397122Y-180408382D01*
X181340777Y-180544413D01*
X181201134Y-180753403D01*
X181023403Y-180931134D01*
X180814413Y-181070777D01*
X180678382Y-181127122D01*
X180582194Y-181166965D01*
X180335676Y-181216000D01*
X180084324Y-181216000D01*
X179837806Y-181166965D01*
X179741618Y-181127122D01*
X179605587Y-181070777D01*
X179396597Y-180931134D01*
X179218866Y-180753403D01*
X179079223Y-180544413D01*
X179022878Y-180408382D01*
X178983035Y-180312194D01*
X178934000Y-180065676D01*
X178934000Y-179814324D01*
X178983035Y-179567806D01*
X179022878Y-179471618D01*
X179079223Y-179335587D01*
X179218866Y-179126597D01*
X179396597Y-178948866D01*
X179605587Y-178809223D01*
X179741618Y-178752878D01*
X179837806Y-178713035D01*
X180084324Y-178664000D01*
X180335676Y-178664000D01*
X180582194Y-178713035D01*
X180582194Y-178713035D01*
G37*
G36*
X170162194Y-178713035D02*
G01*
X170258382Y-178752878D01*
X170394413Y-178809223D01*
X170603403Y-178948866D01*
X170781134Y-179126597D01*
X170920777Y-179335587D01*
X170977122Y-179471618D01*
X171016965Y-179567806D01*
X171066000Y-179814324D01*
X171066000Y-180065676D01*
X171016965Y-180312194D01*
X170977122Y-180408382D01*
X170920777Y-180544413D01*
X170781134Y-180753403D01*
X170603403Y-180931134D01*
X170394413Y-181070777D01*
X170258382Y-181127122D01*
X170162194Y-181166965D01*
X169915676Y-181216000D01*
X169664324Y-181216000D01*
X169417806Y-181166965D01*
X169321618Y-181127122D01*
X169185587Y-181070777D01*
X168976597Y-180931134D01*
X168798866Y-180753403D01*
X168659223Y-180544413D01*
X168602878Y-180408382D01*
X168563035Y-180312194D01*
X168514000Y-180065676D01*
X168514000Y-179814324D01*
X168563035Y-179567806D01*
X168602878Y-179471618D01*
X168659223Y-179335587D01*
X168798866Y-179126597D01*
X168976597Y-178948866D01*
X169185587Y-178809223D01*
X169321618Y-178752878D01*
X169417806Y-178713035D01*
X169664324Y-178664000D01*
X169915676Y-178664000D01*
X170162194Y-178713035D01*
X170162194Y-178713035D01*
G37*
G36*
X165082194Y-178713035D02*
G01*
X165178382Y-178752878D01*
X165314413Y-178809223D01*
X165523403Y-178948866D01*
X165701134Y-179126597D01*
X165840777Y-179335587D01*
X165897122Y-179471618D01*
X165936965Y-179567806D01*
X165986000Y-179814324D01*
X165986000Y-180065676D01*
X165936965Y-180312194D01*
X165897122Y-180408382D01*
X165840777Y-180544413D01*
X165701134Y-180753403D01*
X165523403Y-180931134D01*
X165314413Y-181070777D01*
X165178382Y-181127122D01*
X165082194Y-181166965D01*
X164835676Y-181216000D01*
X164584324Y-181216000D01*
X164337806Y-181166965D01*
X164241618Y-181127122D01*
X164105587Y-181070777D01*
X163896597Y-180931134D01*
X163718866Y-180753403D01*
X163579223Y-180544413D01*
X163522878Y-180408382D01*
X163483035Y-180312194D01*
X163434000Y-180065676D01*
X163434000Y-179814324D01*
X163483035Y-179567806D01*
X163522878Y-179471618D01*
X163579223Y-179335587D01*
X163718866Y-179126597D01*
X163896597Y-178948866D01*
X164105587Y-178809223D01*
X164241618Y-178752878D01*
X164337806Y-178713035D01*
X164584324Y-178664000D01*
X164835676Y-178664000D01*
X165082194Y-178713035D01*
X165082194Y-178713035D01*
G37*
G36*
X199012194Y-178713035D02*
G01*
X199108382Y-178752878D01*
X199244413Y-178809223D01*
X199453403Y-178948866D01*
X199631134Y-179126597D01*
X199770777Y-179335587D01*
X199827122Y-179471618D01*
X199866965Y-179567806D01*
X199916000Y-179814324D01*
X199916000Y-180065676D01*
X199866965Y-180312194D01*
X199827122Y-180408382D01*
X199770777Y-180544413D01*
X199631134Y-180753403D01*
X199453403Y-180931134D01*
X199244413Y-181070777D01*
X199108382Y-181127122D01*
X199012194Y-181166965D01*
X198765676Y-181216000D01*
X198514324Y-181216000D01*
X198267806Y-181166965D01*
X198171618Y-181127122D01*
X198035587Y-181070777D01*
X197826597Y-180931134D01*
X197648866Y-180753403D01*
X197509223Y-180544413D01*
X197452878Y-180408382D01*
X197413035Y-180312194D01*
X197364000Y-180065676D01*
X197364000Y-179814324D01*
X197413035Y-179567806D01*
X197452878Y-179471618D01*
X197509223Y-179335587D01*
X197648866Y-179126597D01*
X197826597Y-178948866D01*
X198035587Y-178809223D01*
X198171618Y-178752878D01*
X198267806Y-178713035D01*
X198514324Y-178664000D01*
X198765676Y-178664000D01*
X199012194Y-178713035D01*
X199012194Y-178713035D01*
G37*
G36*
X193932194Y-178713035D02*
G01*
X194028382Y-178752878D01*
X194164413Y-178809223D01*
X194373403Y-178948866D01*
X194551134Y-179126597D01*
X194690777Y-179335587D01*
X194747122Y-179471618D01*
X194786965Y-179567806D01*
X194836000Y-179814324D01*
X194836000Y-180065676D01*
X194786965Y-180312194D01*
X194747122Y-180408382D01*
X194690777Y-180544413D01*
X194551134Y-180753403D01*
X194373403Y-180931134D01*
X194164413Y-181070777D01*
X194028382Y-181127122D01*
X193932194Y-181166965D01*
X193685676Y-181216000D01*
X193434324Y-181216000D01*
X193187806Y-181166965D01*
X193091618Y-181127122D01*
X192955587Y-181070777D01*
X192746597Y-180931134D01*
X192568866Y-180753403D01*
X192429223Y-180544413D01*
X192372878Y-180408382D01*
X192333035Y-180312194D01*
X192284000Y-180065676D01*
X192284000Y-179814324D01*
X192333035Y-179567806D01*
X192372878Y-179471618D01*
X192429223Y-179335587D01*
X192568866Y-179126597D01*
X192746597Y-178948866D01*
X192955587Y-178809223D01*
X193091618Y-178752878D01*
X193187806Y-178713035D01*
X193434324Y-178664000D01*
X193685676Y-178664000D01*
X193932194Y-178713035D01*
X193932194Y-178713035D01*
G37*
G36*
X196291560Y-176239064D02*
G01*
X196443027Y-176269193D01*
X196657045Y-176357842D01*
X196657046Y-176357843D01*
X196849654Y-176486539D01*
X197013461Y-176650346D01*
X197099258Y-176778751D01*
X197142158Y-176842955D01*
X197230807Y-177056973D01*
X197276000Y-177284174D01*
X197276000Y-177515826D01*
X197230807Y-177743027D01*
X197142158Y-177957045D01*
X197142157Y-177957046D01*
X197013461Y-178149654D01*
X196849654Y-178313461D01*
X196721249Y-178399258D01*
X196657045Y-178442158D01*
X196443027Y-178530807D01*
X196291560Y-178560936D01*
X196215827Y-178576000D01*
X195984173Y-178576000D01*
X195908440Y-178560936D01*
X195756973Y-178530807D01*
X195542955Y-178442158D01*
X195478751Y-178399258D01*
X195350346Y-178313461D01*
X195186539Y-178149654D01*
X195057843Y-177957046D01*
X195057842Y-177957045D01*
X194969193Y-177743027D01*
X194924000Y-177515826D01*
X194924000Y-177284174D01*
X194969193Y-177056973D01*
X195057842Y-176842955D01*
X195100742Y-176778751D01*
X195186539Y-176650346D01*
X195350346Y-176486539D01*
X195542954Y-176357843D01*
X195542955Y-176357842D01*
X195756973Y-176269193D01*
X195908440Y-176239064D01*
X195984173Y-176224000D01*
X196215827Y-176224000D01*
X196291560Y-176239064D01*
X196291560Y-176239064D01*
G37*
G36*
X182941560Y-176239064D02*
G01*
X183093027Y-176269193D01*
X183307045Y-176357842D01*
X183307046Y-176357843D01*
X183499654Y-176486539D01*
X183663461Y-176650346D01*
X183749258Y-176778751D01*
X183792158Y-176842955D01*
X183880807Y-177056973D01*
X183926000Y-177284174D01*
X183926000Y-177515826D01*
X183880807Y-177743027D01*
X183792158Y-177957045D01*
X183792157Y-177957046D01*
X183663461Y-178149654D01*
X183499654Y-178313461D01*
X183371249Y-178399258D01*
X183307045Y-178442158D01*
X183093027Y-178530807D01*
X182941560Y-178560936D01*
X182865827Y-178576000D01*
X182634173Y-178576000D01*
X182558440Y-178560936D01*
X182406973Y-178530807D01*
X182192955Y-178442158D01*
X182128751Y-178399258D01*
X182000346Y-178313461D01*
X181836539Y-178149654D01*
X181707843Y-177957046D01*
X181707842Y-177957045D01*
X181619193Y-177743027D01*
X181574000Y-177515826D01*
X181574000Y-177284174D01*
X181619193Y-177056973D01*
X181707842Y-176842955D01*
X181750742Y-176778751D01*
X181836539Y-176650346D01*
X182000346Y-176486539D01*
X182192954Y-176357843D01*
X182192955Y-176357842D01*
X182406973Y-176269193D01*
X182558440Y-176239064D01*
X182634173Y-176224000D01*
X182865827Y-176224000D01*
X182941560Y-176239064D01*
X182941560Y-176239064D01*
G37*
G36*
X154091560Y-176239064D02*
G01*
X154243027Y-176269193D01*
X154457045Y-176357842D01*
X154457046Y-176357843D01*
X154649654Y-176486539D01*
X154813461Y-176650346D01*
X154899258Y-176778751D01*
X154942158Y-176842955D01*
X155030807Y-177056973D01*
X155076000Y-177284174D01*
X155076000Y-177515826D01*
X155030807Y-177743027D01*
X154942158Y-177957045D01*
X154942157Y-177957046D01*
X154813461Y-178149654D01*
X154649654Y-178313461D01*
X154521249Y-178399258D01*
X154457045Y-178442158D01*
X154243027Y-178530807D01*
X154091560Y-178560936D01*
X154015827Y-178576000D01*
X153784173Y-178576000D01*
X153708440Y-178560936D01*
X153556973Y-178530807D01*
X153342955Y-178442158D01*
X153278751Y-178399258D01*
X153150346Y-178313461D01*
X152986539Y-178149654D01*
X152857843Y-177957046D01*
X152857842Y-177957045D01*
X152769193Y-177743027D01*
X152724000Y-177515826D01*
X152724000Y-177284174D01*
X152769193Y-177056973D01*
X152857842Y-176842955D01*
X152900742Y-176778751D01*
X152986539Y-176650346D01*
X153150346Y-176486539D01*
X153342954Y-176357843D01*
X153342955Y-176357842D01*
X153556973Y-176269193D01*
X153708440Y-176239064D01*
X153784173Y-176224000D01*
X154015827Y-176224000D01*
X154091560Y-176239064D01*
X154091560Y-176239064D01*
G37*
G36*
X167441560Y-176239064D02*
G01*
X167593027Y-176269193D01*
X167807045Y-176357842D01*
X167807046Y-176357843D01*
X167999654Y-176486539D01*
X168163461Y-176650346D01*
X168249258Y-176778751D01*
X168292158Y-176842955D01*
X168380807Y-177056973D01*
X168426000Y-177284174D01*
X168426000Y-177515826D01*
X168380807Y-177743027D01*
X168292158Y-177957045D01*
X168292157Y-177957046D01*
X168163461Y-178149654D01*
X167999654Y-178313461D01*
X167871249Y-178399258D01*
X167807045Y-178442158D01*
X167593027Y-178530807D01*
X167441560Y-178560936D01*
X167365827Y-178576000D01*
X167134173Y-178576000D01*
X167058440Y-178560936D01*
X166906973Y-178530807D01*
X166692955Y-178442158D01*
X166628751Y-178399258D01*
X166500346Y-178313461D01*
X166336539Y-178149654D01*
X166207843Y-177957046D01*
X166207842Y-177957045D01*
X166119193Y-177743027D01*
X166074000Y-177515826D01*
X166074000Y-177284174D01*
X166119193Y-177056973D01*
X166207842Y-176842955D01*
X166250742Y-176778751D01*
X166336539Y-176650346D01*
X166500346Y-176486539D01*
X166692954Y-176357843D01*
X166692955Y-176357842D01*
X166906973Y-176269193D01*
X167058440Y-176239064D01*
X167134173Y-176224000D01*
X167365827Y-176224000D01*
X167441560Y-176239064D01*
X167441560Y-176239064D01*
G37*
G36*
X180582194Y-173633035D02*
G01*
X180678382Y-173672878D01*
X180814413Y-173729223D01*
X181023403Y-173868866D01*
X181201134Y-174046597D01*
X181340777Y-174255587D01*
X181397122Y-174391618D01*
X181436965Y-174487806D01*
X181486000Y-174734324D01*
X181486000Y-174985676D01*
X181436965Y-175232194D01*
X181397122Y-175328382D01*
X181340777Y-175464413D01*
X181201134Y-175673403D01*
X181023403Y-175851134D01*
X180814413Y-175990777D01*
X180678382Y-176047122D01*
X180582194Y-176086965D01*
X180335676Y-176136000D01*
X180084324Y-176136000D01*
X179837806Y-176086965D01*
X179741618Y-176047122D01*
X179605587Y-175990777D01*
X179396597Y-175851134D01*
X179218866Y-175673403D01*
X179079223Y-175464413D01*
X179022878Y-175328382D01*
X178983035Y-175232194D01*
X178934000Y-174985676D01*
X178934000Y-174734324D01*
X178983035Y-174487806D01*
X179022878Y-174391618D01*
X179079223Y-174255587D01*
X179218866Y-174046597D01*
X179396597Y-173868866D01*
X179605587Y-173729223D01*
X179741618Y-173672878D01*
X179837806Y-173633035D01*
X180084324Y-173584000D01*
X180335676Y-173584000D01*
X180582194Y-173633035D01*
X180582194Y-173633035D01*
G37*
G36*
X156812194Y-173633035D02*
G01*
X156908382Y-173672878D01*
X157044413Y-173729223D01*
X157253403Y-173868866D01*
X157431134Y-174046597D01*
X157570777Y-174255587D01*
X157627122Y-174391618D01*
X157666965Y-174487806D01*
X157716000Y-174734324D01*
X157716000Y-174985676D01*
X157666965Y-175232194D01*
X157627122Y-175328382D01*
X157570777Y-175464413D01*
X157431134Y-175673403D01*
X157253403Y-175851134D01*
X157044413Y-175990777D01*
X156908382Y-176047122D01*
X156812194Y-176086965D01*
X156565676Y-176136000D01*
X156314324Y-176136000D01*
X156067806Y-176086965D01*
X155971618Y-176047122D01*
X155835587Y-175990777D01*
X155626597Y-175851134D01*
X155448866Y-175673403D01*
X155309223Y-175464413D01*
X155252878Y-175328382D01*
X155213035Y-175232194D01*
X155164000Y-174985676D01*
X155164000Y-174734324D01*
X155213035Y-174487806D01*
X155252878Y-174391618D01*
X155309223Y-174255587D01*
X155448866Y-174046597D01*
X155626597Y-173868866D01*
X155835587Y-173729223D01*
X155971618Y-173672878D01*
X156067806Y-173633035D01*
X156314324Y-173584000D01*
X156565676Y-173584000D01*
X156812194Y-173633035D01*
X156812194Y-173633035D01*
G37*
G36*
X151732194Y-173633035D02*
G01*
X151828382Y-173672878D01*
X151964413Y-173729223D01*
X152173403Y-173868866D01*
X152351134Y-174046597D01*
X152490777Y-174255587D01*
X152547122Y-174391618D01*
X152586965Y-174487806D01*
X152636000Y-174734324D01*
X152636000Y-174985676D01*
X152586965Y-175232194D01*
X152547122Y-175328382D01*
X152490777Y-175464413D01*
X152351134Y-175673403D01*
X152173403Y-175851134D01*
X151964413Y-175990777D01*
X151828382Y-176047122D01*
X151732194Y-176086965D01*
X151485676Y-176136000D01*
X151234324Y-176136000D01*
X150987806Y-176086965D01*
X150891618Y-176047122D01*
X150755587Y-175990777D01*
X150546597Y-175851134D01*
X150368866Y-175673403D01*
X150229223Y-175464413D01*
X150172878Y-175328382D01*
X150133035Y-175232194D01*
X150084000Y-174985676D01*
X150084000Y-174734324D01*
X150133035Y-174487806D01*
X150172878Y-174391618D01*
X150229223Y-174255587D01*
X150368866Y-174046597D01*
X150546597Y-173868866D01*
X150755587Y-173729223D01*
X150891618Y-173672878D01*
X150987806Y-173633035D01*
X151234324Y-173584000D01*
X151485676Y-173584000D01*
X151732194Y-173633035D01*
X151732194Y-173633035D01*
G37*
G36*
X199012194Y-173633035D02*
G01*
X199108382Y-173672878D01*
X199244413Y-173729223D01*
X199453403Y-173868866D01*
X199631134Y-174046597D01*
X199770777Y-174255587D01*
X199827122Y-174391618D01*
X199866965Y-174487806D01*
X199916000Y-174734324D01*
X199916000Y-174985676D01*
X199866965Y-175232194D01*
X199827122Y-175328382D01*
X199770777Y-175464413D01*
X199631134Y-175673403D01*
X199453403Y-175851134D01*
X199244413Y-175990777D01*
X199108382Y-176047122D01*
X199012194Y-176086965D01*
X198765676Y-176136000D01*
X198514324Y-176136000D01*
X198267806Y-176086965D01*
X198171618Y-176047122D01*
X198035587Y-175990777D01*
X197826597Y-175851134D01*
X197648866Y-175673403D01*
X197509223Y-175464413D01*
X197452878Y-175328382D01*
X197413035Y-175232194D01*
X197364000Y-174985676D01*
X197364000Y-174734324D01*
X197413035Y-174487806D01*
X197452878Y-174391618D01*
X197509223Y-174255587D01*
X197648866Y-174046597D01*
X197826597Y-173868866D01*
X198035587Y-173729223D01*
X198171618Y-173672878D01*
X198267806Y-173633035D01*
X198514324Y-173584000D01*
X198765676Y-173584000D01*
X199012194Y-173633035D01*
X199012194Y-173633035D01*
G37*
G36*
X193932194Y-173633035D02*
G01*
X194028382Y-173672878D01*
X194164413Y-173729223D01*
X194373403Y-173868866D01*
X194551134Y-174046597D01*
X194690777Y-174255587D01*
X194747122Y-174391618D01*
X194786965Y-174487806D01*
X194836000Y-174734324D01*
X194836000Y-174985676D01*
X194786965Y-175232194D01*
X194747122Y-175328382D01*
X194690777Y-175464413D01*
X194551134Y-175673403D01*
X194373403Y-175851134D01*
X194164413Y-175990777D01*
X194028382Y-176047122D01*
X193932194Y-176086965D01*
X193685676Y-176136000D01*
X193434324Y-176136000D01*
X193187806Y-176086965D01*
X193091618Y-176047122D01*
X192955587Y-175990777D01*
X192746597Y-175851134D01*
X192568866Y-175673403D01*
X192429223Y-175464413D01*
X192372878Y-175328382D01*
X192333035Y-175232194D01*
X192284000Y-174985676D01*
X192284000Y-174734324D01*
X192333035Y-174487806D01*
X192372878Y-174391618D01*
X192429223Y-174255587D01*
X192568866Y-174046597D01*
X192746597Y-173868866D01*
X192955587Y-173729223D01*
X193091618Y-173672878D01*
X193187806Y-173633035D01*
X193434324Y-173584000D01*
X193685676Y-173584000D01*
X193932194Y-173633035D01*
X193932194Y-173633035D01*
G37*
G36*
X185662194Y-173633035D02*
G01*
X185758382Y-173672878D01*
X185894413Y-173729223D01*
X186103403Y-173868866D01*
X186281134Y-174046597D01*
X186420777Y-174255587D01*
X186477122Y-174391618D01*
X186516965Y-174487806D01*
X186566000Y-174734324D01*
X186566000Y-174985676D01*
X186516965Y-175232194D01*
X186477122Y-175328382D01*
X186420777Y-175464413D01*
X186281134Y-175673403D01*
X186103403Y-175851134D01*
X185894413Y-175990777D01*
X185758382Y-176047122D01*
X185662194Y-176086965D01*
X185415676Y-176136000D01*
X185164324Y-176136000D01*
X184917806Y-176086965D01*
X184821618Y-176047122D01*
X184685587Y-175990777D01*
X184476597Y-175851134D01*
X184298866Y-175673403D01*
X184159223Y-175464413D01*
X184102878Y-175328382D01*
X184063035Y-175232194D01*
X184014000Y-174985676D01*
X184014000Y-174734324D01*
X184063035Y-174487806D01*
X184102878Y-174391618D01*
X184159223Y-174255587D01*
X184298866Y-174046597D01*
X184476597Y-173868866D01*
X184685587Y-173729223D01*
X184821618Y-173672878D01*
X184917806Y-173633035D01*
X185164324Y-173584000D01*
X185415676Y-173584000D01*
X185662194Y-173633035D01*
X185662194Y-173633035D01*
G37*
G36*
X170162194Y-173633035D02*
G01*
X170258382Y-173672878D01*
X170394413Y-173729223D01*
X170603403Y-173868866D01*
X170781134Y-174046597D01*
X170920777Y-174255587D01*
X170977122Y-174391618D01*
X171016965Y-174487806D01*
X171066000Y-174734324D01*
X171066000Y-174985676D01*
X171016965Y-175232194D01*
X170977122Y-175328382D01*
X170920777Y-175464413D01*
X170781134Y-175673403D01*
X170603403Y-175851134D01*
X170394413Y-175990777D01*
X170258382Y-176047122D01*
X170162194Y-176086965D01*
X169915676Y-176136000D01*
X169664324Y-176136000D01*
X169417806Y-176086965D01*
X169321618Y-176047122D01*
X169185587Y-175990777D01*
X168976597Y-175851134D01*
X168798866Y-175673403D01*
X168659223Y-175464413D01*
X168602878Y-175328382D01*
X168563035Y-175232194D01*
X168514000Y-174985676D01*
X168514000Y-174734324D01*
X168563035Y-174487806D01*
X168602878Y-174391618D01*
X168659223Y-174255587D01*
X168798866Y-174046597D01*
X168976597Y-173868866D01*
X169185587Y-173729223D01*
X169321618Y-173672878D01*
X169417806Y-173633035D01*
X169664324Y-173584000D01*
X169915676Y-173584000D01*
X170162194Y-173633035D01*
X170162194Y-173633035D01*
G37*
G36*
X165082194Y-173633035D02*
G01*
X165178382Y-173672878D01*
X165314413Y-173729223D01*
X165523403Y-173868866D01*
X165701134Y-174046597D01*
X165840777Y-174255587D01*
X165897122Y-174391618D01*
X165936965Y-174487806D01*
X165986000Y-174734324D01*
X165986000Y-174985676D01*
X165936965Y-175232194D01*
X165897122Y-175328382D01*
X165840777Y-175464413D01*
X165701134Y-175673403D01*
X165523403Y-175851134D01*
X165314413Y-175990777D01*
X165178382Y-176047122D01*
X165082194Y-176086965D01*
X164835676Y-176136000D01*
X164584324Y-176136000D01*
X164337806Y-176086965D01*
X164241618Y-176047122D01*
X164105587Y-175990777D01*
X163896597Y-175851134D01*
X163718866Y-175673403D01*
X163579223Y-175464413D01*
X163522878Y-175328382D01*
X163483035Y-175232194D01*
X163434000Y-174985676D01*
X163434000Y-174734324D01*
X163483035Y-174487806D01*
X163522878Y-174391618D01*
X163579223Y-174255587D01*
X163718866Y-174046597D01*
X163896597Y-173868866D01*
X164105587Y-173729223D01*
X164241618Y-173672878D01*
X164337806Y-173633035D01*
X164584324Y-173584000D01*
X164835676Y-173584000D01*
X165082194Y-173633035D01*
X165082194Y-173633035D01*
G37*
M02*
