G04 #@! TF.GenerationSoftware,KiCad,Pcbnew,(5.1.0)-1*
G04 #@! TF.CreationDate,2021-06-03T15:28:15+01:00*
G04 #@! TF.ProjectId,single_coil,73696e67-6c65-45f6-936f-696c2e6b6963,rev?*
G04 #@! TF.SameCoordinates,Original*
G04 #@! TF.FileFunction,Copper,L2,Bot*
G04 #@! TF.FilePolarity,Positive*
%FSLAX46Y46*%
G04 Gerber Fmt 4.6, Leading zero omitted, Abs format (unit mm)*
G04 Created by KiCad (PCBNEW (5.1.0)-1) date 2021-06-03 15:28:15*
%MOMM*%
%LPD*%
G04 APERTURE LIST*
%ADD10C,0.500000*%
%ADD11C,2.250000*%
%ADD12C,2.450000*%
%ADD13C,0.800000*%
%ADD14C,0.254000*%
G04 APERTURE END LIST*
D10*
X141150000Y-96400000D02*
G75*
G02X142150000Y-95400000I1000000J0D01*
G01*
X142150000Y-139150000D02*
G75*
G02X141150000Y-138150000I0J1000000D01*
G01*
X141150000Y-96400000D02*
X141150000Y-138150000D01*
X145000000Y-95400000D02*
X142150000Y-95400000D01*
X167250000Y-143400000D02*
G75*
G02X168250000Y-142400000I1000000J0D01*
G01*
X167250000Y-177400000D02*
X167250000Y-143400000D01*
X204000000Y-142400000D02*
X168250000Y-142400000D01*
X164750000Y-121400000D02*
X187000000Y-121400000D01*
X164750000Y-121400000D02*
G75*
G02X164500000Y-121150000I0J250000D01*
G01*
X150750000Y-108900000D02*
G75*
G03X150000000Y-109650000I0J-750000D01*
G01*
X153000000Y-110400000D02*
G75*
G03X152500000Y-110900000I0J-500000D01*
G01*
X152750000Y-127400000D02*
G75*
G02X152500000Y-127150000I0J250000D01*
G01*
X197500000Y-127150000D02*
G75*
G02X197250000Y-127400000I-250000J0D01*
G01*
X150500000Y-132400000D02*
G75*
G02X150000000Y-131900000I0J500000D01*
G01*
X148250000Y-137400000D02*
G75*
G02X147500000Y-136650000I0J750000D01*
G01*
X147500000Y-108400000D02*
G75*
G02X148500000Y-107400000I1000000J0D01*
G01*
X204000000Y-107400000D02*
G75*
G02X205000000Y-108400000I0J-1000000D01*
G01*
X205000000Y-141400000D02*
G75*
G02X204000000Y-142400000I-1000000J0D01*
G01*
X202500000Y-136650000D02*
G75*
G02X201750000Y-137400000I-750000J0D01*
G01*
X200000000Y-131900000D02*
G75*
G02X199500000Y-132400000I-500000J0D01*
G01*
X148500000Y-107400000D02*
X204000000Y-107400000D01*
X205000000Y-108400000D02*
X205000000Y-141400000D01*
X150000000Y-131900000D02*
X150000000Y-109650000D01*
X201750000Y-137400000D02*
X148250000Y-137400000D01*
X202500000Y-109650000D02*
X202500000Y-136650000D01*
X153000000Y-110400000D02*
X199500000Y-110400000D01*
X155250000Y-111900000D02*
X197250000Y-111900000D01*
X197250000Y-127400000D02*
X152750000Y-127400000D01*
X200000000Y-110900000D02*
X200000000Y-131900000D01*
X199500000Y-132400000D02*
X150500000Y-132400000D01*
X199500000Y-110400000D02*
G75*
G02X200000000Y-110900000I0J-500000D01*
G01*
X197500000Y-112150000D02*
X197500000Y-127150000D01*
X197250000Y-111900000D02*
G75*
G02X197500000Y-112150000I0J-250000D01*
G01*
X150750000Y-108900000D02*
X201750000Y-108900000D01*
X147500000Y-136650000D02*
X147500000Y-108400000D01*
X152500000Y-127150000D02*
X152500000Y-110900000D01*
X201750000Y-108900000D02*
G75*
G02X202500000Y-109650000I0J-750000D01*
G01*
X152500000Y-90400000D02*
G75*
G03X153000000Y-90900000I500000J0D01*
G01*
X150000000Y-91650000D02*
G75*
G03X150750000Y-92400000I750000J0D01*
G01*
X147500000Y-92900000D02*
G75*
G03X148500000Y-93900000I1000000J0D01*
G01*
X148500000Y-60400000D02*
G75*
G03X147500000Y-61400000I0J-1000000D01*
G01*
X150750000Y-65400000D02*
G75*
G03X150000000Y-66150000I0J-750000D01*
G01*
X153000000Y-70400000D02*
G75*
G03X152500000Y-70900000I0J-500000D01*
G01*
X155250000Y-75400000D02*
G75*
G03X155000000Y-75650000I0J-250000D01*
G01*
X197500000Y-75650000D02*
G75*
G03X197250000Y-75400000I-250000J0D01*
G01*
X200000000Y-70900000D02*
G75*
G03X199500000Y-70400000I-500000J0D01*
G01*
X202500000Y-66150000D02*
G75*
G03X201750000Y-65400000I-750000J0D01*
G01*
X205000000Y-61400000D02*
G75*
G03X204000000Y-60400000I-1000000J0D01*
G01*
X204000000Y-95400000D02*
G75*
G03X205000000Y-94400000I0J1000000D01*
G01*
X201750000Y-93900000D02*
G75*
G03X202500000Y-93150000I0J750000D01*
G01*
X199500000Y-92400000D02*
G75*
G03X200000000Y-91900000I0J500000D01*
G01*
X197250000Y-90900000D02*
G75*
G03X197500000Y-90650000I0J250000D01*
G01*
X155000000Y-75650000D02*
X155000000Y-89400000D01*
X197250000Y-75400000D02*
X155250000Y-75400000D01*
X197500000Y-90650000D02*
X197500000Y-75650000D01*
X153000000Y-90900000D02*
X197250000Y-90900000D01*
X152500000Y-70900000D02*
X152500000Y-90400000D01*
X199500000Y-70400000D02*
X153000000Y-70400000D01*
X200000000Y-91900000D02*
X200000000Y-70900000D01*
X150750000Y-92400000D02*
X199500000Y-92400000D01*
X150000000Y-66150000D02*
X150000000Y-91650000D01*
X201750000Y-65400000D02*
X150750000Y-65400000D01*
X202500000Y-93150000D02*
X202500000Y-66150000D01*
X148500000Y-93900000D02*
X201750000Y-93900000D01*
X147500000Y-61400000D02*
X147500000Y-92900000D01*
X204000000Y-60400000D02*
X148500000Y-60400000D01*
X205000000Y-94400000D02*
X205000000Y-61400000D01*
X145000000Y-95400000D02*
X204000000Y-95400000D01*
D11*
X196100000Y-177400000D03*
D12*
X193560000Y-174860000D03*
X198640000Y-174860000D03*
X193560000Y-179940000D03*
X198640000Y-179940000D03*
D11*
X167250000Y-177400000D03*
D12*
X164710000Y-174860000D03*
X169790000Y-174860000D03*
X164710000Y-179940000D03*
X169790000Y-179940000D03*
D11*
X182750000Y-177400000D03*
D12*
X180210000Y-174860000D03*
X185290000Y-174860000D03*
X180210000Y-179940000D03*
X185290000Y-179940000D03*
D11*
X153900000Y-177400000D03*
D12*
X151360000Y-174860000D03*
X156440000Y-174860000D03*
X151360000Y-179940000D03*
X156440000Y-179940000D03*
D13*
X187000000Y-121400000D03*
X164500000Y-121150000D03*
X155000000Y-89400000D03*
X155250000Y-111900000D03*
X142150000Y-139150000D03*
D14*
G36*
X166365000Y-175874604D02*
G01*
X166128065Y-176032919D01*
X165882919Y-176278065D01*
X165690308Y-176566327D01*
X165557636Y-176886627D01*
X165490000Y-177226655D01*
X165490000Y-177573345D01*
X165557636Y-177913373D01*
X165690308Y-178233673D01*
X165882919Y-178521935D01*
X166128065Y-178767081D01*
X166416327Y-178959692D01*
X166736627Y-179092364D01*
X167076655Y-179160000D01*
X167423345Y-179160000D01*
X167763373Y-179092364D01*
X168083673Y-178959692D01*
X168371935Y-178767081D01*
X168617081Y-178521935D01*
X168809692Y-178233673D01*
X168942364Y-177913373D01*
X169010000Y-177573345D01*
X169010000Y-177226655D01*
X180990000Y-177226655D01*
X180990000Y-177573345D01*
X181057636Y-177913373D01*
X181190308Y-178233673D01*
X181382919Y-178521935D01*
X181628065Y-178767081D01*
X181916327Y-178959692D01*
X182236627Y-179092364D01*
X182576655Y-179160000D01*
X182923345Y-179160000D01*
X183263373Y-179092364D01*
X183583673Y-178959692D01*
X183871935Y-178767081D01*
X184117081Y-178521935D01*
X184309692Y-178233673D01*
X184442364Y-177913373D01*
X184510000Y-177573345D01*
X184510000Y-177226655D01*
X194340000Y-177226655D01*
X194340000Y-177573345D01*
X194407636Y-177913373D01*
X194540308Y-178233673D01*
X194732919Y-178521935D01*
X194978065Y-178767081D01*
X195266327Y-178959692D01*
X195586627Y-179092364D01*
X195926655Y-179160000D01*
X196273345Y-179160000D01*
X196613373Y-179092364D01*
X196933673Y-178959692D01*
X197221935Y-178767081D01*
X197467081Y-178521935D01*
X197659692Y-178233673D01*
X197792364Y-177913373D01*
X197860000Y-177573345D01*
X197860000Y-177226655D01*
X197792364Y-176886627D01*
X197659692Y-176566327D01*
X197467081Y-176278065D01*
X197221935Y-176032919D01*
X196933673Y-175840308D01*
X196613373Y-175707636D01*
X196273345Y-175640000D01*
X195926655Y-175640000D01*
X195586627Y-175707636D01*
X195266327Y-175840308D01*
X194978065Y-176032919D01*
X194732919Y-176278065D01*
X194540308Y-176566327D01*
X194407636Y-176886627D01*
X194340000Y-177226655D01*
X184510000Y-177226655D01*
X184442364Y-176886627D01*
X184309692Y-176566327D01*
X184117081Y-176278065D01*
X183871935Y-176032919D01*
X183583673Y-175840308D01*
X183263373Y-175707636D01*
X182923345Y-175640000D01*
X182576655Y-175640000D01*
X182236627Y-175707636D01*
X181916327Y-175840308D01*
X181628065Y-176032919D01*
X181382919Y-176278065D01*
X181190308Y-176566327D01*
X181057636Y-176886627D01*
X180990000Y-177226655D01*
X169010000Y-177226655D01*
X168942364Y-176886627D01*
X168809692Y-176566327D01*
X168617081Y-176278065D01*
X168371935Y-176032919D01*
X168135000Y-175874604D01*
X168135000Y-172777000D01*
X202023000Y-172777000D01*
X202023000Y-181205000D01*
X148277000Y-181205000D01*
X148277000Y-177226655D01*
X152140000Y-177226655D01*
X152140000Y-177573345D01*
X152207636Y-177913373D01*
X152340308Y-178233673D01*
X152532919Y-178521935D01*
X152778065Y-178767081D01*
X153066327Y-178959692D01*
X153386627Y-179092364D01*
X153726655Y-179160000D01*
X154073345Y-179160000D01*
X154413373Y-179092364D01*
X154733673Y-178959692D01*
X155021935Y-178767081D01*
X155267081Y-178521935D01*
X155459692Y-178233673D01*
X155592364Y-177913373D01*
X155660000Y-177573345D01*
X155660000Y-177226655D01*
X155592364Y-176886627D01*
X155459692Y-176566327D01*
X155267081Y-176278065D01*
X155021935Y-176032919D01*
X154733673Y-175840308D01*
X154413373Y-175707636D01*
X154073345Y-175640000D01*
X153726655Y-175640000D01*
X153386627Y-175707636D01*
X153066327Y-175840308D01*
X152778065Y-176032919D01*
X152532919Y-176278065D01*
X152340308Y-176566327D01*
X152207636Y-176886627D01*
X152140000Y-177226655D01*
X148277000Y-177226655D01*
X148277000Y-172777000D01*
X166365000Y-172777000D01*
X166365000Y-175874604D01*
X166365000Y-175874604D01*
G37*
X166365000Y-175874604D02*
X166128065Y-176032919D01*
X165882919Y-176278065D01*
X165690308Y-176566327D01*
X165557636Y-176886627D01*
X165490000Y-177226655D01*
X165490000Y-177573345D01*
X165557636Y-177913373D01*
X165690308Y-178233673D01*
X165882919Y-178521935D01*
X166128065Y-178767081D01*
X166416327Y-178959692D01*
X166736627Y-179092364D01*
X167076655Y-179160000D01*
X167423345Y-179160000D01*
X167763373Y-179092364D01*
X168083673Y-178959692D01*
X168371935Y-178767081D01*
X168617081Y-178521935D01*
X168809692Y-178233673D01*
X168942364Y-177913373D01*
X169010000Y-177573345D01*
X169010000Y-177226655D01*
X180990000Y-177226655D01*
X180990000Y-177573345D01*
X181057636Y-177913373D01*
X181190308Y-178233673D01*
X181382919Y-178521935D01*
X181628065Y-178767081D01*
X181916327Y-178959692D01*
X182236627Y-179092364D01*
X182576655Y-179160000D01*
X182923345Y-179160000D01*
X183263373Y-179092364D01*
X183583673Y-178959692D01*
X183871935Y-178767081D01*
X184117081Y-178521935D01*
X184309692Y-178233673D01*
X184442364Y-177913373D01*
X184510000Y-177573345D01*
X184510000Y-177226655D01*
X194340000Y-177226655D01*
X194340000Y-177573345D01*
X194407636Y-177913373D01*
X194540308Y-178233673D01*
X194732919Y-178521935D01*
X194978065Y-178767081D01*
X195266327Y-178959692D01*
X195586627Y-179092364D01*
X195926655Y-179160000D01*
X196273345Y-179160000D01*
X196613373Y-179092364D01*
X196933673Y-178959692D01*
X197221935Y-178767081D01*
X197467081Y-178521935D01*
X197659692Y-178233673D01*
X197792364Y-177913373D01*
X197860000Y-177573345D01*
X197860000Y-177226655D01*
X197792364Y-176886627D01*
X197659692Y-176566327D01*
X197467081Y-176278065D01*
X197221935Y-176032919D01*
X196933673Y-175840308D01*
X196613373Y-175707636D01*
X196273345Y-175640000D01*
X195926655Y-175640000D01*
X195586627Y-175707636D01*
X195266327Y-175840308D01*
X194978065Y-176032919D01*
X194732919Y-176278065D01*
X194540308Y-176566327D01*
X194407636Y-176886627D01*
X194340000Y-177226655D01*
X184510000Y-177226655D01*
X184442364Y-176886627D01*
X184309692Y-176566327D01*
X184117081Y-176278065D01*
X183871935Y-176032919D01*
X183583673Y-175840308D01*
X183263373Y-175707636D01*
X182923345Y-175640000D01*
X182576655Y-175640000D01*
X182236627Y-175707636D01*
X181916327Y-175840308D01*
X181628065Y-176032919D01*
X181382919Y-176278065D01*
X181190308Y-176566327D01*
X181057636Y-176886627D01*
X180990000Y-177226655D01*
X169010000Y-177226655D01*
X168942364Y-176886627D01*
X168809692Y-176566327D01*
X168617081Y-176278065D01*
X168371935Y-176032919D01*
X168135000Y-175874604D01*
X168135000Y-172777000D01*
X202023000Y-172777000D01*
X202023000Y-181205000D01*
X148277000Y-181205000D01*
X148277000Y-177226655D01*
X152140000Y-177226655D01*
X152140000Y-177573345D01*
X152207636Y-177913373D01*
X152340308Y-178233673D01*
X152532919Y-178521935D01*
X152778065Y-178767081D01*
X153066327Y-178959692D01*
X153386627Y-179092364D01*
X153726655Y-179160000D01*
X154073345Y-179160000D01*
X154413373Y-179092364D01*
X154733673Y-178959692D01*
X155021935Y-178767081D01*
X155267081Y-178521935D01*
X155459692Y-178233673D01*
X155592364Y-177913373D01*
X155660000Y-177573345D01*
X155660000Y-177226655D01*
X155592364Y-176886627D01*
X155459692Y-176566327D01*
X155267081Y-176278065D01*
X155021935Y-176032919D01*
X154733673Y-175840308D01*
X154413373Y-175707636D01*
X154073345Y-175640000D01*
X153726655Y-175640000D01*
X153386627Y-175707636D01*
X153066327Y-175840308D01*
X152778065Y-176032919D01*
X152532919Y-176278065D01*
X152340308Y-176566327D01*
X152207636Y-176886627D01*
X152140000Y-177226655D01*
X148277000Y-177226655D01*
X148277000Y-172777000D01*
X166365000Y-172777000D01*
X166365000Y-175874604D01*
M02*
