G04 #@! TF.GenerationSoftware,KiCad,Pcbnew,(5.1.0)-1*
G04 #@! TF.CreationDate,2020-09-17T18:32:08+01:00*
G04 #@! TF.ProjectId,single_coil,73696e67-6c65-45f6-936f-696c2e6b6963,rev?*
G04 #@! TF.SameCoordinates,Original*
G04 #@! TF.FileFunction,Copper,L1,Top*
G04 #@! TF.FilePolarity,Positive*
%FSLAX46Y46*%
G04 Gerber Fmt 4.6, Leading zero omitted, Abs format (unit mm)*
G04 Created by KiCad (PCBNEW (5.1.0)-1) date 2020-09-17 18:32:08*
%MOMM*%
%LPD*%
G04 APERTURE LIST*
%ADD10C,0.750000*%
%ADD11C,7.500000*%
%ADD12C,2.250000*%
%ADD13C,0.500000*%
%ADD14C,0.800000*%
%ADD15C,1.500000*%
%ADD16C,1.600000*%
G04 APERTURE END LIST*
D10*
X157000000Y-114400000D02*
X148000000Y-114400000D01*
X157000000Y-114400000D02*
G75*
G02X158000000Y-115400000I0J-1000000D01*
G01*
X130000000Y-105400000D02*
X130000000Y-89400000D01*
X158000000Y-88400000D02*
X148000000Y-88400000D01*
X159000000Y-87400000D02*
G75*
G02X158000000Y-88400000I-1000000J0D01*
G01*
X188000000Y-154400000D02*
G75*
G02X187000000Y-155400000I-1000000J0D01*
G01*
X187000000Y-155400000D02*
X178000000Y-155400000D01*
X188000000Y-128400000D02*
X188000000Y-154400000D01*
X163000000Y-147400000D02*
G75*
G02X162000000Y-146400000I0J1000000D01*
G01*
X180000000Y-146400000D02*
G75*
G02X179000000Y-147400000I-1000000J0D01*
G01*
X171000000Y-155400000D02*
G75*
G02X170000000Y-154400000I0J1000000D01*
G01*
X162000000Y-128400000D02*
X162000000Y-146400000D01*
X180000000Y-146400000D02*
X180000000Y-121400000D01*
X170000000Y-121400000D02*
X170000000Y-154400000D01*
X175000000Y-155400000D02*
X171000000Y-155400000D01*
X138000000Y-121400000D02*
X168000000Y-121400000D01*
X170000000Y-121400000D02*
X170000000Y-82400000D01*
X169000000Y-81400000D02*
X138000000Y-81400000D01*
X137000000Y-82400000D02*
X137000000Y-120400000D01*
X170000000Y-82400000D02*
G75*
G03X169000000Y-81400000I-1000000J0D01*
G01*
X167000000Y-83400000D02*
X140000000Y-83400000D01*
X168000000Y-119400000D02*
X168000000Y-84400000D01*
X168000000Y-84400000D02*
G75*
G03X167000000Y-83400000I-1000000J0D01*
G01*
X139000000Y-84400000D02*
X139000000Y-118400000D01*
X139000000Y-118400000D02*
G75*
G03X140000000Y-119400000I1000000J0D01*
G01*
X140000000Y-83400000D02*
G75*
G03X139000000Y-84400000I0J-1000000D01*
G01*
X166000000Y-119400000D02*
G75*
G03X167000000Y-118400000I0J1000000D01*
G01*
X167000000Y-118400000D02*
X167000000Y-85400000D01*
X140000000Y-119400000D02*
X166000000Y-119400000D01*
X166000000Y-84400000D02*
X141000000Y-84400000D01*
X167000000Y-85400000D02*
G75*
G03X166000000Y-84400000I-1000000J0D01*
G01*
X140000000Y-117400000D02*
G75*
G03X141000000Y-118400000I1000000J0D01*
G01*
X141000000Y-84400000D02*
G75*
G03X140000000Y-85400000I0J-1000000D01*
G01*
X140000000Y-85400000D02*
X140000000Y-117400000D01*
X141000000Y-118400000D02*
X161000000Y-118400000D01*
X168000000Y-82400000D02*
X139000000Y-82400000D01*
X138000000Y-81400000D02*
G75*
G03X137000000Y-82400000I0J-1000000D01*
G01*
X168000000Y-121400000D02*
G75*
G03X169000000Y-120400000I0J1000000D01*
G01*
X169000000Y-83400000D02*
G75*
G03X168000000Y-82400000I-1000000J0D01*
G01*
X169000000Y-120400000D02*
X169000000Y-83400000D01*
X137000000Y-120400000D02*
G75*
G03X138000000Y-121400000I1000000J0D01*
G01*
X138000000Y-119400000D02*
G75*
G03X139000000Y-120400000I1000000J0D01*
G01*
X138000000Y-83400000D02*
X138000000Y-119400000D01*
X139000000Y-120400000D02*
X167000000Y-120400000D01*
X139000000Y-82400000D02*
G75*
G03X138000000Y-83400000I0J-1000000D01*
G01*
X167000000Y-120400000D02*
G75*
G03X168000000Y-119400000I0J1000000D01*
G01*
X209000000Y-118400000D02*
X189000000Y-118400000D01*
X210000000Y-117400000D02*
G75*
G02X209000000Y-118400000I-1000000J0D01*
G01*
X210000000Y-85400000D02*
X210000000Y-117400000D01*
X209000000Y-84400000D02*
G75*
G02X210000000Y-85400000I0J-1000000D01*
G01*
X184000000Y-84400000D02*
X209000000Y-84400000D01*
X183000000Y-85400000D02*
G75*
G02X184000000Y-84400000I1000000J0D01*
G01*
X183000000Y-118400000D02*
X183000000Y-85400000D01*
X184000000Y-119400000D02*
G75*
G02X183000000Y-118400000I0J1000000D01*
G01*
X210000000Y-119400000D02*
X184000000Y-119400000D01*
X211000000Y-118400000D02*
G75*
G02X210000000Y-119400000I-1000000J0D01*
G01*
X211000000Y-84400000D02*
X211000000Y-118400000D01*
X210000000Y-83400000D02*
G75*
G02X211000000Y-84400000I0J-1000000D01*
G01*
X183000000Y-83400000D02*
X210000000Y-83400000D01*
X182000000Y-84400000D02*
G75*
G02X183000000Y-83400000I1000000J0D01*
G01*
X182000000Y-119400000D02*
X182000000Y-84400000D01*
X183000000Y-120400000D02*
G75*
G02X182000000Y-119400000I0J1000000D01*
G01*
X211000000Y-120400000D02*
X183000000Y-120400000D01*
X212000000Y-119400000D02*
G75*
G02X211000000Y-120400000I-1000000J0D01*
G01*
X212000000Y-83400000D02*
X212000000Y-119400000D01*
X211000000Y-82400000D02*
G75*
G02X212000000Y-83400000I0J-1000000D01*
G01*
X182000000Y-82400000D02*
X211000000Y-82400000D01*
X181000000Y-83400000D02*
G75*
G02X182000000Y-82400000I1000000J0D01*
G01*
X181000000Y-120400000D02*
X181000000Y-83400000D01*
X182000000Y-121400000D02*
G75*
G02X181000000Y-120400000I0J1000000D01*
G01*
X213000000Y-120400000D02*
G75*
G02X212000000Y-121400000I-1000000J0D01*
G01*
X212000000Y-81400000D02*
G75*
G02X213000000Y-82400000I0J-1000000D01*
G01*
X180000000Y-82400000D02*
G75*
G02X181000000Y-81400000I1000000J0D01*
G01*
X212000000Y-121400000D02*
X182000000Y-121400000D01*
X213000000Y-82400000D02*
X213000000Y-120400000D01*
X181000000Y-81400000D02*
X212000000Y-81400000D01*
X180000000Y-121400000D02*
X180000000Y-82400000D01*
D11*
X207000000Y-152400000D03*
X125000000Y-152400000D03*
X207000000Y-69400000D03*
X125000000Y-69400000D03*
D12*
X124540000Y-103940000D03*
X119460000Y-103940000D03*
X119460000Y-98860000D03*
X124540000Y-98860000D03*
X122000000Y-101400000D03*
X177540000Y-152860000D03*
X177540000Y-157940000D03*
X172460000Y-157940000D03*
X172460000Y-152860000D03*
X175000000Y-155400000D03*
D13*
X170000000Y-121400000D03*
X161000000Y-118400000D03*
X189000000Y-118400000D03*
X180000000Y-121400000D03*
D14*
X162000000Y-128400000D03*
X163000000Y-147400000D03*
X179000000Y-147400000D03*
X188000000Y-128400000D03*
X159000000Y-87400000D03*
X148000000Y-88400000D03*
X130000000Y-89400000D03*
X130000000Y-105400000D03*
X158000000Y-115400000D03*
X148000000Y-114400000D03*
X189000000Y-118400000D03*
X161000000Y-118400000D03*
D15*
X172460000Y-152860000D02*
X177540000Y-152860000D01*
X177540000Y-152860000D02*
X177540000Y-157940000D01*
D16*
X177540000Y-157940000D02*
X172460000Y-157940000D01*
M02*
