EESchema Schematic File Version 4
LIBS:D-coil-cache
EELAYER 29 0
EELAYER END
$Descr A4 11693 8268
encoding utf-8
Sheet 1 1
Title ""
Date ""
Rev ""
Comp ""
Comment1 ""
Comment2 ""
Comment3 ""
Comment4 ""
$EndDescr
$Comp
L antenna:antenna A2
U 1 1 5F7B9467
P 6250 2950
F 0 "A2" H 6412 3325 50  0000 C CNN
F 1 "antenna" H 6412 3234 50  0000 C CNN
F 2 "antenna:antenna_2" H 6250 2950 50  0001 C CNN
F 3 "" H 6250 2950 50  0001 C CNN
	1    6250 2950
	1    0    0    -1  
$EndComp
Wire Wire Line
	5400 2800 5950 2800
$Comp
L antenna:antenna A1
U 1 1 5F7B8D0A
P 5100 2950
F 0 "A1" H 5262 3325 50  0000 C CNN
F 1 "antenna" H 5262 3234 50  0000 C CNN
F 2 "antenna:antenna_1" H 5100 2950 50  0001 C CNN
F 3 "" H 5100 2950 50  0001 C CNN
	1    5100 2950
	1    0    0    -1  
$EndComp
$Comp
L Connector:Conn_Coaxial J1
U 1 1 5F7BADE4
P 2800 2800
F 0 "J1" H 2728 3038 50  0000 C CNN
F 1 "Conn_Coaxial" H 2728 2947 50  0000 C CNN
F 2 "Connector_Coaxial:SMA_Molex_73251-2200_Horizontal" H 2800 2800 50  0001 C CNN
F 3 " ~" H 2800 2800 50  0001 C CNN
	1    2800 2800
	-1   0    0    -1  
$EndComp
$Comp
L Device:C C1
U 1 1 5F7BE3FF
P 3450 2600
F 0 "C1" V 3198 2600 50  0000 C CNN
F 1 "C" V 3289 2600 50  0000 C CNN
F 2 "Capacitor_SMD:C_0805_2012Metric_Pad1.15x1.40mm_HandSolder" H 3488 2450 50  0001 C CNN
F 3 "~" H 3450 2600 50  0001 C CNN
	1    3450 2600
	0    1    1    0   
$EndComp
$Comp
L Device:C C2
U 1 1 5F7C1797
P 3450 3000
F 0 "C2" V 3198 3000 50  0000 C CNN
F 1 "C" V 3289 3000 50  0000 C CNN
F 2 "Capacitor_SMD:C_0805_2012Metric_Pad1.15x1.40mm_HandSolder" H 3488 2850 50  0001 C CNN
F 3 "~" H 3450 3000 50  0001 C CNN
	1    3450 3000
	0    1    1    0   
$EndComp
$Comp
L Device:C C3
U 1 1 5F7C1C87
P 3950 2600
F 0 "C3" V 3698 2600 50  0000 C CNN
F 1 "C" V 3789 2600 50  0000 C CNN
F 2 "Capacitor_SMD:C_0805_2012Metric_Pad1.15x1.40mm_HandSolder" H 3988 2450 50  0001 C CNN
F 3 "~" H 3950 2600 50  0001 C CNN
	1    3950 2600
	0    1    1    0   
$EndComp
$Comp
L Device:C C4
U 1 1 5F7C1F58
P 3950 3000
F 0 "C4" V 3698 3000 50  0000 C CNN
F 1 "C" V 3789 3000 50  0000 C CNN
F 2 "Capacitor_SMD:C_0805_2012Metric_Pad1.15x1.40mm_HandSolder" H 3988 2850 50  0001 C CNN
F 3 "~" H 3950 3000 50  0001 C CNN
	1    3950 3000
	0    1    1    0   
$EndComp
$Comp
L Device:C C5
U 1 1 5F7C5085
P 4450 2600
F 0 "C5" V 4198 2600 50  0000 C CNN
F 1 "C" V 4289 2600 50  0000 C CNN
F 2 "Capacitor_SMD:C_0805_2012Metric_Pad1.15x1.40mm_HandSolder" H 4488 2450 50  0001 C CNN
F 3 "~" H 4450 2600 50  0001 C CNN
	1    4450 2600
	0    1    1    0   
$EndComp
$Comp
L Device:C C6
U 1 1 5F7C508B
P 4450 3000
F 0 "C6" V 4198 3000 50  0000 C CNN
F 1 "C" V 4289 3000 50  0000 C CNN
F 2 "Capacitor_SMD:C_0805_2012Metric_Pad1.15x1.40mm_HandSolder" H 4488 2850 50  0001 C CNN
F 3 "~" H 4450 3000 50  0001 C CNN
	1    4450 3000
	0    1    1    0   
$EndComp
Wire Wire Line
	3300 2600 3300 2800
Wire Wire Line
	3800 2600 3800 2800
Connection ~ 3800 2800
Wire Wire Line
	3800 2800 3800 3000
Wire Wire Line
	3600 2600 3600 2800
Wire Wire Line
	3600 2800 3800 2800
Connection ~ 3600 2800
Wire Wire Line
	3600 2800 3600 3000
Wire Wire Line
	4100 2600 4100 2800
Wire Wire Line
	4300 2600 4300 2800
Wire Wire Line
	4800 2800 4600 2800
Connection ~ 4600 2800
Wire Wire Line
	4600 2800 4600 3000
Wire Wire Line
	4600 2600 4600 2800
Wire Wire Line
	4100 2800 4300 2800
Connection ~ 4100 2800
Wire Wire Line
	4100 2800 4100 3000
Connection ~ 4300 2800
Wire Wire Line
	4300 2800 4300 3000
Wire Wire Line
	3000 2800 3300 2800
Connection ~ 3300 2800
Wire Wire Line
	3300 2800 3300 3000
$Comp
L power:GND #PWR0101
U 1 1 5F7C8708
P 2800 3150
F 0 "#PWR0101" H 2800 2900 50  0001 C CNN
F 1 "GND" H 2805 2977 50  0000 C CNN
F 2 "" H 2800 3150 50  0001 C CNN
F 3 "" H 2800 3150 50  0001 C CNN
	1    2800 3150
	1    0    0    -1  
$EndComp
$Comp
L power:GND #PWR0102
U 1 1 5F7C9508
P 6550 3050
F 0 "#PWR0102" H 6550 2800 50  0001 C CNN
F 1 "GND" H 6555 2877 50  0000 C CNN
F 2 "" H 6550 3050 50  0001 C CNN
F 3 "" H 6550 3050 50  0001 C CNN
	1    6550 3050
	1    0    0    -1  
$EndComp
Wire Wire Line
	6550 3050 6550 2800
Wire Wire Line
	6550 2800 6450 2800
Wire Wire Line
	2800 3150 2800 3000
$Comp
L antenna:antenna A4
U 1 1 5F7C2DCA
P 6250 4400
F 0 "A4" H 6412 4775 50  0000 C CNN
F 1 "antenna" H 6412 4684 50  0000 C CNN
F 2 "antenna:antenna_4" H 6250 4400 50  0001 C CNN
F 3 "" H 6250 4400 50  0001 C CNN
	1    6250 4400
	1    0    0    -1  
$EndComp
Wire Wire Line
	5400 4250 5950 4250
$Comp
L antenna:antenna A3
U 1 1 5F7C2DD1
P 5100 4400
F 0 "A3" H 5262 4775 50  0000 C CNN
F 1 "antenna" H 5262 4684 50  0000 C CNN
F 2 "antenna:antenna_3" H 5100 4400 50  0001 C CNN
F 3 "" H 5100 4400 50  0001 C CNN
	1    5100 4400
	1    0    0    -1  
$EndComp
$Comp
L Connector:Conn_Coaxial J2
U 1 1 5F7C2DD7
P 2800 4250
F 0 "J2" H 2728 4488 50  0000 C CNN
F 1 "Conn_Coaxial" H 2728 4397 50  0000 C CNN
F 2 "Connector_Coaxial:SMA_Molex_73251-2200_Horizontal" H 2800 4250 50  0001 C CNN
F 3 " ~" H 2800 4250 50  0001 C CNN
	1    2800 4250
	-1   0    0    -1  
$EndComp
$Comp
L Device:C C7
U 1 1 5F7C2DDD
P 3450 4050
F 0 "C7" V 3198 4050 50  0000 C CNN
F 1 "C" V 3289 4050 50  0000 C CNN
F 2 "Capacitor_SMD:C_0805_2012Metric_Pad1.15x1.40mm_HandSolder" H 3488 3900 50  0001 C CNN
F 3 "~" H 3450 4050 50  0001 C CNN
	1    3450 4050
	0    1    1    0   
$EndComp
$Comp
L Device:C C8
U 1 1 5F7C2DE3
P 3450 4450
F 0 "C8" V 3198 4450 50  0000 C CNN
F 1 "C" V 3289 4450 50  0000 C CNN
F 2 "Capacitor_SMD:C_0805_2012Metric_Pad1.15x1.40mm_HandSolder" H 3488 4300 50  0001 C CNN
F 3 "~" H 3450 4450 50  0001 C CNN
	1    3450 4450
	0    1    1    0   
$EndComp
$Comp
L Device:C C9
U 1 1 5F7C2DE9
P 3950 4050
F 0 "C9" V 3698 4050 50  0000 C CNN
F 1 "C" V 3789 4050 50  0000 C CNN
F 2 "Capacitor_SMD:C_0805_2012Metric_Pad1.15x1.40mm_HandSolder" H 3988 3900 50  0001 C CNN
F 3 "~" H 3950 4050 50  0001 C CNN
	1    3950 4050
	0    1    1    0   
$EndComp
$Comp
L Device:C C10
U 1 1 5F7C2DEF
P 3950 4450
F 0 "C10" V 3698 4450 50  0000 C CNN
F 1 "C" V 3789 4450 50  0000 C CNN
F 2 "Capacitor_SMD:C_0805_2012Metric_Pad1.15x1.40mm_HandSolder" H 3988 4300 50  0001 C CNN
F 3 "~" H 3950 4450 50  0001 C CNN
	1    3950 4450
	0    1    1    0   
$EndComp
$Comp
L Device:C C11
U 1 1 5F7C2DF5
P 4450 4050
F 0 "C11" V 4198 4050 50  0000 C CNN
F 1 "C" V 4289 4050 50  0000 C CNN
F 2 "Capacitor_SMD:C_0805_2012Metric_Pad1.15x1.40mm_HandSolder" H 4488 3900 50  0001 C CNN
F 3 "~" H 4450 4050 50  0001 C CNN
	1    4450 4050
	0    1    1    0   
$EndComp
$Comp
L Device:C C12
U 1 1 5F7C2DFB
P 4450 4450
F 0 "C12" V 4198 4450 50  0000 C CNN
F 1 "C" V 4289 4450 50  0000 C CNN
F 2 "Capacitor_SMD:C_0805_2012Metric_Pad1.15x1.40mm_HandSolder" H 4488 4300 50  0001 C CNN
F 3 "~" H 4450 4450 50  0001 C CNN
	1    4450 4450
	0    1    1    0   
$EndComp
Wire Wire Line
	3300 4050 3300 4250
Wire Wire Line
	3800 4050 3800 4250
Connection ~ 3800 4250
Wire Wire Line
	3800 4250 3800 4450
Wire Wire Line
	3600 4050 3600 4250
Wire Wire Line
	3600 4250 3800 4250
Connection ~ 3600 4250
Wire Wire Line
	3600 4250 3600 4450
Wire Wire Line
	4100 4050 4100 4250
Wire Wire Line
	4300 4050 4300 4250
Wire Wire Line
	4800 4250 4600 4250
Connection ~ 4600 4250
Wire Wire Line
	4600 4250 4600 4450
Wire Wire Line
	4600 4050 4600 4250
Wire Wire Line
	4100 4250 4300 4250
Connection ~ 4100 4250
Wire Wire Line
	4100 4250 4100 4450
Connection ~ 4300 4250
Wire Wire Line
	4300 4250 4300 4450
Wire Wire Line
	3000 4250 3300 4250
Connection ~ 3300 4250
Wire Wire Line
	3300 4250 3300 4450
$Comp
L power:GND #PWR?
U 1 1 5F7C2E17
P 2800 4600
F 0 "#PWR?" H 2800 4350 50  0001 C CNN
F 1 "GND" H 2805 4427 50  0000 C CNN
F 2 "" H 2800 4600 50  0001 C CNN
F 3 "" H 2800 4600 50  0001 C CNN
	1    2800 4600
	1    0    0    -1  
$EndComp
$Comp
L power:GND #PWR?
U 1 1 5F7C2E1D
P 6550 4500
F 0 "#PWR?" H 6550 4250 50  0001 C CNN
F 1 "GND" H 6555 4327 50  0000 C CNN
F 2 "" H 6550 4500 50  0001 C CNN
F 3 "" H 6550 4500 50  0001 C CNN
	1    6550 4500
	1    0    0    -1  
$EndComp
Wire Wire Line
	6550 4500 6550 4250
Wire Wire Line
	6550 4250 6450 4250
Wire Wire Line
	2800 4600 2800 4450
$EndSCHEMATC
