G04 #@! TF.GenerationSoftware,KiCad,Pcbnew,(5.1.0)-1*
G04 #@! TF.CreationDate,2021-06-03T15:22:29+01:00*
G04 #@! TF.ProjectId,single_coil,73696e67-6c65-45f6-936f-696c2e6b6963,rev?*
G04 #@! TF.SameCoordinates,Original*
G04 #@! TF.FileFunction,Legend,Bot*
G04 #@! TF.FilePolarity,Positive*
%FSLAX46Y46*%
G04 Gerber Fmt 4.6, Leading zero omitted, Abs format (unit mm)*
G04 Created by KiCad (PCBNEW (5.1.0)-1) date 2021-06-03 15:22:29*
%MOMM*%
%LPD*%
G04 APERTURE LIST*
%ADD10C,0.500000*%
%ADD11C,0.150000*%
G04 APERTURE END LIST*
D10*
X157500000Y-112150000D02*
G75*
G03X157750000Y-112400000I250000J0D01*
G01*
X157500000Y-88900000D02*
X157500000Y-112150000D01*
D11*
X142452380Y-103066666D02*
X141976190Y-102733333D01*
X142452380Y-102495238D02*
X141452380Y-102495238D01*
X141452380Y-102876190D01*
X141500000Y-102971428D01*
X141547619Y-103019047D01*
X141642857Y-103066666D01*
X141785714Y-103066666D01*
X141880952Y-103019047D01*
X141928571Y-102971428D01*
X141976190Y-102876190D01*
X141976190Y-102495238D01*
X141928571Y-103495238D02*
X141928571Y-103828571D01*
X142452380Y-103971428D02*
X142452380Y-103495238D01*
X141452380Y-103495238D01*
X141452380Y-103971428D01*
X141928571Y-104733333D02*
X141928571Y-104400000D01*
X142452380Y-104400000D02*
X141452380Y-104400000D01*
X141452380Y-104876190D01*
X141452380Y-105400000D02*
X141690476Y-105400000D01*
X141595238Y-105161904D02*
X141690476Y-105400000D01*
X141595238Y-105638095D01*
X141880952Y-105257142D02*
X141690476Y-105400000D01*
X141880952Y-105542857D01*
X141452380Y-106161904D02*
X141690476Y-106161904D01*
X141595238Y-105923809D02*
X141690476Y-106161904D01*
X141595238Y-106400000D01*
X141880952Y-106019047D02*
X141690476Y-106161904D01*
X141880952Y-106304761D01*
X142452380Y-100066666D02*
X141976190Y-99733333D01*
X142452380Y-99495238D02*
X141452380Y-99495238D01*
X141452380Y-99876190D01*
X141500000Y-99971428D01*
X141547619Y-100019047D01*
X141642857Y-100066666D01*
X141785714Y-100066666D01*
X141880952Y-100019047D01*
X141928571Y-99971428D01*
X141976190Y-99876190D01*
X141976190Y-99495238D01*
X141928571Y-100495238D02*
X141928571Y-100828571D01*
X142452380Y-100971428D02*
X142452380Y-100495238D01*
X141452380Y-100495238D01*
X141452380Y-100971428D01*
X141928571Y-101733333D02*
X141928571Y-101400000D01*
X142452380Y-101400000D02*
X141452380Y-101400000D01*
X141452380Y-101876190D01*
X141452380Y-102400000D02*
X141690476Y-102400000D01*
X141595238Y-102161904D02*
X141690476Y-102400000D01*
X141595238Y-102638095D01*
X141880952Y-102257142D02*
X141690476Y-102400000D01*
X141880952Y-102542857D01*
X141452380Y-103161904D02*
X141690476Y-103161904D01*
X141595238Y-102923809D02*
X141690476Y-103161904D01*
X141595238Y-103400000D01*
X141880952Y-103019047D02*
X141690476Y-103161904D01*
X141880952Y-103304761D01*
M02*
