(kicad_pcb (version 20171130) (host pcbnew "(5.1.0)-1")

  (general
    (thickness 1.6)
    (drawings 51)
    (tracks 39)
    (zones 0)
    (modules 22)
    (nets 6)
  )

  (page A4)
  (layers
    (0 F.Cu signal)
    (31 B.Cu signal)
    (32 B.Adhes user)
    (33 F.Adhes user)
    (34 B.Paste user hide)
    (35 F.Paste user)
    (36 B.SilkS user)
    (37 F.SilkS user hide)
    (38 B.Mask user)
    (39 F.Mask user)
    (40 Dwgs.User user)
    (41 Cmts.User user)
    (42 Eco1.User user)
    (43 Eco2.User user hide)
    (44 Edge.Cuts user)
    (45 Margin user)
    (46 B.CrtYd user)
    (47 F.CrtYd user)
    (48 B.Fab user)
    (49 F.Fab user)
  )

  (setup
    (last_trace_width 0.25)
    (trace_clearance 0.2)
    (zone_clearance 0.508)
    (zone_45_only no)
    (trace_min 0.2)
    (via_size 0.8)
    (via_drill 0.4)
    (via_min_size 0.4)
    (via_min_drill 0.3)
    (uvia_size 0.3)
    (uvia_drill 0.1)
    (uvias_allowed no)
    (uvia_min_size 0.2)
    (uvia_min_drill 0.1)
    (edge_width 0.05)
    (segment_width 0.2)
    (pcb_text_width 0.3)
    (pcb_text_size 1.5 1.5)
    (mod_edge_width 0.12)
    (mod_text_size 1 1)
    (mod_text_width 0.15)
    (pad_size 2.25 2.25)
    (pad_drill 1.5)
    (pad_to_mask_clearance 0.051)
    (solder_mask_min_width 0.25)
    (aux_axis_origin 0 0)
    (grid_origin 142.15 139.15)
    (visible_elements 7FFFFFFF)
    (pcbplotparams
      (layerselection 0x010fc_ffffffff)
      (usegerberextensions false)
      (usegerberattributes false)
      (usegerberadvancedattributes false)
      (creategerberjobfile false)
      (excludeedgelayer true)
      (linewidth 0.100000)
      (plotframeref false)
      (viasonmask false)
      (mode 1)
      (useauxorigin false)
      (hpglpennumber 1)
      (hpglpenspeed 20)
      (hpglpendiameter 15.000000)
      (psnegative false)
      (psa4output false)
      (plotreference true)
      (plotvalue true)
      (plotinvisibletext false)
      (padsonsilk false)
      (subtractmaskfromsilk false)
      (outputformat 1)
      (mirror false)
      (drillshape 0)
      (scaleselection 1)
      (outputdirectory "gerber/"))
  )

  (net 0 "")
  (net 1 "Net-(J2-Pad5)")
  (net 2 GND)
  (net 3 "Net-(J3-Pad5)")
  (net 4 "Net-(J4-Pad5)")
  (net 5 "Net-(J5-Pad5)")

  (net_class Default "This is the default net class."
    (clearance 0.2)
    (trace_width 0.25)
    (via_dia 0.8)
    (via_drill 0.4)
    (uvia_dia 0.3)
    (uvia_drill 0.1)
    (add_net GND)
    (add_net "Net-(J2-Pad5)")
    (add_net "Net-(J3-Pad5)")
    (add_net "Net-(J4-Pad5)")
    (add_net "Net-(J5-Pad5)")
  )

  (module antenna:antenna_3 (layer B.Cu) (tedit 60B8E6B5) (tstamp 60B7C7A3)
    (at 145 101.4 90)
    (fp_text reference REF** (at -3 -3 90) (layer B.SilkS)
      (effects (font (size 1 1) (thickness 0.15)) (justify mirror))
    )
    (fp_text value antenna_3 (at 5 -3 90) (layer B.Fab)
      (effects (font (size 1 1) (thickness 0.15)) (justify mirror))
    )
    (fp_arc (start -8.25 5.75) (end -8.25 5) (angle 90) (layer B.Cu) (width 0.5))
    (fp_arc (start -9.5 8) (end -9.5 7.5) (angle 90) (layer B.Cu) (width 0.5))
    (fp_arc (start -25.75 7.75) (end -25.75 7.5) (angle -90) (layer B.Cu) (width 0.5))
    (fp_arc (start -10.25 10.25) (end -10.5 10.25) (angle 90) (layer B.SilkS) (width 0.5))
    (fp_line (start 12 10) (end -10.25 10) (layer B.SilkS) (width 0.5))
    (fp_arc (start -25.75 52.25) (end -26 52.25) (angle -90) (layer B.Cu) (width 0.5))
    (fp_arc (start -30.5 5.5) (end -30.5 5) (angle -90) (layer B.Cu) (width 0.5))
    (fp_arc (start -35.25 3.25) (end -35.25 2.5) (angle -90) (layer B.Cu) (width 0.5))
    (fp_arc (start -7 3.5) (end -6 3.5) (angle -90) (layer B.Cu) (width 0.5))
    (fp_arc (start -7 59) (end -7 60) (angle -90) (layer B.Cu) (width 0.5))
    (fp_arc (start -40 59) (end -41 59) (angle -90) (layer B.Cu) (width 0.5))
    (fp_arc (start -35.25 56.75) (end -36 56.75) (angle -90) (layer B.Cu) (width 0.5))
    (fp_arc (start -30.5 54.5) (end -31 54.5) (angle -90) (layer B.Cu) (width 0.5))
    (fp_text user REF** (at 0 -3 90) (layer B.SilkS)
      (effects (font (size 1 1) (thickness 0.15)) (justify mirror))
    )
    (fp_text user antenna_3 (at -8 -3 90) (layer B.Fab)
      (effects (font (size 1 1) (thickness 0.15)) (justify mirror))
    )
    (fp_line (start -6 3.5) (end -6 59) (layer B.Cu) (width 0.5))
    (fp_line (start -7 60) (end -40 60) (layer B.Cu) (width 0.5))
    (fp_line (start -30.5 5) (end -8.25 5) (layer B.Cu) (width 0.5))
    (fp_line (start -36 56.75) (end -36 3.25) (layer B.Cu) (width 0.5))
    (fp_line (start -8.25 57.5) (end -35.25 57.5) (layer B.Cu) (width 0.5))
    (fp_line (start -9 8) (end -9 54.5) (layer B.Cu) (width 0.5))
    (fp_line (start -10.5 10.25) (end -10.5 52.25) (layer B.Cu) (width 0.5))
    (fp_line (start -26 52.25) (end -26 7.75) (layer B.Cu) (width 0.5))
    (fp_line (start -9.5 55) (end -30.5 55) (layer B.Cu) (width 0.5))
    (fp_line (start -31 54.5) (end -31 5.5) (layer B.Cu) (width 0.5))
    (fp_arc (start -9.5 54.5) (end -9.5 55) (angle -90) (layer B.Cu) (width 0.5))
    (fp_line (start -10.75 52.5) (end -25.75 52.5) (layer B.Cu) (width 0.5))
    (fp_arc (start -10.75 52.25) (end -10.75 52.5) (angle -90) (layer B.Cu) (width 0.5))
    (fp_line (start -7.5 5.75) (end -7.5 56.75) (layer B.Cu) (width 0.5))
    (fp_line (start -35.25 2.5) (end -7 2.5) (layer B.Cu) (width 0.5))
    (fp_line (start -25.75 7.5) (end -9.5 7.5) (layer B.Cu) (width 0.5))
    (fp_arc (start -8.25 56.75) (end -8.25 57.5) (angle -90) (layer B.Cu) (width 0.5))
    (fp_arc (start 11 8) (end 10.5 8) (angle 90) (layer B.Cu) (width 0.5))
    (fp_arc (start 9.75 5.75) (end 9 5.75) (angle 90) (layer B.Cu) (width 0.5))
    (fp_arc (start 8.5 3.5) (end 7.5 3.5) (angle 90) (layer B.Cu) (width 0.5))
    (fp_arc (start 40 3.5) (end 40 2.5) (angle 90) (layer B.Cu) (width 0.5))
    (fp_arc (start 35.25 5.75) (end 35.25 5) (angle 90) (layer B.Cu) (width 0.5))
    (fp_arc (start 30.5 8) (end 30.5 7.5) (angle 90) (layer B.Cu) (width 0.5))
    (fp_arc (start 25.75 10.25) (end 25.75 10) (angle 90) (layer B.Cu) (width 0.5))
    (fp_arc (start 25.75 52.25) (end 26 52.25) (angle 90) (layer B.Cu) (width 0.5))
    (fp_arc (start 30.5 54.5) (end 31 54.5) (angle 90) (layer B.Cu) (width 0.5))
    (fp_arc (start 35.25 56.75) (end 36 56.75) (angle 90) (layer B.Cu) (width 0.5))
    (fp_arc (start 40 59) (end 41 59) (angle 90) (layer B.Cu) (width 0.5))
    (fp_arc (start 7 59) (end 7 60) (angle 90) (layer B.Cu) (width 0.5))
    (fp_arc (start 8.25 56.75) (end 8.25 57.5) (angle 90) (layer B.Cu) (width 0.5))
    (fp_arc (start 9.5 54.5) (end 9.5 55) (angle 90) (layer B.Cu) (width 0.5))
    (fp_arc (start 10.75 52.25) (end 10.75 52.5) (angle 90) (layer B.Cu) (width 0.5))
    (fp_line (start 25.75 10) (end 12 10) (layer B.Cu) (width 0.5))
    (fp_line (start 26 52.25) (end 26 10.25) (layer B.Cu) (width 0.5))
    (fp_line (start 10.75 52.5) (end 25.75 52.5) (layer B.Cu) (width 0.5))
    (fp_line (start 10.5 8) (end 10.5 52.25) (layer B.Cu) (width 0.5))
    (fp_line (start 30.5 7.5) (end 11 7.5) (layer B.Cu) (width 0.5))
    (fp_line (start 31 54.5) (end 31 8) (layer B.Cu) (width 0.5))
    (fp_line (start 9.5 55) (end 30.5 55) (layer B.Cu) (width 0.5))
    (fp_line (start 9 5.75) (end 9 54.5) (layer B.Cu) (width 0.5))
    (fp_line (start 35.25 5) (end 9.75 5) (layer B.Cu) (width 0.5))
    (fp_line (start 36 56.75) (end 36 5.75) (layer B.Cu) (width 0.5))
    (fp_line (start 8.25 57.5) (end 35.25 57.5) (layer B.Cu) (width 0.5))
    (fp_line (start 7.5 3.5) (end 7.5 56.75) (layer B.Cu) (width 0.5))
    (fp_line (start 40 2.5) (end 8.5 2.5) (layer B.Cu) (width 0.5))
    (fp_line (start 41 59) (end 41 3.5) (layer B.Cu) (width 0.5))
    (fp_line (start 7 60) (end 40 60) (layer B.Cu) (width 0.5))
    (fp_line (start 6 0) (end 6 59) (layer B.Cu) (width 0.5))
  )

  (module antenna:antenna_3 (layer F.Cu) (tedit 60B8E69F) (tstamp 60B7B616)
    (at 175 131.4)
    (fp_text reference REF** (at -3 3) (layer F.SilkS)
      (effects (font (size 1 1) (thickness 0.15)))
    )
    (fp_text value antenna_3 (at 5 3) (layer F.Fab)
      (effects (font (size 1 1) (thickness 0.15)))
    )
    (fp_arc (start -7 1) (end -6 1) (angle -90) (layer F.Cu) (width 0.5))
    (fp_line (start -40 0) (end -7 0) (layer F.Cu) (width 0.5))
    (fp_arc (start -8.25 -5.75) (end -8.25 -5) (angle -90) (layer F.Cu) (width 0.5))
    (fp_arc (start -9.5 -8) (end -9.5 -7.5) (angle -90) (layer F.Cu) (width 0.5))
    (fp_arc (start -25.75 -7.75) (end -25.75 -7.5) (angle 90) (layer F.Cu) (width 0.5))
    (fp_arc (start -10.25 -10.25) (end -10.5 -10.25) (angle -90) (layer F.SilkS) (width 0.5))
    (fp_line (start 12 -10) (end -10.25 -10) (layer F.SilkS) (width 0.5))
    (fp_arc (start -25.75 -52.25) (end -26 -52.25) (angle 90) (layer F.Cu) (width 0.5))
    (fp_arc (start -30.5 -5.5) (end -30.5 -5) (angle 90) (layer F.Cu) (width 0.5))
    (fp_arc (start -35.25 -3.25) (end -35.25 -2.5) (angle 90) (layer F.Cu) (width 0.5))
    (fp_arc (start -40 -1) (end -40 0) (angle 90) (layer F.Cu) (width 0.5))
    (fp_arc (start -7 -3.5) (end -6 -3.5) (angle 90) (layer F.Cu) (width 0.5))
    (fp_arc (start -7 -59) (end -7 -60) (angle 90) (layer F.Cu) (width 0.5))
    (fp_arc (start -40 -59) (end -41 -59) (angle 90) (layer F.Cu) (width 0.5))
    (fp_arc (start -35.25 -56.75) (end -36 -56.75) (angle 90) (layer F.Cu) (width 0.5))
    (fp_arc (start -30.5 -54.5) (end -31 -54.5) (angle 90) (layer F.Cu) (width 0.5))
    (fp_text user REF** (at 0 3) (layer F.SilkS)
      (effects (font (size 1 1) (thickness 0.15)))
    )
    (fp_text user antenna_3 (at -8 3) (layer F.Fab)
      (effects (font (size 1 1) (thickness 0.15)))
    )
    (fp_line (start -6 -3.5) (end -6 -59) (layer F.Cu) (width 0.5))
    (fp_line (start -7 -60) (end -40 -60) (layer F.Cu) (width 0.5))
    (fp_line (start -30.5 -5) (end -8.25 -5) (layer F.Cu) (width 0.5))
    (fp_line (start -36 -56.75) (end -36 -3.25) (layer F.Cu) (width 0.5))
    (fp_line (start -8.25 -57.5) (end -35.25 -57.5) (layer F.Cu) (width 0.5))
    (fp_line (start -9 -8) (end -9 -54.5) (layer F.Cu) (width 0.5))
    (fp_line (start -10.5 -10.25) (end -10.5 -52.25) (layer F.Cu) (width 0.5))
    (fp_line (start -26 -52.25) (end -26 -7.75) (layer F.Cu) (width 0.5))
    (fp_line (start -41 -59) (end -41 -1) (layer F.Cu) (width 0.5))
    (fp_line (start -9.5 -55) (end -30.5 -55) (layer F.Cu) (width 0.5))
    (fp_line (start -31 -54.5) (end -31 -5.5) (layer F.Cu) (width 0.5))
    (fp_arc (start -9.5 -54.5) (end -9.5 -55) (angle 90) (layer F.Cu) (width 0.5))
    (fp_line (start -10.75 -52.5) (end -25.75 -52.5) (layer F.Cu) (width 0.5))
    (fp_arc (start -10.75 -52.25) (end -10.75 -52.5) (angle 90) (layer F.Cu) (width 0.5))
    (fp_line (start -7.5 -5.75) (end -7.5 -56.75) (layer F.Cu) (width 0.5))
    (fp_line (start -35.25 -2.5) (end -7 -2.5) (layer F.Cu) (width 0.5))
    (fp_line (start -25.75 -7.5) (end -9.5 -7.5) (layer F.Cu) (width 0.5))
    (fp_arc (start -8.25 -56.75) (end -8.25 -57.5) (angle 90) (layer F.Cu) (width 0.5))
    (fp_arc (start 11 -8) (end 10.5 -8) (angle -90) (layer F.Cu) (width 0.5))
    (fp_arc (start 9.75 -5.75) (end 9 -5.75) (angle -90) (layer F.Cu) (width 0.5))
    (fp_arc (start 8.5 -3.5) (end 7.5 -3.5) (angle -90) (layer F.Cu) (width 0.5))
    (fp_arc (start 40 -3.5) (end 40 -2.5) (angle -90) (layer F.Cu) (width 0.5))
    (fp_arc (start 35.25 -5.75) (end 35.25 -5) (angle -90) (layer F.Cu) (width 0.5))
    (fp_arc (start 30.5 -8) (end 30.5 -7.5) (angle -90) (layer F.Cu) (width 0.5))
    (fp_arc (start 25.75 -10.25) (end 25.75 -10) (angle -90) (layer F.Cu) (width 0.5))
    (fp_arc (start 25.75 -52.25) (end 26 -52.25) (angle -90) (layer F.Cu) (width 0.5))
    (fp_arc (start 30.5 -54.5) (end 31 -54.5) (angle -90) (layer F.Cu) (width 0.5))
    (fp_arc (start 35.25 -56.75) (end 36 -56.75) (angle -90) (layer F.Cu) (width 0.5))
    (fp_arc (start 40 -59) (end 41 -59) (angle -90) (layer F.Cu) (width 0.5))
    (fp_arc (start 7 -59) (end 7 -60) (angle -90) (layer F.Cu) (width 0.5))
    (fp_arc (start 8.25 -56.75) (end 8.25 -57.5) (angle -90) (layer F.Cu) (width 0.5))
    (fp_arc (start 9.5 -54.5) (end 9.5 -55) (angle -90) (layer F.Cu) (width 0.5))
    (fp_arc (start 10.75 -52.25) (end 10.75 -52.5) (angle -90) (layer F.Cu) (width 0.5))
    (fp_line (start 25.75 -10) (end 12 -10) (layer F.Cu) (width 0.5))
    (fp_line (start 26 -52.25) (end 26 -10.25) (layer F.Cu) (width 0.5))
    (fp_line (start 10.75 -52.5) (end 25.75 -52.5) (layer F.Cu) (width 0.5))
    (fp_line (start 10.5 -8) (end 10.5 -52.25) (layer F.Cu) (width 0.5))
    (fp_line (start 30.5 -7.5) (end 11 -7.5) (layer F.Cu) (width 0.5))
    (fp_line (start 31 -54.5) (end 31 -8) (layer F.Cu) (width 0.5))
    (fp_line (start 9.5 -55) (end 30.5 -55) (layer F.Cu) (width 0.5))
    (fp_line (start 9 -5.75) (end 9 -54.5) (layer F.Cu) (width 0.5))
    (fp_line (start 35.25 -5) (end 9.75 -5) (layer F.Cu) (width 0.5))
    (fp_line (start 36 -56.75) (end 36 -5.75) (layer F.Cu) (width 0.5))
    (fp_line (start 8.25 -57.5) (end 35.25 -57.5) (layer F.Cu) (width 0.5))
    (fp_line (start 7.5 -3.5) (end 7.5 -56.75) (layer F.Cu) (width 0.5))
    (fp_line (start 40 -2.5) (end 8.5 -2.5) (layer F.Cu) (width 0.5))
    (fp_line (start 41 -59) (end 41 -3.5) (layer F.Cu) (width 0.5))
    (fp_line (start 7 -60) (end 40 -60) (layer F.Cu) (width 0.5))
    (fp_line (start 6 0) (end 6 -59) (layer F.Cu) (width 0.5))
  )

  (module SamacSys_Parts:3-1478978-1 (layer F.Cu) (tedit 0) (tstamp 60B8014C)
    (at 196.1 177.4 180)
    (descr 3-1478978-1)
    (tags Connector)
    (path /60B7D06F)
    (fp_text reference J5 (at -0.48 -2.379 180) (layer F.SilkS) hide
      (effects (font (size 1.27 1.27) (thickness 0.254)))
    )
    (fp_text value 3-1478978-1 (at -0.48 -2.379 180) (layer F.SilkS) hide
      (effects (font (size 1.27 1.27) (thickness 0.254)))
    )
    (fp_line (start 3.175 -1.202) (end 3.175 1.202) (layer F.SilkS) (width 0.2))
    (fp_line (start -3.175 -1.202) (end -3.175 1.202) (layer F.SilkS) (width 0.2))
    (fp_line (start -1.202 3.175) (end 1.202 3.175) (layer F.SilkS) (width 0.2))
    (fp_line (start -1.202 -3.175) (end 1.202 -3.175) (layer F.SilkS) (width 0.2))
    (fp_line (start 3.175 -12.375) (end 3.175 -3.975) (layer F.SilkS) (width 0.2))
    (fp_line (start -3.175 -12.375) (end -3.175 -3.975) (layer F.SilkS) (width 0.2))
    (fp_line (start -3.175 -12.375) (end 3.175 -12.375) (layer F.SilkS) (width 0.2))
    (fp_line (start 3.175 -12.375) (end 3.175 -3.175) (layer F.Fab) (width 0.2))
    (fp_line (start -3.175 -12.375) (end 3.175 -12.375) (layer F.Fab) (width 0.2))
    (fp_line (start -3.175 -3.175) (end -3.175 -12.375) (layer F.Fab) (width 0.2))
    (fp_line (start -3.175 3.175) (end -3.175 -3.175) (layer F.Fab) (width 0.2))
    (fp_line (start 3.175 3.175) (end -3.175 3.175) (layer F.Fab) (width 0.2))
    (fp_line (start 3.175 -3.175) (end 3.175 3.175) (layer F.Fab) (width 0.2))
    (fp_line (start -3.175 -3.175) (end 3.175 -3.175) (layer F.Fab) (width 0.2))
    (fp_text user %R (at -0.48 -2.379 180) (layer F.Fab)
      (effects (font (size 1.27 1.27) (thickness 0.254)))
    )
    (pad 5 thru_hole circle (at 0 0 180) (size 2.25 2.25) (drill 1.5) (layers *.Cu *.Mask)
      (net 5 "Net-(J5-Pad5)"))
    (pad 4 thru_hole circle (at 2.54 2.54 180) (size 2.45 2.45) (drill 1.6) (layers *.Cu *.Mask)
      (net 2 GND))
    (pad 3 thru_hole circle (at -2.54 2.54 180) (size 2.45 2.45) (drill 1.6) (layers *.Cu *.Mask)
      (net 2 GND))
    (pad 2 thru_hole circle (at 2.54 -2.54 180) (size 2.45 2.45) (drill 1.6) (layers *.Cu *.Mask)
      (net 2 GND))
    (pad 1 thru_hole circle (at -2.54 -2.54 180) (size 2.45 2.45) (drill 1.6) (layers *.Cu *.Mask)
      (net 2 GND))
    (model \\alfs1.physics.ox.ac.uk\al\beregi\kicad\SamacSys_Parts.3dshapes\3-1478978-1.stp
      (offset (xyz 0 12.43999939355334 6.78999985987746))
      (scale (xyz 1 1 1))
      (rotate (xyz -90 0 -180))
    )
  )

  (module SamacSys_Parts:3-1478978-1 (layer F.Cu) (tedit 0) (tstamp 60B80134)
    (at 167.25 177.4 180)
    (descr 3-1478978-1)
    (tags Connector)
    (path /60B7C780)
    (fp_text reference J4 (at -0.48 -2.379 180) (layer F.SilkS) hide
      (effects (font (size 1.27 1.27) (thickness 0.254)))
    )
    (fp_text value 3-1478978-1 (at -0.48 -2.379 180) (layer F.SilkS) hide
      (effects (font (size 1.27 1.27) (thickness 0.254)))
    )
    (fp_line (start 3.175 -1.202) (end 3.175 1.202) (layer F.SilkS) (width 0.2))
    (fp_line (start -3.175 -1.202) (end -3.175 1.202) (layer F.SilkS) (width 0.2))
    (fp_line (start -1.202 3.175) (end 1.202 3.175) (layer F.SilkS) (width 0.2))
    (fp_line (start -1.202 -3.175) (end 1.202 -3.175) (layer F.SilkS) (width 0.2))
    (fp_line (start 3.175 -12.375) (end 3.175 -3.975) (layer F.SilkS) (width 0.2))
    (fp_line (start -3.175 -12.375) (end -3.175 -3.975) (layer F.SilkS) (width 0.2))
    (fp_line (start -3.175 -12.375) (end 3.175 -12.375) (layer F.SilkS) (width 0.2))
    (fp_line (start 3.175 -12.375) (end 3.175 -3.175) (layer F.Fab) (width 0.2))
    (fp_line (start -3.175 -12.375) (end 3.175 -12.375) (layer F.Fab) (width 0.2))
    (fp_line (start -3.175 -3.175) (end -3.175 -12.375) (layer F.Fab) (width 0.2))
    (fp_line (start -3.175 3.175) (end -3.175 -3.175) (layer F.Fab) (width 0.2))
    (fp_line (start 3.175 3.175) (end -3.175 3.175) (layer F.Fab) (width 0.2))
    (fp_line (start 3.175 -3.175) (end 3.175 3.175) (layer F.Fab) (width 0.2))
    (fp_line (start -3.175 -3.175) (end 3.175 -3.175) (layer F.Fab) (width 0.2))
    (fp_text user %R (at -0.48 -2.379 180) (layer F.Fab)
      (effects (font (size 1.27 1.27) (thickness 0.254)))
    )
    (pad 5 thru_hole circle (at 0 0 180) (size 2.25 2.25) (drill 1.5) (layers *.Cu *.Mask)
      (net 4 "Net-(J4-Pad5)"))
    (pad 4 thru_hole circle (at 2.54 2.54 180) (size 2.45 2.45) (drill 1.6) (layers *.Cu *.Mask)
      (net 2 GND))
    (pad 3 thru_hole circle (at -2.54 2.54 180) (size 2.45 2.45) (drill 1.6) (layers *.Cu *.Mask)
      (net 2 GND))
    (pad 2 thru_hole circle (at 2.54 -2.54 180) (size 2.45 2.45) (drill 1.6) (layers *.Cu *.Mask)
      (net 2 GND))
    (pad 1 thru_hole circle (at -2.54 -2.54 180) (size 2.45 2.45) (drill 1.6) (layers *.Cu *.Mask)
      (net 2 GND))
    (model \\alfs1.physics.ox.ac.uk\al\beregi\kicad\SamacSys_Parts.3dshapes\3-1478978-1.stp
      (offset (xyz 0 12.43999939355334 6.78999985987746))
      (scale (xyz 1 1 1))
      (rotate (xyz -90 0 -180))
    )
  )

  (module SamacSys_Parts:3-1478978-1 (layer F.Cu) (tedit 0) (tstamp 60B8011C)
    (at 182.75 177.4 180)
    (descr 3-1478978-1)
    (tags Connector)
    (path /60B7C33F)
    (fp_text reference J3 (at -0.48 -2.379 180) (layer F.SilkS) hide
      (effects (font (size 1.27 1.27) (thickness 0.254)))
    )
    (fp_text value 3-1478978-1 (at -0.48 -2.379 180) (layer F.SilkS) hide
      (effects (font (size 1.27 1.27) (thickness 0.254)))
    )
    (fp_line (start 3.175 -1.202) (end 3.175 1.202) (layer F.SilkS) (width 0.2))
    (fp_line (start -3.175 -1.202) (end -3.175 1.202) (layer F.SilkS) (width 0.2))
    (fp_line (start -1.202 3.175) (end 1.202 3.175) (layer F.SilkS) (width 0.2))
    (fp_line (start -1.202 -3.175) (end 1.202 -3.175) (layer F.SilkS) (width 0.2))
    (fp_line (start 3.175 -12.375) (end 3.175 -3.975) (layer F.SilkS) (width 0.2))
    (fp_line (start -3.175 -12.375) (end -3.175 -3.975) (layer F.SilkS) (width 0.2))
    (fp_line (start -3.175 -12.375) (end 3.175 -12.375) (layer F.SilkS) (width 0.2))
    (fp_line (start 3.175 -12.375) (end 3.175 -3.175) (layer F.Fab) (width 0.2))
    (fp_line (start -3.175 -12.375) (end 3.175 -12.375) (layer F.Fab) (width 0.2))
    (fp_line (start -3.175 -3.175) (end -3.175 -12.375) (layer F.Fab) (width 0.2))
    (fp_line (start -3.175 3.175) (end -3.175 -3.175) (layer F.Fab) (width 0.2))
    (fp_line (start 3.175 3.175) (end -3.175 3.175) (layer F.Fab) (width 0.2))
    (fp_line (start 3.175 -3.175) (end 3.175 3.175) (layer F.Fab) (width 0.2))
    (fp_line (start -3.175 -3.175) (end 3.175 -3.175) (layer F.Fab) (width 0.2))
    (fp_text user %R (at -0.48 -2.379 180) (layer F.Fab)
      (effects (font (size 1.27 1.27) (thickness 0.254)))
    )
    (pad 5 thru_hole circle (at 0 0 180) (size 2.25 2.25) (drill 1.5) (layers *.Cu *.Mask)
      (net 3 "Net-(J3-Pad5)"))
    (pad 4 thru_hole circle (at 2.54 2.54 180) (size 2.45 2.45) (drill 1.6) (layers *.Cu *.Mask)
      (net 2 GND))
    (pad 3 thru_hole circle (at -2.54 2.54 180) (size 2.45 2.45) (drill 1.6) (layers *.Cu *.Mask)
      (net 2 GND))
    (pad 2 thru_hole circle (at 2.54 -2.54 180) (size 2.45 2.45) (drill 1.6) (layers *.Cu *.Mask)
      (net 2 GND))
    (pad 1 thru_hole circle (at -2.54 -2.54 180) (size 2.45 2.45) (drill 1.6) (layers *.Cu *.Mask)
      (net 2 GND))
    (model \\alfs1.physics.ox.ac.uk\al\beregi\kicad\SamacSys_Parts.3dshapes\3-1478978-1.stp
      (offset (xyz 0 12.43999939355334 6.78999985987746))
      (scale (xyz 1 1 1))
      (rotate (xyz -90 0 -180))
    )
  )

  (module SamacSys_Parts:3-1478978-1 (layer F.Cu) (tedit 0) (tstamp 60B80104)
    (at 153.9 177.4 180)
    (descr 3-1478978-1)
    (tags Connector)
    (path /60B78F74)
    (fp_text reference J2 (at -0.48 -2.379 180) (layer F.SilkS) hide
      (effects (font (size 1.27 1.27) (thickness 0.254)))
    )
    (fp_text value 3-1478978-1 (at -0.48 -2.379 180) (layer F.SilkS) hide
      (effects (font (size 1.27 1.27) (thickness 0.254)))
    )
    (fp_line (start 3.175 -1.202) (end 3.175 1.202) (layer F.SilkS) (width 0.2))
    (fp_line (start -3.175 -1.202) (end -3.175 1.202) (layer F.SilkS) (width 0.2))
    (fp_line (start -1.202 3.175) (end 1.202 3.175) (layer F.SilkS) (width 0.2))
    (fp_line (start -1.202 -3.175) (end 1.202 -3.175) (layer F.SilkS) (width 0.2))
    (fp_line (start 3.175 -12.375) (end 3.175 -3.975) (layer F.SilkS) (width 0.2))
    (fp_line (start -3.175 -12.375) (end -3.175 -3.975) (layer F.SilkS) (width 0.2))
    (fp_line (start -3.175 -12.375) (end 3.175 -12.375) (layer F.SilkS) (width 0.2))
    (fp_line (start 3.175 -12.375) (end 3.175 -3.175) (layer F.Fab) (width 0.2))
    (fp_line (start -3.175 -12.375) (end 3.175 -12.375) (layer F.Fab) (width 0.2))
    (fp_line (start -3.175 -3.175) (end -3.175 -12.375) (layer F.Fab) (width 0.2))
    (fp_line (start -3.175 3.175) (end -3.175 -3.175) (layer F.Fab) (width 0.2))
    (fp_line (start 3.175 3.175) (end -3.175 3.175) (layer F.Fab) (width 0.2))
    (fp_line (start 3.175 -3.175) (end 3.175 3.175) (layer F.Fab) (width 0.2))
    (fp_line (start -3.175 -3.175) (end 3.175 -3.175) (layer F.Fab) (width 0.2))
    (fp_text user %R (at -0.48 -2.379 180) (layer F.Fab)
      (effects (font (size 1.27 1.27) (thickness 0.254)))
    )
    (pad 5 thru_hole circle (at 0 0 180) (size 2.25 2.25) (drill 1.5) (layers *.Cu *.Mask)
      (net 1 "Net-(J2-Pad5)"))
    (pad 4 thru_hole circle (at 2.54 2.54 180) (size 2.45 2.45) (drill 1.6) (layers *.Cu *.Mask)
      (net 2 GND))
    (pad 3 thru_hole circle (at -2.54 2.54 180) (size 2.45 2.45) (drill 1.6) (layers *.Cu *.Mask)
      (net 2 GND))
    (pad 2 thru_hole circle (at 2.54 -2.54 180) (size 2.45 2.45) (drill 1.6) (layers *.Cu *.Mask)
      (net 2 GND))
    (pad 1 thru_hole circle (at -2.54 -2.54 180) (size 2.45 2.45) (drill 1.6) (layers *.Cu *.Mask)
      (net 2 GND))
    (model \\alfs1.physics.ox.ac.uk\al\beregi\kicad\SamacSys_Parts.3dshapes\3-1478978-1.stp
      (offset (xyz 0 12.43999939355334 6.78999985987746))
      (scale (xyz 1 1 1))
      (rotate (xyz -90 0 -180))
    )
  )

  (module Package_TO_SOT_SMD:TO-252-2 (layer F.Cu) (tedit 5A70A390) (tstamp 60B7E91C)
    (at 149.65 159.9 180)
    (descr "TO-252 / DPAK SMD package, http://www.infineon.com/cms/en/product/packages/PG-TO252/PG-TO252-3-1/")
    (tags "DPAK TO-252 DPAK-3 TO-252-3 SOT-428")
    (attr smd)
    (fp_text reference REF** (at 0 -4.5 180) (layer F.SilkS) hide
      (effects (font (size 1 1) (thickness 0.15)))
    )
    (fp_text value TO-252-2 (at 0 4.5 180) (layer F.Fab)
      (effects (font (size 1 1) (thickness 0.15)))
    )
    (fp_line (start 3.95 -2.7) (end 4.95 -2.7) (layer F.Fab) (width 0.1))
    (fp_line (start 4.95 -2.7) (end 4.95 2.7) (layer F.Fab) (width 0.1))
    (fp_line (start 4.95 2.7) (end 3.95 2.7) (layer F.Fab) (width 0.1))
    (fp_line (start 3.95 -3.25) (end 3.95 3.25) (layer F.Fab) (width 0.1))
    (fp_line (start 3.95 3.25) (end -2.27 3.25) (layer F.Fab) (width 0.1))
    (fp_line (start -2.27 3.25) (end -2.27 -2.25) (layer F.Fab) (width 0.1))
    (fp_line (start -2.27 -2.25) (end -1.27 -3.25) (layer F.Fab) (width 0.1))
    (fp_line (start -1.27 -3.25) (end 3.95 -3.25) (layer F.Fab) (width 0.1))
    (fp_line (start -1.865 -2.655) (end -4.97 -2.655) (layer F.Fab) (width 0.1))
    (fp_line (start -4.97 -2.655) (end -4.97 -1.905) (layer F.Fab) (width 0.1))
    (fp_line (start -4.97 -1.905) (end -2.27 -1.905) (layer F.Fab) (width 0.1))
    (fp_line (start -2.27 1.905) (end -4.97 1.905) (layer F.Fab) (width 0.1))
    (fp_line (start -4.97 1.905) (end -4.97 2.655) (layer F.Fab) (width 0.1))
    (fp_line (start -4.97 2.655) (end -2.27 2.655) (layer F.Fab) (width 0.1))
    (fp_line (start -0.97 -3.45) (end -2.47 -3.45) (layer F.SilkS) (width 0.12))
    (fp_line (start -2.47 -3.45) (end -2.47 -3.18) (layer F.SilkS) (width 0.12))
    (fp_line (start -2.47 -3.18) (end -5.3 -3.18) (layer F.SilkS) (width 0.12))
    (fp_line (start -0.97 3.45) (end -2.47 3.45) (layer F.SilkS) (width 0.12))
    (fp_line (start -2.47 3.45) (end -2.47 3.18) (layer F.SilkS) (width 0.12))
    (fp_line (start -2.47 3.18) (end -3.57 3.18) (layer F.SilkS) (width 0.12))
    (fp_line (start -5.55 -3.5) (end -5.55 3.5) (layer F.CrtYd) (width 0.05))
    (fp_line (start -5.55 3.5) (end 5.55 3.5) (layer F.CrtYd) (width 0.05))
    (fp_line (start 5.55 3.5) (end 5.55 -3.5) (layer F.CrtYd) (width 0.05))
    (fp_line (start 5.55 -3.5) (end -5.55 -3.5) (layer F.CrtYd) (width 0.05))
    (fp_text user %R (at 0 0 180) (layer F.Fab)
      (effects (font (size 1 1) (thickness 0.15)))
    )
    (pad 1 smd rect (at -4.2 -2.28 180) (size 2.2 1.2) (layers F.Cu F.Paste F.Mask))
    (pad 3 smd rect (at -4.2 2.28 180) (size 2.2 1.2) (layers F.Cu F.Paste F.Mask))
    (pad 2 smd rect (at 2.1 0 180) (size 6.4 5.8) (layers F.Cu F.Mask))
    (pad "" smd rect (at 3.775 1.525 180) (size 3.05 2.75) (layers F.Paste))
    (pad "" smd rect (at 0.425 -1.525 180) (size 3.05 2.75) (layers F.Paste))
    (pad "" smd rect (at 3.775 -1.525 180) (size 3.05 2.75) (layers F.Paste))
    (pad "" smd rect (at 0.425 1.525 180) (size 3.05 2.75) (layers F.Paste))
    (model ${KISYS3DMOD}/Package_TO_SOT_SMD.3dshapes/TO-252-2.wrl
      (at (xyz 0 0 0))
      (scale (xyz 1 1 1))
      (rotate (xyz 0 0 0))
    )
  )

  (module Package_TO_SOT_SMD:TO-252-2 (layer F.Cu) (tedit 5A70A390) (tstamp 60B7E8F9)
    (at 149.65 167.65 180)
    (descr "TO-252 / DPAK SMD package, http://www.infineon.com/cms/en/product/packages/PG-TO252/PG-TO252-3-1/")
    (tags "DPAK TO-252 DPAK-3 TO-252-3 SOT-428")
    (attr smd)
    (fp_text reference REF** (at 0 -4.5 180) (layer F.SilkS) hide
      (effects (font (size 1 1) (thickness 0.15)))
    )
    (fp_text value TO-252-2 (at 0 4.5 180) (layer F.Fab)
      (effects (font (size 1 1) (thickness 0.15)))
    )
    (fp_text user %R (at 0 0 180) (layer F.Fab)
      (effects (font (size 1 1) (thickness 0.15)))
    )
    (fp_line (start 5.55 -3.5) (end -5.55 -3.5) (layer F.CrtYd) (width 0.05))
    (fp_line (start 5.55 3.5) (end 5.55 -3.5) (layer F.CrtYd) (width 0.05))
    (fp_line (start -5.55 3.5) (end 5.55 3.5) (layer F.CrtYd) (width 0.05))
    (fp_line (start -5.55 -3.5) (end -5.55 3.5) (layer F.CrtYd) (width 0.05))
    (fp_line (start -2.47 3.18) (end -3.57 3.18) (layer F.SilkS) (width 0.12))
    (fp_line (start -2.47 3.45) (end -2.47 3.18) (layer F.SilkS) (width 0.12))
    (fp_line (start -0.97 3.45) (end -2.47 3.45) (layer F.SilkS) (width 0.12))
    (fp_line (start -2.47 -3.18) (end -5.3 -3.18) (layer F.SilkS) (width 0.12))
    (fp_line (start -2.47 -3.45) (end -2.47 -3.18) (layer F.SilkS) (width 0.12))
    (fp_line (start -0.97 -3.45) (end -2.47 -3.45) (layer F.SilkS) (width 0.12))
    (fp_line (start -4.97 2.655) (end -2.27 2.655) (layer F.Fab) (width 0.1))
    (fp_line (start -4.97 1.905) (end -4.97 2.655) (layer F.Fab) (width 0.1))
    (fp_line (start -2.27 1.905) (end -4.97 1.905) (layer F.Fab) (width 0.1))
    (fp_line (start -4.97 -1.905) (end -2.27 -1.905) (layer F.Fab) (width 0.1))
    (fp_line (start -4.97 -2.655) (end -4.97 -1.905) (layer F.Fab) (width 0.1))
    (fp_line (start -1.865 -2.655) (end -4.97 -2.655) (layer F.Fab) (width 0.1))
    (fp_line (start -1.27 -3.25) (end 3.95 -3.25) (layer F.Fab) (width 0.1))
    (fp_line (start -2.27 -2.25) (end -1.27 -3.25) (layer F.Fab) (width 0.1))
    (fp_line (start -2.27 3.25) (end -2.27 -2.25) (layer F.Fab) (width 0.1))
    (fp_line (start 3.95 3.25) (end -2.27 3.25) (layer F.Fab) (width 0.1))
    (fp_line (start 3.95 -3.25) (end 3.95 3.25) (layer F.Fab) (width 0.1))
    (fp_line (start 4.95 2.7) (end 3.95 2.7) (layer F.Fab) (width 0.1))
    (fp_line (start 4.95 -2.7) (end 4.95 2.7) (layer F.Fab) (width 0.1))
    (fp_line (start 3.95 -2.7) (end 4.95 -2.7) (layer F.Fab) (width 0.1))
    (pad "" smd rect (at 0.425 1.525 180) (size 3.05 2.75) (layers F.Paste))
    (pad "" smd rect (at 3.775 -1.525 180) (size 3.05 2.75) (layers F.Paste))
    (pad "" smd rect (at 0.425 -1.525 180) (size 3.05 2.75) (layers F.Paste))
    (pad "" smd rect (at 3.775 1.525 180) (size 3.05 2.75) (layers F.Paste))
    (pad 2 smd rect (at 2.1 0 180) (size 6.4 5.8) (layers F.Cu F.Mask))
    (pad 3 smd rect (at -4.2 2.28 180) (size 2.2 1.2) (layers F.Cu F.Paste F.Mask))
    (pad 1 smd rect (at -4.2 -2.28 180) (size 2.2 1.2) (layers F.Cu F.Paste F.Mask))
    (model ${KISYS3DMOD}/Package_TO_SOT_SMD.3dshapes/TO-252-2.wrl
      (at (xyz 0 0 0))
      (scale (xyz 1 1 1))
      (rotate (xyz 0 0 0))
    )
  )

  (module Capacitor_SMD:C_0805_2012Metric_Pad1.15x1.40mm_HandSolder (layer F.Cu) (tedit 5B36C52B) (tstamp 60B7E8E8)
    (at 151.75 143.4 270)
    (descr "Capacitor SMD 0805 (2012 Metric), square (rectangular) end terminal, IPC_7351 nominal with elongated pad for handsoldering. (Body size source: https://docs.google.com/spreadsheets/d/1BsfQQcO9C6DZCsRaXUlFlo91Tg2WpOkGARC1WS5S8t0/edit?usp=sharing), generated with kicad-footprint-generator")
    (tags "capacitor handsolder")
    (attr smd)
    (fp_text reference REF** (at 0 -1.65 270) (layer F.SilkS) hide
      (effects (font (size 1 1) (thickness 0.15)))
    )
    (fp_text value C_0805_2012Metric_Pad1.15x1.40mm_HandSolder (at 0 1.65 270) (layer F.Fab)
      (effects (font (size 1 1) (thickness 0.15)))
    )
    (fp_text user %R (at 0 0 270) (layer F.Fab)
      (effects (font (size 0.5 0.5) (thickness 0.08)))
    )
    (fp_line (start 1.85 0.95) (end -1.85 0.95) (layer F.CrtYd) (width 0.05))
    (fp_line (start 1.85 -0.95) (end 1.85 0.95) (layer F.CrtYd) (width 0.05))
    (fp_line (start -1.85 -0.95) (end 1.85 -0.95) (layer F.CrtYd) (width 0.05))
    (fp_line (start -1.85 0.95) (end -1.85 -0.95) (layer F.CrtYd) (width 0.05))
    (fp_line (start -0.261252 0.71) (end 0.261252 0.71) (layer F.SilkS) (width 0.12))
    (fp_line (start -0.261252 -0.71) (end 0.261252 -0.71) (layer F.SilkS) (width 0.12))
    (fp_line (start 1 0.6) (end -1 0.6) (layer F.Fab) (width 0.1))
    (fp_line (start 1 -0.6) (end 1 0.6) (layer F.Fab) (width 0.1))
    (fp_line (start -1 -0.6) (end 1 -0.6) (layer F.Fab) (width 0.1))
    (fp_line (start -1 0.6) (end -1 -0.6) (layer F.Fab) (width 0.1))
    (pad 2 smd roundrect (at 1.025 0 270) (size 1.15 1.4) (layers F.Cu F.Paste F.Mask) (roundrect_rratio 0.217391))
    (pad 1 smd roundrect (at -1.025 0 270) (size 1.15 1.4) (layers F.Cu F.Paste F.Mask) (roundrect_rratio 0.217391))
    (model ${KISYS3DMOD}/Capacitor_SMD.3dshapes/C_0805_2012Metric.wrl
      (at (xyz 0 0 0))
      (scale (xyz 1 1 1))
      (rotate (xyz 0 0 0))
    )
  )

  (module Capacitor_SMD:C_0805_2012Metric_Pad1.15x1.40mm_HandSolder (layer F.Cu) (tedit 5B36C52B) (tstamp 60B7E8D8)
    (at 151.75 148.4 270)
    (descr "Capacitor SMD 0805 (2012 Metric), square (rectangular) end terminal, IPC_7351 nominal with elongated pad for handsoldering. (Body size source: https://docs.google.com/spreadsheets/d/1BsfQQcO9C6DZCsRaXUlFlo91Tg2WpOkGARC1WS5S8t0/edit?usp=sharing), generated with kicad-footprint-generator")
    (tags "capacitor handsolder")
    (attr smd)
    (fp_text reference REF** (at 0 -1.65 270) (layer F.SilkS) hide
      (effects (font (size 1 1) (thickness 0.15)))
    )
    (fp_text value C_0805_2012Metric_Pad1.15x1.40mm_HandSolder (at 0 1.65 270) (layer F.Fab)
      (effects (font (size 1 1) (thickness 0.15)))
    )
    (fp_line (start -1 0.6) (end -1 -0.6) (layer F.Fab) (width 0.1))
    (fp_line (start -1 -0.6) (end 1 -0.6) (layer F.Fab) (width 0.1))
    (fp_line (start 1 -0.6) (end 1 0.6) (layer F.Fab) (width 0.1))
    (fp_line (start 1 0.6) (end -1 0.6) (layer F.Fab) (width 0.1))
    (fp_line (start -0.261252 -0.71) (end 0.261252 -0.71) (layer F.SilkS) (width 0.12))
    (fp_line (start -0.261252 0.71) (end 0.261252 0.71) (layer F.SilkS) (width 0.12))
    (fp_line (start -1.85 0.95) (end -1.85 -0.95) (layer F.CrtYd) (width 0.05))
    (fp_line (start -1.85 -0.95) (end 1.85 -0.95) (layer F.CrtYd) (width 0.05))
    (fp_line (start 1.85 -0.95) (end 1.85 0.95) (layer F.CrtYd) (width 0.05))
    (fp_line (start 1.85 0.95) (end -1.85 0.95) (layer F.CrtYd) (width 0.05))
    (fp_text user %R (at 0 0 270) (layer F.Fab)
      (effects (font (size 0.5 0.5) (thickness 0.08)))
    )
    (pad 1 smd roundrect (at -1.025 0 270) (size 1.15 1.4) (layers F.Cu F.Paste F.Mask) (roundrect_rratio 0.217391))
    (pad 2 smd roundrect (at 1.025 0 270) (size 1.15 1.4) (layers F.Cu F.Paste F.Mask) (roundrect_rratio 0.217391))
    (model ${KISYS3DMOD}/Capacitor_SMD.3dshapes/C_0805_2012Metric.wrl
      (at (xyz 0 0 0))
      (scale (xyz 1 1 1))
      (rotate (xyz 0 0 0))
    )
  )

  (module Capacitor_SMD:C_0805_2012Metric_Pad1.15x1.40mm_HandSolder (layer F.Cu) (tedit 5B36C52B) (tstamp 60B7E8C8)
    (at 155.75 148.4 270)
    (descr "Capacitor SMD 0805 (2012 Metric), square (rectangular) end terminal, IPC_7351 nominal with elongated pad for handsoldering. (Body size source: https://docs.google.com/spreadsheets/d/1BsfQQcO9C6DZCsRaXUlFlo91Tg2WpOkGARC1WS5S8t0/edit?usp=sharing), generated with kicad-footprint-generator")
    (tags "capacitor handsolder")
    (attr smd)
    (fp_text reference REF** (at 0 -1.65 270) (layer F.SilkS) hide
      (effects (font (size 1 1) (thickness 0.15)))
    )
    (fp_text value C_0805_2012Metric_Pad1.15x1.40mm_HandSolder (at 0 1.65 270) (layer F.Fab)
      (effects (font (size 1 1) (thickness 0.15)))
    )
    (fp_line (start -1 0.6) (end -1 -0.6) (layer F.Fab) (width 0.1))
    (fp_line (start -1 -0.6) (end 1 -0.6) (layer F.Fab) (width 0.1))
    (fp_line (start 1 -0.6) (end 1 0.6) (layer F.Fab) (width 0.1))
    (fp_line (start 1 0.6) (end -1 0.6) (layer F.Fab) (width 0.1))
    (fp_line (start -0.261252 -0.71) (end 0.261252 -0.71) (layer F.SilkS) (width 0.12))
    (fp_line (start -0.261252 0.71) (end 0.261252 0.71) (layer F.SilkS) (width 0.12))
    (fp_line (start -1.85 0.95) (end -1.85 -0.95) (layer F.CrtYd) (width 0.05))
    (fp_line (start -1.85 -0.95) (end 1.85 -0.95) (layer F.CrtYd) (width 0.05))
    (fp_line (start 1.85 -0.95) (end 1.85 0.95) (layer F.CrtYd) (width 0.05))
    (fp_line (start 1.85 0.95) (end -1.85 0.95) (layer F.CrtYd) (width 0.05))
    (fp_text user %R (at 0 0 270) (layer F.Fab)
      (effects (font (size 0.5 0.5) (thickness 0.08)))
    )
    (pad 1 smd roundrect (at -1.025 0 270) (size 1.15 1.4) (layers F.Cu F.Paste F.Mask) (roundrect_rratio 0.217391))
    (pad 2 smd roundrect (at 1.025 0 270) (size 1.15 1.4) (layers F.Cu F.Paste F.Mask) (roundrect_rratio 0.217391))
    (model ${KISYS3DMOD}/Capacitor_SMD.3dshapes/C_0805_2012Metric.wrl
      (at (xyz 0 0 0))
      (scale (xyz 1 1 1))
      (rotate (xyz 0 0 0))
    )
  )

  (module Capacitor_SMD:C_0805_2012Metric_Pad1.15x1.40mm_HandSolder (layer F.Cu) (tedit 5B36C52B) (tstamp 60B7E8B8)
    (at 151.75 153.4 270)
    (descr "Capacitor SMD 0805 (2012 Metric), square (rectangular) end terminal, IPC_7351 nominal with elongated pad for handsoldering. (Body size source: https://docs.google.com/spreadsheets/d/1BsfQQcO9C6DZCsRaXUlFlo91Tg2WpOkGARC1WS5S8t0/edit?usp=sharing), generated with kicad-footprint-generator")
    (tags "capacitor handsolder")
    (attr smd)
    (fp_text reference REF** (at 0 -1.65 270) (layer F.SilkS) hide
      (effects (font (size 1 1) (thickness 0.15)))
    )
    (fp_text value C_0805_2012Metric_Pad1.15x1.40mm_HandSolder (at 0 1.65 270) (layer F.Fab)
      (effects (font (size 1 1) (thickness 0.15)))
    )
    (fp_line (start -1 0.6) (end -1 -0.6) (layer F.Fab) (width 0.1))
    (fp_line (start -1 -0.6) (end 1 -0.6) (layer F.Fab) (width 0.1))
    (fp_line (start 1 -0.6) (end 1 0.6) (layer F.Fab) (width 0.1))
    (fp_line (start 1 0.6) (end -1 0.6) (layer F.Fab) (width 0.1))
    (fp_line (start -0.261252 -0.71) (end 0.261252 -0.71) (layer F.SilkS) (width 0.12))
    (fp_line (start -0.261252 0.71) (end 0.261252 0.71) (layer F.SilkS) (width 0.12))
    (fp_line (start -1.85 0.95) (end -1.85 -0.95) (layer F.CrtYd) (width 0.05))
    (fp_line (start -1.85 -0.95) (end 1.85 -0.95) (layer F.CrtYd) (width 0.05))
    (fp_line (start 1.85 -0.95) (end 1.85 0.95) (layer F.CrtYd) (width 0.05))
    (fp_line (start 1.85 0.95) (end -1.85 0.95) (layer F.CrtYd) (width 0.05))
    (fp_text user %R (at 0 0 270) (layer F.Fab)
      (effects (font (size 0.5 0.5) (thickness 0.08)))
    )
    (pad 1 smd roundrect (at -1.025 0 270) (size 1.15 1.4) (layers F.Cu F.Paste F.Mask) (roundrect_rratio 0.217391))
    (pad 2 smd roundrect (at 1.025 0 270) (size 1.15 1.4) (layers F.Cu F.Paste F.Mask) (roundrect_rratio 0.217391))
    (model ${KISYS3DMOD}/Capacitor_SMD.3dshapes/C_0805_2012Metric.wrl
      (at (xyz 0 0 0))
      (scale (xyz 1 1 1))
      (rotate (xyz 0 0 0))
    )
  )

  (module Capacitor_SMD:C_0805_2012Metric_Pad1.15x1.40mm_HandSolder (layer F.Cu) (tedit 5B36C52B) (tstamp 60B7E899)
    (at 155.75 153.4 270)
    (descr "Capacitor SMD 0805 (2012 Metric), square (rectangular) end terminal, IPC_7351 nominal with elongated pad for handsoldering. (Body size source: https://docs.google.com/spreadsheets/d/1BsfQQcO9C6DZCsRaXUlFlo91Tg2WpOkGARC1WS5S8t0/edit?usp=sharing), generated with kicad-footprint-generator")
    (tags "capacitor handsolder")
    (attr smd)
    (fp_text reference REF** (at 0 -1.65 270) (layer F.SilkS) hide
      (effects (font (size 1 1) (thickness 0.15)))
    )
    (fp_text value C_0805_2012Metric_Pad1.15x1.40mm_HandSolder (at 0 1.65 270) (layer F.Fab)
      (effects (font (size 1 1) (thickness 0.15)))
    )
    (fp_line (start -1 0.6) (end -1 -0.6) (layer F.Fab) (width 0.1))
    (fp_line (start -1 -0.6) (end 1 -0.6) (layer F.Fab) (width 0.1))
    (fp_line (start 1 -0.6) (end 1 0.6) (layer F.Fab) (width 0.1))
    (fp_line (start 1 0.6) (end -1 0.6) (layer F.Fab) (width 0.1))
    (fp_line (start -0.261252 -0.71) (end 0.261252 -0.71) (layer F.SilkS) (width 0.12))
    (fp_line (start -0.261252 0.71) (end 0.261252 0.71) (layer F.SilkS) (width 0.12))
    (fp_line (start -1.85 0.95) (end -1.85 -0.95) (layer F.CrtYd) (width 0.05))
    (fp_line (start -1.85 -0.95) (end 1.85 -0.95) (layer F.CrtYd) (width 0.05))
    (fp_line (start 1.85 -0.95) (end 1.85 0.95) (layer F.CrtYd) (width 0.05))
    (fp_line (start 1.85 0.95) (end -1.85 0.95) (layer F.CrtYd) (width 0.05))
    (fp_text user %R (at 0 0 270) (layer F.Fab)
      (effects (font (size 0.5 0.5) (thickness 0.08)))
    )
    (pad 1 smd roundrect (at -1.025 0 270) (size 1.15 1.4) (layers F.Cu F.Paste F.Mask) (roundrect_rratio 0.217391))
    (pad 2 smd roundrect (at 1.025 0 270) (size 1.15 1.4) (layers F.Cu F.Paste F.Mask) (roundrect_rratio 0.217391))
    (model ${KISYS3DMOD}/Capacitor_SMD.3dshapes/C_0805_2012Metric.wrl
      (at (xyz 0 0 0))
      (scale (xyz 1 1 1))
      (rotate (xyz 0 0 0))
    )
  )

  (module Capacitor_SMD:C_0805_2012Metric_Pad1.15x1.40mm_HandSolder (layer F.Cu) (tedit 5B36C52B) (tstamp 60B7E889)
    (at 155.75 143.4 270)
    (descr "Capacitor SMD 0805 (2012 Metric), square (rectangular) end terminal, IPC_7351 nominal with elongated pad for handsoldering. (Body size source: https://docs.google.com/spreadsheets/d/1BsfQQcO9C6DZCsRaXUlFlo91Tg2WpOkGARC1WS5S8t0/edit?usp=sharing), generated with kicad-footprint-generator")
    (tags "capacitor handsolder")
    (attr smd)
    (fp_text reference REF** (at 0 -1.65 270) (layer F.SilkS) hide
      (effects (font (size 1 1) (thickness 0.15)))
    )
    (fp_text value C_0805_2012Metric_Pad1.15x1.40mm_HandSolder (at 0 1.65 270) (layer F.Fab)
      (effects (font (size 1 1) (thickness 0.15)))
    )
    (fp_line (start -1 0.6) (end -1 -0.6) (layer F.Fab) (width 0.1))
    (fp_line (start -1 -0.6) (end 1 -0.6) (layer F.Fab) (width 0.1))
    (fp_line (start 1 -0.6) (end 1 0.6) (layer F.Fab) (width 0.1))
    (fp_line (start 1 0.6) (end -1 0.6) (layer F.Fab) (width 0.1))
    (fp_line (start -0.261252 -0.71) (end 0.261252 -0.71) (layer F.SilkS) (width 0.12))
    (fp_line (start -0.261252 0.71) (end 0.261252 0.71) (layer F.SilkS) (width 0.12))
    (fp_line (start -1.85 0.95) (end -1.85 -0.95) (layer F.CrtYd) (width 0.05))
    (fp_line (start -1.85 -0.95) (end 1.85 -0.95) (layer F.CrtYd) (width 0.05))
    (fp_line (start 1.85 -0.95) (end 1.85 0.95) (layer F.CrtYd) (width 0.05))
    (fp_line (start 1.85 0.95) (end -1.85 0.95) (layer F.CrtYd) (width 0.05))
    (fp_text user %R (at 0 0 270) (layer F.Fab)
      (effects (font (size 0.5 0.5) (thickness 0.08)))
    )
    (pad 1 smd roundrect (at -1.025 0 270) (size 1.15 1.4) (layers F.Cu F.Paste F.Mask) (roundrect_rratio 0.217391))
    (pad 2 smd roundrect (at 1.025 0 270) (size 1.15 1.4) (layers F.Cu F.Paste F.Mask) (roundrect_rratio 0.217391))
    (model ${KISYS3DMOD}/Capacitor_SMD.3dshapes/C_0805_2012Metric.wrl
      (at (xyz 0 0 0))
      (scale (xyz 1 1 1))
      (rotate (xyz 0 0 0))
    )
  )

  (module Package_TO_SOT_SMD:TO-252-2 (layer F.Cu) (tedit 5A70A390) (tstamp 60B7D729)
    (at 200.25 167.65)
    (descr "TO-252 / DPAK SMD package, http://www.infineon.com/cms/en/product/packages/PG-TO252/PG-TO252-3-1/")
    (tags "DPAK TO-252 DPAK-3 TO-252-3 SOT-428")
    (attr smd)
    (fp_text reference REF** (at 0 -4.5) (layer F.SilkS) hide
      (effects (font (size 1 1) (thickness 0.15)))
    )
    (fp_text value TO-252-2 (at 0 4.5) (layer F.Fab)
      (effects (font (size 1 1) (thickness 0.15)))
    )
    (fp_line (start 3.95 -2.7) (end 4.95 -2.7) (layer F.Fab) (width 0.1))
    (fp_line (start 4.95 -2.7) (end 4.95 2.7) (layer F.Fab) (width 0.1))
    (fp_line (start 4.95 2.7) (end 3.95 2.7) (layer F.Fab) (width 0.1))
    (fp_line (start 3.95 -3.25) (end 3.95 3.25) (layer F.Fab) (width 0.1))
    (fp_line (start 3.95 3.25) (end -2.27 3.25) (layer F.Fab) (width 0.1))
    (fp_line (start -2.27 3.25) (end -2.27 -2.25) (layer F.Fab) (width 0.1))
    (fp_line (start -2.27 -2.25) (end -1.27 -3.25) (layer F.Fab) (width 0.1))
    (fp_line (start -1.27 -3.25) (end 3.95 -3.25) (layer F.Fab) (width 0.1))
    (fp_line (start -1.865 -2.655) (end -4.97 -2.655) (layer F.Fab) (width 0.1))
    (fp_line (start -4.97 -2.655) (end -4.97 -1.905) (layer F.Fab) (width 0.1))
    (fp_line (start -4.97 -1.905) (end -2.27 -1.905) (layer F.Fab) (width 0.1))
    (fp_line (start -2.27 1.905) (end -4.97 1.905) (layer F.Fab) (width 0.1))
    (fp_line (start -4.97 1.905) (end -4.97 2.655) (layer F.Fab) (width 0.1))
    (fp_line (start -4.97 2.655) (end -2.27 2.655) (layer F.Fab) (width 0.1))
    (fp_line (start -0.97 -3.45) (end -2.47 -3.45) (layer F.SilkS) (width 0.12))
    (fp_line (start -2.47 -3.45) (end -2.47 -3.18) (layer F.SilkS) (width 0.12))
    (fp_line (start -2.47 -3.18) (end -5.3 -3.18) (layer F.SilkS) (width 0.12))
    (fp_line (start -0.97 3.45) (end -2.47 3.45) (layer F.SilkS) (width 0.12))
    (fp_line (start -2.47 3.45) (end -2.47 3.18) (layer F.SilkS) (width 0.12))
    (fp_line (start -2.47 3.18) (end -3.57 3.18) (layer F.SilkS) (width 0.12))
    (fp_line (start -5.55 -3.5) (end -5.55 3.5) (layer F.CrtYd) (width 0.05))
    (fp_line (start -5.55 3.5) (end 5.55 3.5) (layer F.CrtYd) (width 0.05))
    (fp_line (start 5.55 3.5) (end 5.55 -3.5) (layer F.CrtYd) (width 0.05))
    (fp_line (start 5.55 -3.5) (end -5.55 -3.5) (layer F.CrtYd) (width 0.05))
    (fp_text user %R (at 0 0) (layer F.Fab)
      (effects (font (size 1 1) (thickness 0.15)))
    )
    (pad 1 smd rect (at -4.2 -2.28) (size 2.2 1.2) (layers F.Cu F.Paste F.Mask))
    (pad 3 smd rect (at -4.2 2.28) (size 2.2 1.2) (layers F.Cu F.Paste F.Mask))
    (pad 2 smd rect (at 2.1 0) (size 6.4 5.8) (layers F.Cu F.Mask))
    (pad "" smd rect (at 3.775 1.525) (size 3.05 2.75) (layers F.Paste))
    (pad "" smd rect (at 0.425 -1.525) (size 3.05 2.75) (layers F.Paste))
    (pad "" smd rect (at 3.775 -1.525) (size 3.05 2.75) (layers F.Paste))
    (pad "" smd rect (at 0.425 1.525) (size 3.05 2.75) (layers F.Paste))
    (model ${KISYS3DMOD}/Package_TO_SOT_SMD.3dshapes/TO-252-2.wrl
      (at (xyz 0 0 0))
      (scale (xyz 1 1 1))
      (rotate (xyz 0 0 0))
    )
  )

  (module Package_TO_SOT_SMD:TO-252-2 (layer F.Cu) (tedit 5A70A390) (tstamp 60B7D712)
    (at 200.25 159.9)
    (descr "TO-252 / DPAK SMD package, http://www.infineon.com/cms/en/product/packages/PG-TO252/PG-TO252-3-1/")
    (tags "DPAK TO-252 DPAK-3 TO-252-3 SOT-428")
    (attr smd)
    (fp_text reference REF** (at 0 -4.5) (layer F.SilkS) hide
      (effects (font (size 1 1) (thickness 0.15)))
    )
    (fp_text value TO-252-2 (at 0 4.5) (layer F.Fab)
      (effects (font (size 1 1) (thickness 0.15)))
    )
    (fp_text user %R (at 0 0) (layer F.Fab)
      (effects (font (size 1 1) (thickness 0.15)))
    )
    (fp_line (start 5.55 -3.5) (end -5.55 -3.5) (layer F.CrtYd) (width 0.05))
    (fp_line (start 5.55 3.5) (end 5.55 -3.5) (layer F.CrtYd) (width 0.05))
    (fp_line (start -5.55 3.5) (end 5.55 3.5) (layer F.CrtYd) (width 0.05))
    (fp_line (start -5.55 -3.5) (end -5.55 3.5) (layer F.CrtYd) (width 0.05))
    (fp_line (start -2.47 3.18) (end -3.57 3.18) (layer F.SilkS) (width 0.12))
    (fp_line (start -2.47 3.45) (end -2.47 3.18) (layer F.SilkS) (width 0.12))
    (fp_line (start -0.97 3.45) (end -2.47 3.45) (layer F.SilkS) (width 0.12))
    (fp_line (start -2.47 -3.18) (end -5.3 -3.18) (layer F.SilkS) (width 0.12))
    (fp_line (start -2.47 -3.45) (end -2.47 -3.18) (layer F.SilkS) (width 0.12))
    (fp_line (start -0.97 -3.45) (end -2.47 -3.45) (layer F.SilkS) (width 0.12))
    (fp_line (start -4.97 2.655) (end -2.27 2.655) (layer F.Fab) (width 0.1))
    (fp_line (start -4.97 1.905) (end -4.97 2.655) (layer F.Fab) (width 0.1))
    (fp_line (start -2.27 1.905) (end -4.97 1.905) (layer F.Fab) (width 0.1))
    (fp_line (start -4.97 -1.905) (end -2.27 -1.905) (layer F.Fab) (width 0.1))
    (fp_line (start -4.97 -2.655) (end -4.97 -1.905) (layer F.Fab) (width 0.1))
    (fp_line (start -1.865 -2.655) (end -4.97 -2.655) (layer F.Fab) (width 0.1))
    (fp_line (start -1.27 -3.25) (end 3.95 -3.25) (layer F.Fab) (width 0.1))
    (fp_line (start -2.27 -2.25) (end -1.27 -3.25) (layer F.Fab) (width 0.1))
    (fp_line (start -2.27 3.25) (end -2.27 -2.25) (layer F.Fab) (width 0.1))
    (fp_line (start 3.95 3.25) (end -2.27 3.25) (layer F.Fab) (width 0.1))
    (fp_line (start 3.95 -3.25) (end 3.95 3.25) (layer F.Fab) (width 0.1))
    (fp_line (start 4.95 2.7) (end 3.95 2.7) (layer F.Fab) (width 0.1))
    (fp_line (start 4.95 -2.7) (end 4.95 2.7) (layer F.Fab) (width 0.1))
    (fp_line (start 3.95 -2.7) (end 4.95 -2.7) (layer F.Fab) (width 0.1))
    (pad "" smd rect (at 0.425 1.525) (size 3.05 2.75) (layers F.Paste))
    (pad "" smd rect (at 3.775 -1.525) (size 3.05 2.75) (layers F.Paste))
    (pad "" smd rect (at 0.425 -1.525) (size 3.05 2.75) (layers F.Paste))
    (pad "" smd rect (at 3.775 1.525) (size 3.05 2.75) (layers F.Paste))
    (pad 2 smd rect (at 2.1 0) (size 6.4 5.8) (layers F.Cu F.Mask))
    (pad 3 smd rect (at -4.2 2.28) (size 2.2 1.2) (layers F.Cu F.Paste F.Mask))
    (pad 1 smd rect (at -4.2 -2.28) (size 2.2 1.2) (layers F.Cu F.Paste F.Mask))
    (model ${KISYS3DMOD}/Package_TO_SOT_SMD.3dshapes/TO-252-2.wrl
      (at (xyz 0 0 0))
      (scale (xyz 1 1 1))
      (rotate (xyz 0 0 0))
    )
  )

  (module Capacitor_SMD:C_0805_2012Metric_Pad1.15x1.40mm_HandSolder (layer F.Cu) (tedit 5B36C52B) (tstamp 5F8BDD4A)
    (at 194 143.4 270)
    (descr "Capacitor SMD 0805 (2012 Metric), square (rectangular) end terminal, IPC_7351 nominal with elongated pad for handsoldering. (Body size source: https://docs.google.com/spreadsheets/d/1BsfQQcO9C6DZCsRaXUlFlo91Tg2WpOkGARC1WS5S8t0/edit?usp=sharing), generated with kicad-footprint-generator")
    (tags "capacitor handsolder")
    (attr smd)
    (fp_text reference REF** (at 0 -1.65 270) (layer F.SilkS) hide
      (effects (font (size 1 1) (thickness 0.15)))
    )
    (fp_text value C_0805_2012Metric_Pad1.15x1.40mm_HandSolder (at 0 1.65 270) (layer F.Fab)
      (effects (font (size 1 1) (thickness 0.15)))
    )
    (fp_line (start -1 0.6) (end -1 -0.6) (layer F.Fab) (width 0.1))
    (fp_line (start -1 -0.6) (end 1 -0.6) (layer F.Fab) (width 0.1))
    (fp_line (start 1 -0.6) (end 1 0.6) (layer F.Fab) (width 0.1))
    (fp_line (start 1 0.6) (end -1 0.6) (layer F.Fab) (width 0.1))
    (fp_line (start -0.261252 -0.71) (end 0.261252 -0.71) (layer F.SilkS) (width 0.12))
    (fp_line (start -0.261252 0.71) (end 0.261252 0.71) (layer F.SilkS) (width 0.12))
    (fp_line (start -1.85 0.95) (end -1.85 -0.95) (layer F.CrtYd) (width 0.05))
    (fp_line (start -1.85 -0.95) (end 1.85 -0.95) (layer F.CrtYd) (width 0.05))
    (fp_line (start 1.85 -0.95) (end 1.85 0.95) (layer F.CrtYd) (width 0.05))
    (fp_line (start 1.85 0.95) (end -1.85 0.95) (layer F.CrtYd) (width 0.05))
    (fp_text user %R (at 0 0 270) (layer F.Fab)
      (effects (font (size 0.5 0.5) (thickness 0.08)))
    )
    (pad 1 smd roundrect (at -1.025 0 270) (size 1.15 1.4) (layers F.Cu F.Paste F.Mask) (roundrect_rratio 0.217391))
    (pad 2 smd roundrect (at 1.025 0 270) (size 1.15 1.4) (layers F.Cu F.Paste F.Mask) (roundrect_rratio 0.217391))
    (model ${KISYS3DMOD}/Capacitor_SMD.3dshapes/C_0805_2012Metric.wrl
      (at (xyz 0 0 0))
      (scale (xyz 1 1 1))
      (rotate (xyz 0 0 0))
    )
  )

  (module Capacitor_SMD:C_0805_2012Metric_Pad1.15x1.40mm_HandSolder (layer F.Cu) (tedit 5B36C52B) (tstamp 5F8BDD3A)
    (at 194 153.4 270)
    (descr "Capacitor SMD 0805 (2012 Metric), square (rectangular) end terminal, IPC_7351 nominal with elongated pad for handsoldering. (Body size source: https://docs.google.com/spreadsheets/d/1BsfQQcO9C6DZCsRaXUlFlo91Tg2WpOkGARC1WS5S8t0/edit?usp=sharing), generated with kicad-footprint-generator")
    (tags "capacitor handsolder")
    (attr smd)
    (fp_text reference REF** (at 0 -1.65 270) (layer F.SilkS) hide
      (effects (font (size 1 1) (thickness 0.15)))
    )
    (fp_text value C_0805_2012Metric_Pad1.15x1.40mm_HandSolder (at 0 1.65 270) (layer F.Fab)
      (effects (font (size 1 1) (thickness 0.15)))
    )
    (fp_text user %R (at 0 0 270) (layer F.Fab)
      (effects (font (size 0.5 0.5) (thickness 0.08)))
    )
    (fp_line (start 1.85 0.95) (end -1.85 0.95) (layer F.CrtYd) (width 0.05))
    (fp_line (start 1.85 -0.95) (end 1.85 0.95) (layer F.CrtYd) (width 0.05))
    (fp_line (start -1.85 -0.95) (end 1.85 -0.95) (layer F.CrtYd) (width 0.05))
    (fp_line (start -1.85 0.95) (end -1.85 -0.95) (layer F.CrtYd) (width 0.05))
    (fp_line (start -0.261252 0.71) (end 0.261252 0.71) (layer F.SilkS) (width 0.12))
    (fp_line (start -0.261252 -0.71) (end 0.261252 -0.71) (layer F.SilkS) (width 0.12))
    (fp_line (start 1 0.6) (end -1 0.6) (layer F.Fab) (width 0.1))
    (fp_line (start 1 -0.6) (end 1 0.6) (layer F.Fab) (width 0.1))
    (fp_line (start -1 -0.6) (end 1 -0.6) (layer F.Fab) (width 0.1))
    (fp_line (start -1 0.6) (end -1 -0.6) (layer F.Fab) (width 0.1))
    (pad 2 smd roundrect (at 1.025 0 270) (size 1.15 1.4) (layers F.Cu F.Paste F.Mask) (roundrect_rratio 0.217391))
    (pad 1 smd roundrect (at -1.025 0 270) (size 1.15 1.4) (layers F.Cu F.Paste F.Mask) (roundrect_rratio 0.217391))
    (model ${KISYS3DMOD}/Capacitor_SMD.3dshapes/C_0805_2012Metric.wrl
      (at (xyz 0 0 0))
      (scale (xyz 1 1 1))
      (rotate (xyz 0 0 0))
    )
  )

  (module Capacitor_SMD:C_0805_2012Metric_Pad1.15x1.40mm_HandSolder (layer F.Cu) (tedit 5B36C52B) (tstamp 5F8BDD2A)
    (at 198 148.4 270)
    (descr "Capacitor SMD 0805 (2012 Metric), square (rectangular) end terminal, IPC_7351 nominal with elongated pad for handsoldering. (Body size source: https://docs.google.com/spreadsheets/d/1BsfQQcO9C6DZCsRaXUlFlo91Tg2WpOkGARC1WS5S8t0/edit?usp=sharing), generated with kicad-footprint-generator")
    (tags "capacitor handsolder")
    (attr smd)
    (fp_text reference REF** (at 0 -1.65 270) (layer F.SilkS) hide
      (effects (font (size 1 1) (thickness 0.15)))
    )
    (fp_text value C_0805_2012Metric_Pad1.15x1.40mm_HandSolder (at 0 1.65 270) (layer F.Fab)
      (effects (font (size 1 1) (thickness 0.15)))
    )
    (fp_text user %R (at 0 0 270) (layer F.Fab)
      (effects (font (size 0.5 0.5) (thickness 0.08)))
    )
    (fp_line (start 1.85 0.95) (end -1.85 0.95) (layer F.CrtYd) (width 0.05))
    (fp_line (start 1.85 -0.95) (end 1.85 0.95) (layer F.CrtYd) (width 0.05))
    (fp_line (start -1.85 -0.95) (end 1.85 -0.95) (layer F.CrtYd) (width 0.05))
    (fp_line (start -1.85 0.95) (end -1.85 -0.95) (layer F.CrtYd) (width 0.05))
    (fp_line (start -0.261252 0.71) (end 0.261252 0.71) (layer F.SilkS) (width 0.12))
    (fp_line (start -0.261252 -0.71) (end 0.261252 -0.71) (layer F.SilkS) (width 0.12))
    (fp_line (start 1 0.6) (end -1 0.6) (layer F.Fab) (width 0.1))
    (fp_line (start 1 -0.6) (end 1 0.6) (layer F.Fab) (width 0.1))
    (fp_line (start -1 -0.6) (end 1 -0.6) (layer F.Fab) (width 0.1))
    (fp_line (start -1 0.6) (end -1 -0.6) (layer F.Fab) (width 0.1))
    (pad 2 smd roundrect (at 1.025 0 270) (size 1.15 1.4) (layers F.Cu F.Paste F.Mask) (roundrect_rratio 0.217391))
    (pad 1 smd roundrect (at -1.025 0 270) (size 1.15 1.4) (layers F.Cu F.Paste F.Mask) (roundrect_rratio 0.217391))
    (model ${KISYS3DMOD}/Capacitor_SMD.3dshapes/C_0805_2012Metric.wrl
      (at (xyz 0 0 0))
      (scale (xyz 1 1 1))
      (rotate (xyz 0 0 0))
    )
  )

  (module Capacitor_SMD:C_0805_2012Metric_Pad1.15x1.40mm_HandSolder (layer F.Cu) (tedit 5B36C52B) (tstamp 5F8BDD1A)
    (at 194 148.4 270)
    (descr "Capacitor SMD 0805 (2012 Metric), square (rectangular) end terminal, IPC_7351 nominal with elongated pad for handsoldering. (Body size source: https://docs.google.com/spreadsheets/d/1BsfQQcO9C6DZCsRaXUlFlo91Tg2WpOkGARC1WS5S8t0/edit?usp=sharing), generated with kicad-footprint-generator")
    (tags "capacitor handsolder")
    (attr smd)
    (fp_text reference REF** (at 0 -1.65 270) (layer F.SilkS) hide
      (effects (font (size 1 1) (thickness 0.15)))
    )
    (fp_text value C_0805_2012Metric_Pad1.15x1.40mm_HandSolder (at 0 1.65 270) (layer F.Fab)
      (effects (font (size 1 1) (thickness 0.15)))
    )
    (fp_text user %R (at 0 0 270) (layer F.Fab)
      (effects (font (size 0.5 0.5) (thickness 0.08)))
    )
    (fp_line (start 1.85 0.95) (end -1.85 0.95) (layer F.CrtYd) (width 0.05))
    (fp_line (start 1.85 -0.95) (end 1.85 0.95) (layer F.CrtYd) (width 0.05))
    (fp_line (start -1.85 -0.95) (end 1.85 -0.95) (layer F.CrtYd) (width 0.05))
    (fp_line (start -1.85 0.95) (end -1.85 -0.95) (layer F.CrtYd) (width 0.05))
    (fp_line (start -0.261252 0.71) (end 0.261252 0.71) (layer F.SilkS) (width 0.12))
    (fp_line (start -0.261252 -0.71) (end 0.261252 -0.71) (layer F.SilkS) (width 0.12))
    (fp_line (start 1 0.6) (end -1 0.6) (layer F.Fab) (width 0.1))
    (fp_line (start 1 -0.6) (end 1 0.6) (layer F.Fab) (width 0.1))
    (fp_line (start -1 -0.6) (end 1 -0.6) (layer F.Fab) (width 0.1))
    (fp_line (start -1 0.6) (end -1 -0.6) (layer F.Fab) (width 0.1))
    (pad 2 smd roundrect (at 1.025 0 270) (size 1.15 1.4) (layers F.Cu F.Paste F.Mask) (roundrect_rratio 0.217391))
    (pad 1 smd roundrect (at -1.025 0 270) (size 1.15 1.4) (layers F.Cu F.Paste F.Mask) (roundrect_rratio 0.217391))
    (model ${KISYS3DMOD}/Capacitor_SMD.3dshapes/C_0805_2012Metric.wrl
      (at (xyz 0 0 0))
      (scale (xyz 1 1 1))
      (rotate (xyz 0 0 0))
    )
  )

  (module Capacitor_SMD:C_0805_2012Metric_Pad1.15x1.40mm_HandSolder (layer F.Cu) (tedit 5B36C52B) (tstamp 5F8BDD0A)
    (at 198 153.4 270)
    (descr "Capacitor SMD 0805 (2012 Metric), square (rectangular) end terminal, IPC_7351 nominal with elongated pad for handsoldering. (Body size source: https://docs.google.com/spreadsheets/d/1BsfQQcO9C6DZCsRaXUlFlo91Tg2WpOkGARC1WS5S8t0/edit?usp=sharing), generated with kicad-footprint-generator")
    (tags "capacitor handsolder")
    (attr smd)
    (fp_text reference REF** (at 0 -1.65 270) (layer F.SilkS) hide
      (effects (font (size 1 1) (thickness 0.15)))
    )
    (fp_text value C_0805_2012Metric_Pad1.15x1.40mm_HandSolder (at 0 1.65 270) (layer F.Fab)
      (effects (font (size 1 1) (thickness 0.15)))
    )
    (fp_text user %R (at 0 0 270) (layer F.Fab)
      (effects (font (size 0.5 0.5) (thickness 0.08)))
    )
    (fp_line (start 1.85 0.95) (end -1.85 0.95) (layer F.CrtYd) (width 0.05))
    (fp_line (start 1.85 -0.95) (end 1.85 0.95) (layer F.CrtYd) (width 0.05))
    (fp_line (start -1.85 -0.95) (end 1.85 -0.95) (layer F.CrtYd) (width 0.05))
    (fp_line (start -1.85 0.95) (end -1.85 -0.95) (layer F.CrtYd) (width 0.05))
    (fp_line (start -0.261252 0.71) (end 0.261252 0.71) (layer F.SilkS) (width 0.12))
    (fp_line (start -0.261252 -0.71) (end 0.261252 -0.71) (layer F.SilkS) (width 0.12))
    (fp_line (start 1 0.6) (end -1 0.6) (layer F.Fab) (width 0.1))
    (fp_line (start 1 -0.6) (end 1 0.6) (layer F.Fab) (width 0.1))
    (fp_line (start -1 -0.6) (end 1 -0.6) (layer F.Fab) (width 0.1))
    (fp_line (start -1 0.6) (end -1 -0.6) (layer F.Fab) (width 0.1))
    (pad 2 smd roundrect (at 1.025 0 270) (size 1.15 1.4) (layers F.Cu F.Paste F.Mask) (roundrect_rratio 0.217391))
    (pad 1 smd roundrect (at -1.025 0 270) (size 1.15 1.4) (layers F.Cu F.Paste F.Mask) (roundrect_rratio 0.217391))
    (model ${KISYS3DMOD}/Capacitor_SMD.3dshapes/C_0805_2012Metric.wrl
      (at (xyz 0 0 0))
      (scale (xyz 1 1 1))
      (rotate (xyz 0 0 0))
    )
  )

  (module Capacitor_SMD:C_0805_2012Metric_Pad1.15x1.40mm_HandSolder (layer F.Cu) (tedit 5B36C52B) (tstamp 5F8BDCFA)
    (at 198 143.4 270)
    (descr "Capacitor SMD 0805 (2012 Metric), square (rectangular) end terminal, IPC_7351 nominal with elongated pad for handsoldering. (Body size source: https://docs.google.com/spreadsheets/d/1BsfQQcO9C6DZCsRaXUlFlo91Tg2WpOkGARC1WS5S8t0/edit?usp=sharing), generated with kicad-footprint-generator")
    (tags "capacitor handsolder")
    (attr smd)
    (fp_text reference REF** (at 0 -1.65 270) (layer F.SilkS) hide
      (effects (font (size 1 1) (thickness 0.15)))
    )
    (fp_text value C_0805_2012Metric_Pad1.15x1.40mm_HandSolder (at 0 1.65 270) (layer F.Fab)
      (effects (font (size 1 1) (thickness 0.15)))
    )
    (fp_text user %R (at 0 0 270) (layer F.Fab)
      (effects (font (size 0.5 0.5) (thickness 0.08)))
    )
    (fp_line (start 1.85 0.95) (end -1.85 0.95) (layer F.CrtYd) (width 0.05))
    (fp_line (start 1.85 -0.95) (end 1.85 0.95) (layer F.CrtYd) (width 0.05))
    (fp_line (start -1.85 -0.95) (end 1.85 -0.95) (layer F.CrtYd) (width 0.05))
    (fp_line (start -1.85 0.95) (end -1.85 -0.95) (layer F.CrtYd) (width 0.05))
    (fp_line (start -0.261252 0.71) (end 0.261252 0.71) (layer F.SilkS) (width 0.12))
    (fp_line (start -0.261252 -0.71) (end 0.261252 -0.71) (layer F.SilkS) (width 0.12))
    (fp_line (start 1 0.6) (end -1 0.6) (layer F.Fab) (width 0.1))
    (fp_line (start 1 -0.6) (end 1 0.6) (layer F.Fab) (width 0.1))
    (fp_line (start -1 -0.6) (end 1 -0.6) (layer F.Fab) (width 0.1))
    (fp_line (start -1 0.6) (end -1 -0.6) (layer F.Fab) (width 0.1))
    (pad 2 smd roundrect (at 1.025 0 270) (size 1.15 1.4) (layers F.Cu F.Paste F.Mask) (roundrect_rratio 0.217391))
    (pad 1 smd roundrect (at -1.025 0 270) (size 1.15 1.4) (layers F.Cu F.Paste F.Mask) (roundrect_rratio 0.217391))
    (model ${KISYS3DMOD}/Capacitor_SMD.3dshapes/C_0805_2012Metric.wrl
      (at (xyz 0 0 0))
      (scale (xyz 1 1 1))
      (rotate (xyz 0 0 0))
    )
  )

  (gr_arc (start 142.15 96.4) (end 142.15 95.4) (angle -90) (layer B.Cu) (width 0.5))
  (gr_arc (start 142.15 138.15) (end 141.15 138.15) (angle -90) (layer B.Cu) (width 0.5))
  (gr_arc (start 152.9 140.15) (end 153.9 140.15) (angle -90) (layer F.Cu) (width 0.5))
  (gr_line (start 153.9 140.15) (end 153.9 142.4) (layer F.Cu) (width 0.5))
  (gr_line (start 142.15 139.15) (end 152.9 139.15) (layer F.Cu) (width 0.5))
  (gr_line (start 196.15 177.4) (end 196.15 169.9) (layer F.Cu) (width 0.5))
  (gr_line (start 153.9 177.4) (end 153.9 169.9) (layer F.Cu) (width 0.5))
  (gr_line (start 41 119.4) (end 41 119.65) (layer F.SilkS) (width 0.12) (tstamp 60B7EAC1))
  (gr_line (start 153.75 154.4) (end 153.75 154.65) (layer F.SilkS) (width 0.12) (tstamp 60B7E940))
  (gr_line (start 153.9 157.65) (end 153.9 154.4) (layer F.Cu) (width 0.75) (tstamp 60B7E93F))
  (gr_line (start 141.15 96.4) (end 141.15 138.15) (layer B.Cu) (width 0.5))
  (gr_line (start 145 95.4) (end 142.15 95.4) (layer B.Cu) (width 0.5))
  (gr_arc (start 168.25 143.4) (end 168.25 142.4) (angle -90) (layer B.Cu) (width 0.5))
  (gr_line (start 167.25 177.4) (end 167.25 143.4) (layer B.Cu) (width 0.5))
  (gr_line (start 204 142.4) (end 168.25 142.4) (layer B.Cu) (width 0.5))
  (gr_arc (start 155.25 111.65) (end 155 111.65) (angle -90) (layer F.Cu) (width 0.5))
  (gr_line (start 155 89.4) (end 155 111.65) (layer F.Cu) (width 0.5))
  (gr_arc (start 170 144.65) (end 169 144.65) (angle -90) (layer F.Cu) (width 0.5))
  (gr_arc (start 181.75 146.65) (end 182.75 146.65) (angle -90) (layer F.Cu) (width 0.5))
  (gr_line (start 182.75 177.4) (end 182.75 146.65) (layer F.Cu) (width 0.5))
  (gr_line (start 170 145.65) (end 181.75 145.65) (layer F.Cu) (width 0.5))
  (gr_line (start 169 132.4) (end 169 144.65) (layer F.Cu) (width 0.5))
  (gr_arc (start 195 140.9) (end 196 140.9) (angle -90) (layer F.Cu) (width 0.5))
  (gr_arc (start 182 138.9) (end 181 138.9) (angle -90) (layer F.Cu) (width 0.5))
  (gr_line (start 196 140.9) (end 196 142.4) (layer F.Cu) (width 0.5))
  (gr_line (start 182 139.9) (end 195 139.9) (layer F.Cu) (width 0.5))
  (gr_line (start 181 130.9) (end 181 138.9) (layer F.Cu) (width 0.5))
  (gr_line (start 196 154.4) (end 196 154.65) (layer F.SilkS) (width 0.12))
  (gr_line (start 196 157.65) (end 196 154.4) (layer F.Cu) (width 0.75))
  (gr_line (start 164.75 121.4) (end 187 121.4) (layer B.Cu) (width 0.5))
  (gr_arc (start 164.75 121.15) (end 164.5 121.15) (angle -90) (layer B.Cu) (width 0.5))
  (gr_text "Blue " (at 205.9 177.4) (layer F.SilkS)
    (effects (font (size 1.5 1.5) (thickness 0.3)))
  )
  (gr_text Green (at 144.65 177.4) (layer F.SilkS)
    (effects (font (size 1.5 1.5) (thickness 0.3)))
  )
  (gr_line (start 217 181.9) (end 133 181.9) (layer Edge.Cuts) (width 0.12))
  (gr_line (start 217 41.4) (end 133 41.4) (layer Edge.Cuts) (width 0.12) (tstamp 5F92A6B7))
  (gr_line (start 133 41.4) (end 133 181.9) (layer Edge.Cuts) (width 0.12))
  (gr_line (start 199 154.4) (end 199 172.4) (layer Dwgs.User) (width 0.12))
  (gr_line (start 115 41.4) (end 235 41.4) (layer Dwgs.User) (width 0.12))
  (gr_circle (center 175 101.4) (end 211 101.4) (layer Dwgs.User) (width 0.12))
  (gr_circle (center 175 101.4) (end 180.25 101.4) (layer Edge.Cuts) (width 0.12))
  (gr_line (start 217 41.4) (end 217 181.9) (layer Edge.Cuts) (width 0.12) (tstamp 5F8B7EB2))
  (gr_line (start 235 161.4) (end 235 41.4) (layer Dwgs.User) (width 0.12) (tstamp 5F8B7CB4))
  (gr_line (start 115 161.4) (end 235 161.4) (layer Dwgs.User) (width 0.12))
  (gr_line (start 115 41.4) (end 115 161.4) (layer Dwgs.User) (width 0.12))
  (gr_circle (center 125 151.4) (end 131.4 151.4) (layer Dwgs.User) (width 0.12))
  (gr_circle (center 225 151.4) (end 231.4 151.4) (layer Dwgs.User) (width 0.12))
  (gr_circle (center 125 51.4) (end 131.4 51.4) (layer Dwgs.User) (width 0.12))
  (gr_circle (center 225 51.4) (end 231.4 51.4) (layer Dwgs.User) (width 0.12))
  (gr_text "RF Coil v4.6\nA. Beregi, E. Bentine " (at 204 101.4 270) (layer F.SilkS)
    (effects (font (size 1 1) (thickness 0.15)))
  )
  (gr_line (start 175 96.4) (end 175 106.4) (layer Dwgs.User) (width 0.12))
  (gr_line (start 167 101.4) (end 183 101.4) (layer Dwgs.User) (width 0.12))

  (segment (start 196.025 147.375) (end 194 147.375) (width 0.75) (layer F.Cu) (net 0) (tstamp 5F8BDCF0))
  (segment (start 196.025 144.425) (end 196.025 147.375) (width 0.75) (layer F.Cu) (net 0) (tstamp 5F8BDCF1))
  (segment (start 196.025 149.425) (end 194 149.425) (width 0.75) (layer F.Cu) (net 0) (tstamp 5F8BDCF2))
  (segment (start 196.025 149.425) (end 196.025 152.375) (width 0.75) (layer F.Cu) (net 0) (tstamp 5F8BDCF3))
  (segment (start 198 144.425) (end 196.025 144.425) (width 0.75) (layer F.Cu) (net 0) (tstamp 5F8BDCF4))
  (segment (start 198 152.375) (end 196.025 152.375) (width 0.75) (layer F.Cu) (net 0) (tstamp 5F8BDCF5))
  (segment (start 198 149.425) (end 196.025 149.425) (width 0.75) (layer F.Cu) (net 0) (tstamp 5F8BDCF6))
  (segment (start 198 147.375) (end 196.025 147.375) (width 0.75) (layer F.Cu) (net 0) (tstamp 5F8BDCF7))
  (segment (start 196.025 144.425) (end 194 144.425) (width 0.75) (layer F.Cu) (net 0) (tstamp 5F8BDCF8))
  (segment (start 196.025 152.375) (end 194 152.375) (width 0.75) (layer F.Cu) (net 0) (tstamp 5F8BDCF9))
  (segment (start 195.96 154.66) (end 195.725 154.425) (width 0.25) (layer F.Cu) (net 0))
  (segment (start 198 154.425) (end 195.725 154.425) (width 0.75) (layer F.Cu) (net 0))
  (segment (start 195.725 154.425) (end 194 154.425) (width 0.75) (layer F.Cu) (net 0))
  (segment (start 196 142.35) (end 196.025 142.375) (width 0.75) (layer F.Cu) (net 0))
  (segment (start 194 142.375) (end 196.025 142.375) (width 0.75) (layer F.Cu) (net 0))
  (segment (start 196.025 142.375) (end 198 142.375) (width 0.75) (layer F.Cu) (net 0))
  (via (at 187 121.4) (size 0.8) (drill 0.4) (layers F.Cu B.Cu) (net 0))
  (via (at 164.5 121.15) (size 0.8) (drill 0.4) (layers F.Cu B.Cu) (net 0))
  (segment (start 196.05 165.37) (end 196.05 162.18) (width 0.75) (layer F.Cu) (net 0))
  (via (at 155 89.4) (size 0.8) (drill 0.4) (layers F.Cu B.Cu) (net 0))
  (via (at 155.25 111.9) (size 0.8) (drill 0.4) (layers F.Cu B.Cu) (net 0))
  (segment (start 153.775 147.375) (end 151.75 147.375) (width 0.75) (layer F.Cu) (net 0) (tstamp 60B7E8A9))
  (segment (start 153.9 144.425) (end 153.9 147.375) (width 0.75) (layer F.Cu) (net 0) (tstamp 60B7E8AA))
  (segment (start 153.775 149.425) (end 151.75 149.425) (width 0.75) (layer F.Cu) (net 0) (tstamp 60B7E8AB))
  (segment (start 153.71 154.66) (end 153.475 154.425) (width 0.25) (layer F.Cu) (net 0) (tstamp 60B7E8AC))
  (segment (start 155.75 147.375) (end 153.775 147.375) (width 0.75) (layer F.Cu) (net 0) (tstamp 60B7E8AD))
  (segment (start 153.9 149.45) (end 153.9 152.4) (width 0.75) (layer F.Cu) (net 0) (tstamp 60B7E8AE))
  (segment (start 155.75 154.425) (end 153.475 154.425) (width 0.75) (layer F.Cu) (net 0) (tstamp 60B7E8AF))
  (segment (start 153.475 154.425) (end 151.75 154.425) (width 0.75) (layer F.Cu) (net 0) (tstamp 60B7E8B0))
  (segment (start 155.75 149.425) (end 153.775 149.425) (width 0.75) (layer F.Cu) (net 0) (tstamp 60B7E8B1))
  (segment (start 155.75 152.375) (end 153.775 152.375) (width 0.75) (layer F.Cu) (net 0) (tstamp 60B7E8B2))
  (segment (start 153.775 152.375) (end 151.75 152.375) (width 0.75) (layer F.Cu) (net 0) (tstamp 60B7E8B3))
  (segment (start 153.775 144.425) (end 151.75 144.425) (width 0.75) (layer F.Cu) (net 0) (tstamp 60B7E8B4))
  (segment (start 155.75 144.425) (end 153.775 144.425) (width 0.75) (layer F.Cu) (net 0) (tstamp 60B7E8B5))
  (segment (start 153.775 142.375) (end 155.75 142.375) (width 0.75) (layer F.Cu) (net 0) (tstamp 60B7E8B6))
  (segment (start 151.75 142.375) (end 153.775 142.375) (width 0.75) (layer F.Cu) (net 0) (tstamp 60B7E8B7))
  (segment (start 153.9 165.305) (end 153.9 162.115) (width 0.75) (layer F.Cu) (net 0) (tstamp 60B7E8F8))
  (via (at 142.15 139.15) (size 0.8) (drill 0.4) (layers F.Cu B.Cu) (net 0))
  (segment (start 180.46499 174.86) (end 180.21 174.86) (width 2.25) (layer F.Cu) (net 2))

  (zone (net 2) (net_name GND) (layer F.Cu) (tstamp 0) (hatch edge 0.508)
    (connect_pads yes (clearance 0.508))
    (min_thickness 0.254)
    (fill yes (arc_segments 32) (thermal_gap 0.508) (thermal_bridge_width 0.508))
    (polygon
      (pts
        (xy 148.15 172.65) (xy 202.15 172.65) (xy 202.15 181.9) (xy 148.15 181.9)
      )
    )
    (filled_polygon
      (pts
        (xy 153.015 175.874604) (xy 152.778065 176.032919) (xy 152.532919 176.278065) (xy 152.340308 176.566327) (xy 152.207636 176.886627)
        (xy 152.14 177.226655) (xy 152.14 177.573345) (xy 152.207636 177.913373) (xy 152.340308 178.233673) (xy 152.532919 178.521935)
        (xy 152.778065 178.767081) (xy 153.066327 178.959692) (xy 153.386627 179.092364) (xy 153.726655 179.16) (xy 154.073345 179.16)
        (xy 154.413373 179.092364) (xy 154.733673 178.959692) (xy 155.021935 178.767081) (xy 155.267081 178.521935) (xy 155.459692 178.233673)
        (xy 155.592364 177.913373) (xy 155.66 177.573345) (xy 155.66 177.226655) (xy 165.49 177.226655) (xy 165.49 177.573345)
        (xy 165.557636 177.913373) (xy 165.690308 178.233673) (xy 165.882919 178.521935) (xy 166.128065 178.767081) (xy 166.416327 178.959692)
        (xy 166.736627 179.092364) (xy 167.076655 179.16) (xy 167.423345 179.16) (xy 167.763373 179.092364) (xy 168.083673 178.959692)
        (xy 168.371935 178.767081) (xy 168.617081 178.521935) (xy 168.809692 178.233673) (xy 168.942364 177.913373) (xy 169.01 177.573345)
        (xy 169.01 177.226655) (xy 168.942364 176.886627) (xy 168.809692 176.566327) (xy 168.617081 176.278065) (xy 168.371935 176.032919)
        (xy 168.083673 175.840308) (xy 167.763373 175.707636) (xy 167.423345 175.64) (xy 167.076655 175.64) (xy 166.736627 175.707636)
        (xy 166.416327 175.840308) (xy 166.128065 176.032919) (xy 165.882919 176.278065) (xy 165.690308 176.566327) (xy 165.557636 176.886627)
        (xy 165.49 177.226655) (xy 155.66 177.226655) (xy 155.592364 176.886627) (xy 155.459692 176.566327) (xy 155.267081 176.278065)
        (xy 155.021935 176.032919) (xy 154.785 175.874604) (xy 154.785 172.777) (xy 181.865 172.777) (xy 181.865 175.874604)
        (xy 181.628065 176.032919) (xy 181.382919 176.278065) (xy 181.190308 176.566327) (xy 181.057636 176.886627) (xy 180.99 177.226655)
        (xy 180.99 177.573345) (xy 181.057636 177.913373) (xy 181.190308 178.233673) (xy 181.382919 178.521935) (xy 181.628065 178.767081)
        (xy 181.916327 178.959692) (xy 182.236627 179.092364) (xy 182.576655 179.16) (xy 182.923345 179.16) (xy 183.263373 179.092364)
        (xy 183.583673 178.959692) (xy 183.871935 178.767081) (xy 184.117081 178.521935) (xy 184.309692 178.233673) (xy 184.442364 177.913373)
        (xy 184.51 177.573345) (xy 184.51 177.226655) (xy 184.442364 176.886627) (xy 184.309692 176.566327) (xy 184.117081 176.278065)
        (xy 183.871935 176.032919) (xy 183.635 175.874604) (xy 183.635 172.777) (xy 195.265001 172.777) (xy 195.265 175.841195)
        (xy 194.978065 176.032919) (xy 194.732919 176.278065) (xy 194.540308 176.566327) (xy 194.407636 176.886627) (xy 194.34 177.226655)
        (xy 194.34 177.573345) (xy 194.407636 177.913373) (xy 194.540308 178.233673) (xy 194.732919 178.521935) (xy 194.978065 178.767081)
        (xy 195.266327 178.959692) (xy 195.586627 179.092364) (xy 195.926655 179.16) (xy 196.273345 179.16) (xy 196.613373 179.092364)
        (xy 196.933673 178.959692) (xy 197.221935 178.767081) (xy 197.467081 178.521935) (xy 197.659692 178.233673) (xy 197.792364 177.913373)
        (xy 197.86 177.573345) (xy 197.86 177.226655) (xy 197.792364 176.886627) (xy 197.659692 176.566327) (xy 197.467081 176.278065)
        (xy 197.221935 176.032919) (xy 197.035 175.908013) (xy 197.035 172.777) (xy 202.023 172.777) (xy 202.023 181.205)
        (xy 148.277 181.205) (xy 148.277 172.777) (xy 153.015001 172.777)
      )
    )
  )
  (zone (net 2) (net_name GND) (layer B.Cu) (tstamp 0) (hatch edge 0.508)
    (connect_pads yes (clearance 0.508))
    (min_thickness 0.254)
    (fill yes (arc_segments 32) (thermal_gap 0.508) (thermal_bridge_width 0.508))
    (polygon
      (pts
        (xy 148.15 172.65) (xy 148.15 181.9) (xy 202.15 181.9) (xy 202.15 172.65)
      )
    )
    (filled_polygon
      (pts
        (xy 166.365 175.874604) (xy 166.128065 176.032919) (xy 165.882919 176.278065) (xy 165.690308 176.566327) (xy 165.557636 176.886627)
        (xy 165.49 177.226655) (xy 165.49 177.573345) (xy 165.557636 177.913373) (xy 165.690308 178.233673) (xy 165.882919 178.521935)
        (xy 166.128065 178.767081) (xy 166.416327 178.959692) (xy 166.736627 179.092364) (xy 167.076655 179.16) (xy 167.423345 179.16)
        (xy 167.763373 179.092364) (xy 168.083673 178.959692) (xy 168.371935 178.767081) (xy 168.617081 178.521935) (xy 168.809692 178.233673)
        (xy 168.942364 177.913373) (xy 169.01 177.573345) (xy 169.01 177.226655) (xy 180.99 177.226655) (xy 180.99 177.573345)
        (xy 181.057636 177.913373) (xy 181.190308 178.233673) (xy 181.382919 178.521935) (xy 181.628065 178.767081) (xy 181.916327 178.959692)
        (xy 182.236627 179.092364) (xy 182.576655 179.16) (xy 182.923345 179.16) (xy 183.263373 179.092364) (xy 183.583673 178.959692)
        (xy 183.871935 178.767081) (xy 184.117081 178.521935) (xy 184.309692 178.233673) (xy 184.442364 177.913373) (xy 184.51 177.573345)
        (xy 184.51 177.226655) (xy 194.34 177.226655) (xy 194.34 177.573345) (xy 194.407636 177.913373) (xy 194.540308 178.233673)
        (xy 194.732919 178.521935) (xy 194.978065 178.767081) (xy 195.266327 178.959692) (xy 195.586627 179.092364) (xy 195.926655 179.16)
        (xy 196.273345 179.16) (xy 196.613373 179.092364) (xy 196.933673 178.959692) (xy 197.221935 178.767081) (xy 197.467081 178.521935)
        (xy 197.659692 178.233673) (xy 197.792364 177.913373) (xy 197.86 177.573345) (xy 197.86 177.226655) (xy 197.792364 176.886627)
        (xy 197.659692 176.566327) (xy 197.467081 176.278065) (xy 197.221935 176.032919) (xy 196.933673 175.840308) (xy 196.613373 175.707636)
        (xy 196.273345 175.64) (xy 195.926655 175.64) (xy 195.586627 175.707636) (xy 195.266327 175.840308) (xy 194.978065 176.032919)
        (xy 194.732919 176.278065) (xy 194.540308 176.566327) (xy 194.407636 176.886627) (xy 194.34 177.226655) (xy 184.51 177.226655)
        (xy 184.442364 176.886627) (xy 184.309692 176.566327) (xy 184.117081 176.278065) (xy 183.871935 176.032919) (xy 183.583673 175.840308)
        (xy 183.263373 175.707636) (xy 182.923345 175.64) (xy 182.576655 175.64) (xy 182.236627 175.707636) (xy 181.916327 175.840308)
        (xy 181.628065 176.032919) (xy 181.382919 176.278065) (xy 181.190308 176.566327) (xy 181.057636 176.886627) (xy 180.99 177.226655)
        (xy 169.01 177.226655) (xy 168.942364 176.886627) (xy 168.809692 176.566327) (xy 168.617081 176.278065) (xy 168.371935 176.032919)
        (xy 168.135 175.874604) (xy 168.135 172.777) (xy 202.023 172.777) (xy 202.023 181.205) (xy 148.277 181.205)
        (xy 148.277 177.226655) (xy 152.14 177.226655) (xy 152.14 177.573345) (xy 152.207636 177.913373) (xy 152.340308 178.233673)
        (xy 152.532919 178.521935) (xy 152.778065 178.767081) (xy 153.066327 178.959692) (xy 153.386627 179.092364) (xy 153.726655 179.16)
        (xy 154.073345 179.16) (xy 154.413373 179.092364) (xy 154.733673 178.959692) (xy 155.021935 178.767081) (xy 155.267081 178.521935)
        (xy 155.459692 178.233673) (xy 155.592364 177.913373) (xy 155.66 177.573345) (xy 155.66 177.226655) (xy 155.592364 176.886627)
        (xy 155.459692 176.566327) (xy 155.267081 176.278065) (xy 155.021935 176.032919) (xy 154.733673 175.840308) (xy 154.413373 175.707636)
        (xy 154.073345 175.64) (xy 153.726655 175.64) (xy 153.386627 175.707636) (xy 153.066327 175.840308) (xy 152.778065 176.032919)
        (xy 152.532919 176.278065) (xy 152.340308 176.566327) (xy 152.207636 176.886627) (xy 152.14 177.226655) (xy 148.277 177.226655)
        (xy 148.277 172.777) (xy 166.365 172.777)
      )
    )
  )
)
