(module coil_front_3 (layer F.Cu) (tedit 5F312A48)
  (fp_text reference REF** (at -7.51 -2.49) (layer F.SilkS)
    (effects (font (size 1 1) (thickness 0.15)))
  )
  (fp_text value coil_front_3 (at -6.24 -5.03) (layer F.Fab)
    (effects (font (size 1 1) (thickness 0.15)))
  )
  (fp_line (start 1.25 -60) (end 33.15 -60) (layer In2.Cu) (width 1.25))
  (fp_line (start 4.5 -3.35) (end 4.5 -54.55) (layer In2.Cu) (width 1.25))
  (fp_line (start 30.9 -2.1) (end 5.75 -2.1) (layer In2.Cu) (width 1.25))
  (fp_line (start 32.15 -56.65) (end 32.15 -3.35) (layer In2.Cu) (width 1.25))
  (fp_line (start 5.75 -55.8) (end 28.65 -55.8) (layer In2.Cu) (width 1.25))
  (fp_line (start 3.5 -57.9) (end 30.9 -57.9) (layer In2.Cu) (width 1.25))
  (fp_arc (start 33.15 -1.25) (end 33.15 0) (angle -90) (layer In2.Cu) (width 1.25))
  (fp_line (start 28.65 -4.2) (end 8 -4.2) (layer In2.Cu) (width 1.25))
  (fp_line (start 0 -58.75) (end 0 0) (layer In2.Cu) (width 1.25))
  (fp_arc (start 8 -5.45) (end 6.75 -5.45) (angle -90) (layer In2.Cu) (width 1.25))
  (fp_line (start 6.75 -5.45) (end 6.75 -52.45) (layer In2.Cu) (width 1.25))
  (fp_arc (start 28.65 -54.55) (end 29.9 -54.55) (angle -90) (layer In2.Cu) (width 1.25))
  (fp_arc (start 5.75 -3.35) (end 4.5 -3.35) (angle -90) (layer In2.Cu) (width 1.25))
  (fp_arc (start 3.5 -56.65) (end 3.5 -57.9) (angle -90) (layer In2.Cu) (width 1.25))
  (fp_arc (start 30.9 -56.65) (end 32.15 -56.65) (angle -90) (layer In2.Cu) (width 1.25))
  (fp_arc (start 26.4 -52.45) (end 27.65 -52.45) (angle -90) (layer In2.Cu) (width 1.25))
  (fp_arc (start 30.9 -3.35) (end 30.9 -2.1) (angle -90) (layer In2.Cu) (width 1.25))
  (fp_arc (start 33.15 -58.75) (end 34.4 -58.75) (angle -90) (layer In2.Cu) (width 1.25))
  (fp_arc (start 5.75 -54.55) (end 5.75 -55.8) (angle -90) (layer In2.Cu) (width 1.25))
  (fp_line (start 29.9 -54.55) (end 29.9 -5.45) (layer In2.Cu) (width 1.25))
  (fp_arc (start 3.5 -1.25) (end 2.25 -1.25) (angle -90) (layer In2.Cu) (width 1.25))
  (fp_line (start 26.4 -6.3) (end 10.25 -6.3) (layer In2.Cu) (width 1.25))
  (fp_line (start 8 -53.7) (end 26.4 -53.7) (layer In2.Cu) (width 1.25))
  (fp_arc (start 8 -52.45) (end 8 -53.7) (angle -90) (layer In2.Cu) (width 1.25))
  (fp_arc (start 28.65 -5.45) (end 28.65 -4.2) (angle -90) (layer In2.Cu) (width 1.25))
  (fp_line (start 34.4 -58.75) (end 34.4 -1.25) (layer In2.Cu) (width 1.25))
  (fp_line (start 33.15 0) (end 3.5 0) (layer In2.Cu) (width 1.25))
  (fp_line (start 27.65 -52.45) (end 27.65 -7.55) (layer In2.Cu) (width 1.25))
  (fp_line (start 2.25 -1.25) (end 2.25 -56.65) (layer In2.Cu) (width 1.25))
  (fp_arc (start 26.4 -7.55) (end 26.4 -6.3) (angle -90) (layer In2.Cu) (width 1.25))
  (fp_arc (start 1.25 -58.75) (end 1.25 -60) (angle -90) (layer In2.Cu) (width 1.25))
  (fp_line (start 9 -7.55) (end 9 -27.575) (layer In2.Cu) (width 1.25))
  (fp_arc (start 10.25 -7.55) (end 9 -7.55) (angle -90) (layer In2.Cu) (width 1.25))
  (pad 1 smd circle (at 0 0) (size 0.5 0.5) (layers F.Cu))
  (pad 2 smd circle (at 9 -27.575) (size 0.5 0.5) (layers F.Cu))
)
