%FSLAX45Y45*%
G04 Gerber Fmt 4.5, Leading zero omitted, Abs format (unit mm)*
G04 Created by KiCad (PCBNEW (5.1.0)-1) date 2020-08-07 10:39:15*
%MOMM*%
%LPD*%
G04 APERTURE LIST*
%ADD10C,0.120000*%
%ADD11C,0.125000*%
%ADD12C,0.200000*%
%ADD13C,0.300000*%
G04 APERTURE END LIST*
D10*
X7349010Y-3844000D02*
X5950010Y-2444000D01*
X7955510Y5155823D02*
X5950010Y3149000D01*
X7955510Y5155823D02*
X8186184Y5545212D01*
X9650000Y6840000D02*
X4062010Y6840000D01*
X9650000Y5340000D02*
X9650000Y6840000D01*
X9350000Y5340000D02*
X9650000Y5340000D01*
X8186184Y5545212D02*
G75*
G02X9350000Y5340000I563816J-205212D01*
G01*
X9350000Y-5340000D02*
X9650000Y-5340000D01*
D11*
X9650000Y-3844177D02*
X9650000Y-5340000D01*
D10*
X7950000Y-5540000D02*
X8180674Y-5150611D01*
X8180674Y-5150611D02*
G75*
G02X8750000Y-4740000I569326J-189389D01*
G01*
X8750000Y-4740000D02*
G75*
G02X9350000Y-5340000I0J-600000D01*
G01*
X9650000Y-3844177D02*
X7349010Y-3844000D01*
X-4800000Y-5540000D02*
X7950000Y-5540000D01*
X-4800000Y-5340000D02*
X-4800000Y-5540000D01*
X5950000Y3149000D02*
X5950010Y-2444000D01*
X4062000Y9735000D02*
X4062000Y6840000D01*
X-3000000Y5540000D02*
X-3000000Y9735000D01*
X-4800000Y5540000D02*
X-3000000Y5540000D01*
X-5600000Y-4740000D02*
X-5600000Y4740000D01*
X-5400000Y-4740000D02*
X-5600000Y-4740000D01*
X-5400000Y-4740000D02*
G75*
G02X-4800000Y-5340000I0J-600000D01*
G01*
X-4800000Y5340000D02*
X-4800000Y5540000D01*
X-5400000Y4740000D02*
X-5600000Y4740000D01*
X-4800000Y5340000D02*
G75*
G02X-5400000Y4740000I-600000J0D01*
G01*
X-3000000Y9735000D02*
X4062000Y9735000D01*
X1275000Y0D02*
G75*
G03X1275000Y0I-1275000J0D01*
G01*
D12*
X-2630000Y8195000D02*
X-2590000Y8155000D01*
X-2590000Y8195000D02*
X-2630000Y8155000D01*
X-2630000Y7615000D02*
X-2590000Y7575000D01*
X-2590000Y7615000D02*
X-2630000Y7575000D01*
X-2340000Y2347000D02*
X-2300000Y2307000D01*
X-2300000Y2347000D02*
X-2340000Y2307000D01*
X-1463750Y6721250D02*
X-1423750Y6681250D01*
X-1423750Y6721250D02*
X-1463750Y6681250D01*
X1530000Y6721250D02*
X1570000Y6681250D01*
X1570000Y6721250D02*
X1530000Y6681250D01*
X2300000Y2347000D02*
X2340000Y2307000D01*
X2340000Y2347000D02*
X2300000Y2307000D01*
D13*
X-5319572Y-6011714D02*
X-5319572Y-5711714D01*
X-5248143Y-5711714D01*
X-5205286Y-5726000D01*
X-5176714Y-5754571D01*
X-5162429Y-5783143D01*
X-5148143Y-5840286D01*
X-5148143Y-5883143D01*
X-5162429Y-5940286D01*
X-5176714Y-5968857D01*
X-5205286Y-5997429D01*
X-5248143Y-6011714D01*
X-5319572Y-6011714D01*
X-5019572Y-6011714D02*
X-5019572Y-5811714D01*
X-5019572Y-5868857D02*
X-5005286Y-5840286D01*
X-4991000Y-5826000D01*
X-4962429Y-5811714D01*
X-4933857Y-5811714D01*
X-4833857Y-6011714D02*
X-4833857Y-5811714D01*
X-4833857Y-5711714D02*
X-4848143Y-5726000D01*
X-4833857Y-5740286D01*
X-4819572Y-5726000D01*
X-4833857Y-5711714D01*
X-4833857Y-5740286D01*
X-4648143Y-6011714D02*
X-4676714Y-5997429D01*
X-4691000Y-5968857D01*
X-4691000Y-5711714D01*
X-4491000Y-6011714D02*
X-4519572Y-5997429D01*
X-4533857Y-5968857D01*
X-4533857Y-5711714D01*
X-4148143Y-6011714D02*
X-4148143Y-5711714D01*
X-4048143Y-5926000D01*
X-3948143Y-5711714D01*
X-3948143Y-6011714D01*
X-3676714Y-6011714D02*
X-3676714Y-5854571D01*
X-3691000Y-5826000D01*
X-3719571Y-5811714D01*
X-3776714Y-5811714D01*
X-3805286Y-5826000D01*
X-3676714Y-5997429D02*
X-3705286Y-6011714D01*
X-3776714Y-6011714D01*
X-3805286Y-5997429D01*
X-3819571Y-5968857D01*
X-3819571Y-5940286D01*
X-3805286Y-5911714D01*
X-3776714Y-5897429D01*
X-3705286Y-5897429D01*
X-3676714Y-5883143D01*
X-3533857Y-5811714D02*
X-3533857Y-6111714D01*
X-3533857Y-5826000D02*
X-3505286Y-5811714D01*
X-3448143Y-5811714D01*
X-3419571Y-5826000D01*
X-3405286Y-5840286D01*
X-3391000Y-5868857D01*
X-3391000Y-5954571D01*
X-3405286Y-5983143D01*
X-3419571Y-5997429D01*
X-3448143Y-6011714D01*
X-3505286Y-6011714D01*
X-3533857Y-5997429D01*
X-3262429Y-5983143D02*
X-3248143Y-5997429D01*
X-3262429Y-6011714D01*
X-3276714Y-5997429D01*
X-3262429Y-5983143D01*
X-3262429Y-6011714D01*
X-3262429Y-5826000D02*
X-3248143Y-5840286D01*
X-3262429Y-5854571D01*
X-3276714Y-5840286D01*
X-3262429Y-5826000D01*
X-3262429Y-5854571D01*
X-5646000Y-6486000D02*
X-5606000Y-6526000D01*
X-5606000Y-6486000D02*
X-5646000Y-6526000D01*
X-5262429Y-6341714D02*
X-5233857Y-6341714D01*
X-5205286Y-6356000D01*
X-5191000Y-6370286D01*
X-5176714Y-6398857D01*
X-5162429Y-6456000D01*
X-5162429Y-6527429D01*
X-5176714Y-6584571D01*
X-5191000Y-6613143D01*
X-5205286Y-6627429D01*
X-5233857Y-6641714D01*
X-5262429Y-6641714D01*
X-5291000Y-6627429D01*
X-5305286Y-6613143D01*
X-5319572Y-6584571D01*
X-5333857Y-6527429D01*
X-5333857Y-6456000D01*
X-5319572Y-6398857D01*
X-5305286Y-6370286D01*
X-5291000Y-6356000D01*
X-5262429Y-6341714D01*
X-5033857Y-6613143D02*
X-5019572Y-6627429D01*
X-5033857Y-6641714D01*
X-5048143Y-6627429D01*
X-5033857Y-6613143D01*
X-5033857Y-6641714D01*
X-4762429Y-6441714D02*
X-4762429Y-6641714D01*
X-4833857Y-6327429D02*
X-4905286Y-6541714D01*
X-4719572Y-6541714D01*
X-4548143Y-6341714D02*
X-4519572Y-6341714D01*
X-4491000Y-6356000D01*
X-4476714Y-6370286D01*
X-4462429Y-6398857D01*
X-4448143Y-6456000D01*
X-4448143Y-6527429D01*
X-4462429Y-6584571D01*
X-4476714Y-6613143D01*
X-4491000Y-6627429D01*
X-4519572Y-6641714D01*
X-4548143Y-6641714D01*
X-4576714Y-6627429D01*
X-4591000Y-6613143D01*
X-4605286Y-6584571D01*
X-4619572Y-6527429D01*
X-4619572Y-6456000D01*
X-4605286Y-6398857D01*
X-4591000Y-6370286D01*
X-4576714Y-6356000D01*
X-4548143Y-6341714D01*
X-4319572Y-6641714D02*
X-4319572Y-6441714D01*
X-4319572Y-6470286D02*
X-4305286Y-6456000D01*
X-4276714Y-6441714D01*
X-4233857Y-6441714D01*
X-4205286Y-6456000D01*
X-4191000Y-6484571D01*
X-4191000Y-6641714D01*
X-4191000Y-6484571D02*
X-4176714Y-6456000D01*
X-4148143Y-6441714D01*
X-4105286Y-6441714D01*
X-4076714Y-6456000D01*
X-4062429Y-6484571D01*
X-4062429Y-6641714D01*
X-3919571Y-6641714D02*
X-3919571Y-6441714D01*
X-3919571Y-6470286D02*
X-3905286Y-6456000D01*
X-3876714Y-6441714D01*
X-3833857Y-6441714D01*
X-3805286Y-6456000D01*
X-3791000Y-6484571D01*
X-3791000Y-6641714D01*
X-3791000Y-6484571D02*
X-3776714Y-6456000D01*
X-3748143Y-6441714D01*
X-3705286Y-6441714D01*
X-3676714Y-6456000D01*
X-3662429Y-6484571D01*
X-3662429Y-6641714D01*
X-3076714Y-6327429D02*
X-3333857Y-6713143D01*
X-2691000Y-6341714D02*
X-2662429Y-6341714D01*
X-2633857Y-6356000D01*
X-2619572Y-6370286D01*
X-2605286Y-6398857D01*
X-2591000Y-6456000D01*
X-2591000Y-6527429D01*
X-2605286Y-6584571D01*
X-2619572Y-6613143D01*
X-2633857Y-6627429D01*
X-2662429Y-6641714D01*
X-2691000Y-6641714D01*
X-2719572Y-6627429D01*
X-2733857Y-6613143D01*
X-2748143Y-6584571D01*
X-2762429Y-6527429D01*
X-2762429Y-6456000D01*
X-2748143Y-6398857D01*
X-2733857Y-6370286D01*
X-2719572Y-6356000D01*
X-2691000Y-6341714D01*
X-2462429Y-6613143D02*
X-2448143Y-6627429D01*
X-2462429Y-6641714D01*
X-2476714Y-6627429D01*
X-2462429Y-6613143D01*
X-2462429Y-6641714D01*
X-2262429Y-6341714D02*
X-2233857Y-6341714D01*
X-2205286Y-6356000D01*
X-2191000Y-6370286D01*
X-2176714Y-6398857D01*
X-2162429Y-6456000D01*
X-2162429Y-6527429D01*
X-2176714Y-6584571D01*
X-2191000Y-6613143D01*
X-2205286Y-6627429D01*
X-2233857Y-6641714D01*
X-2262429Y-6641714D01*
X-2291000Y-6627429D01*
X-2305286Y-6613143D01*
X-2319572Y-6584571D01*
X-2333857Y-6527429D01*
X-2333857Y-6456000D01*
X-2319572Y-6398857D01*
X-2305286Y-6370286D01*
X-2291000Y-6356000D01*
X-2262429Y-6341714D01*
X-1876714Y-6641714D02*
X-2048143Y-6641714D01*
X-1962429Y-6641714D02*
X-1962429Y-6341714D01*
X-1991000Y-6384571D01*
X-2019571Y-6413143D01*
X-2048143Y-6427429D01*
X-1619571Y-6341714D02*
X-1676714Y-6341714D01*
X-1705286Y-6356000D01*
X-1719571Y-6370286D01*
X-1748143Y-6413143D01*
X-1762429Y-6470286D01*
X-1762429Y-6584571D01*
X-1748143Y-6613143D01*
X-1733857Y-6627429D01*
X-1705286Y-6641714D01*
X-1648143Y-6641714D01*
X-1619571Y-6627429D01*
X-1605286Y-6613143D01*
X-1591000Y-6584571D01*
X-1591000Y-6513143D01*
X-1605286Y-6484571D01*
X-1619571Y-6470286D01*
X-1648143Y-6456000D01*
X-1705286Y-6456000D01*
X-1733857Y-6470286D01*
X-1748143Y-6484571D01*
X-1762429Y-6513143D01*
X-1476714Y-6341714D02*
X-1476714Y-6398857D01*
X-1362429Y-6341714D02*
X-1362429Y-6398857D01*
X-919571Y-6756000D02*
X-933857Y-6741714D01*
X-962429Y-6698857D01*
X-976714Y-6670286D01*
X-991000Y-6627429D01*
X-1005286Y-6556000D01*
X-1005286Y-6498857D01*
X-991000Y-6427429D01*
X-976714Y-6384571D01*
X-962429Y-6356000D01*
X-933857Y-6313143D01*
X-919571Y-6298857D01*
X-676714Y-6341714D02*
X-733857Y-6341714D01*
X-762429Y-6356000D01*
X-776714Y-6370286D01*
X-805286Y-6413143D01*
X-819571Y-6470286D01*
X-819571Y-6584571D01*
X-805286Y-6613143D01*
X-791000Y-6627429D01*
X-762429Y-6641714D01*
X-705286Y-6641714D01*
X-676714Y-6627429D01*
X-662429Y-6613143D01*
X-648143Y-6584571D01*
X-648143Y-6513143D01*
X-662429Y-6484571D01*
X-676714Y-6470286D01*
X-705286Y-6456000D01*
X-762429Y-6456000D01*
X-791000Y-6470286D01*
X-805286Y-6484571D01*
X-819571Y-6513143D01*
X-291000Y-6641714D02*
X-291000Y-6341714D01*
X-162429Y-6641714D02*
X-162429Y-6484571D01*
X-176714Y-6456000D01*
X-205286Y-6441714D01*
X-248143Y-6441714D01*
X-276714Y-6456000D01*
X-291000Y-6470286D01*
X23286Y-6641714D02*
X-5286Y-6627429D01*
X-19572Y-6613143D01*
X-33857Y-6584571D01*
X-33857Y-6498857D01*
X-19572Y-6470286D01*
X-5286Y-6456000D01*
X23286Y-6441714D01*
X66143Y-6441714D01*
X94714Y-6456000D01*
X109000Y-6470286D01*
X123286Y-6498857D01*
X123286Y-6584571D01*
X109000Y-6613143D01*
X94714Y-6627429D01*
X66143Y-6641714D01*
X23286Y-6641714D01*
X294714Y-6641714D02*
X266143Y-6627429D01*
X251857Y-6598857D01*
X251857Y-6341714D01*
X523286Y-6627429D02*
X494714Y-6641714D01*
X437571Y-6641714D01*
X409000Y-6627429D01*
X394714Y-6598857D01*
X394714Y-6484571D01*
X409000Y-6456000D01*
X437571Y-6441714D01*
X494714Y-6441714D01*
X523286Y-6456000D01*
X537571Y-6484571D01*
X537571Y-6513143D01*
X394714Y-6541714D01*
X651857Y-6627429D02*
X680428Y-6641714D01*
X737571Y-6641714D01*
X766143Y-6627429D01*
X780428Y-6598857D01*
X780428Y-6584571D01*
X766143Y-6556000D01*
X737571Y-6541714D01*
X694714Y-6541714D01*
X666143Y-6527429D01*
X651857Y-6498857D01*
X651857Y-6484571D01*
X666143Y-6456000D01*
X694714Y-6441714D01*
X737571Y-6441714D01*
X766143Y-6456000D01*
X880428Y-6756000D02*
X894714Y-6741714D01*
X923286Y-6698857D01*
X937571Y-6670286D01*
X951857Y-6627429D01*
X966143Y-6556000D01*
X966143Y-6498857D01*
X951857Y-6427429D01*
X937571Y-6384571D01*
X923286Y-6356000D01*
X894714Y-6313143D01*
X880428Y-6298857D01*
M02*
