%TF.GenerationSoftware,KiCad,Pcbnew,(5.1.0)-1*%
%TF.CreationDate,2020-10-02T17:40:11+01:00*%
%TF.ProjectId,single_coil,73696e67-6c65-45f6-936f-696c2e6b6963,rev?*%
%TF.SameCoordinates,Original*%
%TF.FileFunction,Legend,Top*%
%TF.FilePolarity,Positive*%
%FSLAX46Y46*%
G04 Gerber Fmt 4.6, Leading zero omitted, Abs format (unit mm)*
G04 Created by KiCad (PCBNEW (5.1.0)-1) date 2020-10-02 17:40:11*
%MOMM*%
%LPD*%
G04 APERTURE LIST*
%ADD10C,0.150000*%
%ADD11C,0.120000*%
G04 APERTURE END LIST*
D10*
X204372619Y-98209523D02*
X204848809Y-97876190D01*
X204372619Y-97638095D02*
X205372619Y-97638095D01*
X205372619Y-98019047D01*
X205325000Y-98114285D01*
X205277380Y-98161904D01*
X205182142Y-98209523D01*
X205039285Y-98209523D01*
X204944047Y-98161904D01*
X204896428Y-98114285D01*
X204848809Y-98019047D01*
X204848809Y-97638095D01*
X204896428Y-98971428D02*
X204896428Y-98638095D01*
X204372619Y-98638095D02*
X205372619Y-98638095D01*
X205372619Y-99114285D01*
X204467857Y-100828571D02*
X204420238Y-100780952D01*
X204372619Y-100638095D01*
X204372619Y-100542857D01*
X204420238Y-100400000D01*
X204515476Y-100304761D01*
X204610714Y-100257142D01*
X204801190Y-100209523D01*
X204944047Y-100209523D01*
X205134523Y-100257142D01*
X205229761Y-100304761D01*
X205325000Y-100400000D01*
X205372619Y-100542857D01*
X205372619Y-100638095D01*
X205325000Y-100780952D01*
X205277380Y-100828571D01*
X204372619Y-101400000D02*
X204420238Y-101304761D01*
X204467857Y-101257142D01*
X204563095Y-101209523D01*
X204848809Y-101209523D01*
X204944047Y-101257142D01*
X204991666Y-101304761D01*
X205039285Y-101400000D01*
X205039285Y-101542857D01*
X204991666Y-101638095D01*
X204944047Y-101685714D01*
X204848809Y-101733333D01*
X204563095Y-101733333D01*
X204467857Y-101685714D01*
X204420238Y-101638095D01*
X204372619Y-101542857D01*
X204372619Y-101400000D01*
X204372619Y-102161904D02*
X205039285Y-102161904D01*
X205372619Y-102161904D02*
X205325000Y-102114285D01*
X205277380Y-102161904D01*
X205325000Y-102209523D01*
X205372619Y-102161904D01*
X205277380Y-102161904D01*
X204372619Y-102780952D02*
X204420238Y-102685714D01*
X204515476Y-102638095D01*
X205372619Y-102638095D01*
X205039285Y-103828571D02*
X204372619Y-104066666D01*
X205039285Y-104304761D01*
X205277380Y-104638095D02*
X205325000Y-104685714D01*
X205372619Y-104780952D01*
X205372619Y-105019047D01*
X205325000Y-105114285D01*
X205277380Y-105161904D01*
X205182142Y-105209523D01*
X205086904Y-105209523D01*
X204944047Y-105161904D01*
X204372619Y-104590476D01*
X204372619Y-105209523D01*
X203008333Y-93328571D02*
X203008333Y-93804761D01*
X202722619Y-93233333D02*
X203722619Y-93566666D01*
X202722619Y-93900000D01*
X202817857Y-94233333D02*
X202770238Y-94280952D01*
X202722619Y-94233333D01*
X202770238Y-94185714D01*
X202817857Y-94233333D01*
X202722619Y-94233333D01*
X203246428Y-95804761D02*
X203198809Y-95947619D01*
X203151190Y-95995238D01*
X203055952Y-96042857D01*
X202913095Y-96042857D01*
X202817857Y-95995238D01*
X202770238Y-95947619D01*
X202722619Y-95852380D01*
X202722619Y-95471428D01*
X203722619Y-95471428D01*
X203722619Y-95804761D01*
X203675000Y-95900000D01*
X203627380Y-95947619D01*
X203532142Y-95995238D01*
X203436904Y-95995238D01*
X203341666Y-95947619D01*
X203294047Y-95900000D01*
X203246428Y-95804761D01*
X203246428Y-95471428D01*
X202770238Y-96852380D02*
X202722619Y-96757142D01*
X202722619Y-96566666D01*
X202770238Y-96471428D01*
X202865476Y-96423809D01*
X203246428Y-96423809D01*
X203341666Y-96471428D01*
X203389285Y-96566666D01*
X203389285Y-96757142D01*
X203341666Y-96852380D01*
X203246428Y-96900000D01*
X203151190Y-96900000D01*
X203055952Y-96423809D01*
X202722619Y-97328571D02*
X203389285Y-97328571D01*
X203198809Y-97328571D02*
X203294047Y-97376190D01*
X203341666Y-97423809D01*
X203389285Y-97519047D01*
X203389285Y-97614285D01*
X202770238Y-98328571D02*
X202722619Y-98233333D01*
X202722619Y-98042857D01*
X202770238Y-97947619D01*
X202865476Y-97900000D01*
X203246428Y-97900000D01*
X203341666Y-97947619D01*
X203389285Y-98042857D01*
X203389285Y-98233333D01*
X203341666Y-98328571D01*
X203246428Y-98376190D01*
X203151190Y-98376190D01*
X203055952Y-97900000D01*
X203389285Y-99233333D02*
X202579761Y-99233333D01*
X202484523Y-99185714D01*
X202436904Y-99138095D01*
X202389285Y-99042857D01*
X202389285Y-98900000D01*
X202436904Y-98804761D01*
X202770238Y-99233333D02*
X202722619Y-99138095D01*
X202722619Y-98947619D01*
X202770238Y-98852380D01*
X202817857Y-98804761D01*
X202913095Y-98757142D01*
X203198809Y-98757142D01*
X203294047Y-98804761D01*
X203341666Y-98852380D01*
X203389285Y-98947619D01*
X203389285Y-99138095D01*
X203341666Y-99233333D01*
X202722619Y-99709523D02*
X203389285Y-99709523D01*
X203722619Y-99709523D02*
X203675000Y-99661904D01*
X203627380Y-99709523D01*
X203675000Y-99757142D01*
X203722619Y-99709523D01*
X203627380Y-99709523D01*
X202770238Y-100233333D02*
X202722619Y-100233333D01*
X202627380Y-100185714D01*
X202579761Y-100138095D01*
X203246428Y-101423809D02*
X203246428Y-101757142D01*
X202722619Y-101900000D02*
X202722619Y-101423809D01*
X203722619Y-101423809D01*
X203722619Y-101900000D01*
X202817857Y-102328571D02*
X202770238Y-102376190D01*
X202722619Y-102328571D01*
X202770238Y-102280952D01*
X202817857Y-102328571D01*
X202722619Y-102328571D01*
X203246428Y-103899999D02*
X203198809Y-104042857D01*
X203151190Y-104090476D01*
X203055952Y-104138095D01*
X202913095Y-104138095D01*
X202817857Y-104090476D01*
X202770238Y-104042857D01*
X202722619Y-103947619D01*
X202722619Y-103566666D01*
X203722619Y-103566666D01*
X203722619Y-103899999D01*
X203675000Y-103995238D01*
X203627380Y-104042857D01*
X203532142Y-104090476D01*
X203436904Y-104090476D01*
X203341666Y-104042857D01*
X203294047Y-103995238D01*
X203246428Y-103899999D01*
X203246428Y-103566666D01*
X202770238Y-104947619D02*
X202722619Y-104852380D01*
X202722619Y-104661904D01*
X202770238Y-104566666D01*
X202865476Y-104519047D01*
X203246428Y-104519047D01*
X203341666Y-104566666D01*
X203389285Y-104661904D01*
X203389285Y-104852380D01*
X203341666Y-104947619D01*
X203246428Y-104995238D01*
X203151190Y-104995238D01*
X203055952Y-104519047D01*
X203389285Y-105423809D02*
X202722619Y-105423809D01*
X203294047Y-105423809D02*
X203341666Y-105471428D01*
X203389285Y-105566666D01*
X203389285Y-105709523D01*
X203341666Y-105804761D01*
X203246428Y-105852380D01*
X202722619Y-105852380D01*
X203389285Y-106185714D02*
X203389285Y-106566666D01*
X203722619Y-106328571D02*
X202865476Y-106328571D01*
X202770238Y-106376190D01*
X202722619Y-106471428D01*
X202722619Y-106566666D01*
X202722619Y-106899999D02*
X203389285Y-106899999D01*
X203722619Y-106899999D02*
X203675000Y-106852380D01*
X203627380Y-106899999D01*
X203675000Y-106947619D01*
X203722619Y-106899999D01*
X203627380Y-106899999D01*
X203389285Y-107376190D02*
X202722619Y-107376190D01*
X203294047Y-107376190D02*
X203341666Y-107423809D01*
X203389285Y-107519047D01*
X203389285Y-107661904D01*
X203341666Y-107757142D01*
X203246428Y-107804761D01*
X202722619Y-107804761D01*
X202770238Y-108661904D02*
X202722619Y-108566666D01*
X202722619Y-108376190D01*
X202770238Y-108280952D01*
X202865476Y-108233333D01*
X203246428Y-108233333D01*
X203341666Y-108280952D01*
X203389285Y-108376190D01*
X203389285Y-108566666D01*
X203341666Y-108661904D01*
X203246428Y-108709523D01*
X203151190Y-108709523D01*
X203055952Y-108233333D01*
D11*
X175000000Y-96400000D02*
X175000000Y-106400000D01*
X167000000Y-101400000D02*
X183000000Y-101400000D01*
X118320000Y-103200000D02*
X118320000Y-99600000D01*
X125200000Y-102700000D02*
X125200000Y-100100000D01*
X120400000Y-97800000D02*
X123600000Y-97800000D01*
X120400000Y-105000000D02*
X123600000Y-105000000D01*
X176800000Y-159080000D02*
X173200000Y-159080000D01*
X176300000Y-152200000D02*
X173700000Y-152200000D01*
X171400000Y-157000000D02*
X171400000Y-153800000D01*
X178600000Y-157000000D02*
X178600000Y-153800000D01*
D10*
X179352380Y-155733333D02*
X180066666Y-155733333D01*
X180209523Y-155780952D01*
X180304761Y-155876190D01*
X180352380Y-156019047D01*
X180352380Y-156114285D01*
X180352380Y-154733333D02*
X180352380Y-155304761D01*
X180352380Y-155019047D02*
X179352380Y-155019047D01*
X179495238Y-155114285D01*
X179590476Y-155209523D01*
X179638095Y-155304761D01*
M02*
