M48
; DRILL file {KiCad (5.1.0)-1} date 12/08/2020 15:13:05
; FORMAT={-:-/ absolute / metric / decimal}
; #@! TF.CreationDate,2020-08-12T15:13:05+01:00
; #@! TF.GenerationSoftware,Kicad,Pcbnew,(5.1.0)-1
; #@! TF.FileFunction,NonPlated,1,4,NPTH
FMAT,2
METRIC
%
G90
G05
T0
M30
