%FSLAX45Y45*%
G04 Gerber Fmt 4.5, Leading zero omitted, Abs format (unit mm)*
G04 Created by KiCad (PCBNEW (5.1.0)-1) date 2020-08-12 15:13:17*
%MOMM*%
%LPD*%
G04 APERTURE LIST*
%ADD10C,0.120000*%
%ADD11C,0.125000*%
%ADD12C,0.200000*%
%ADD13C,0.300000*%
G04 APERTURE END LIST*
D10*
X7349010Y-3844000D02*
X5950010Y-2444000D01*
X7955510Y5155823D02*
X5950010Y3149000D01*
X7955510Y5155823D02*
X8186184Y5545212D01*
X9650000Y6840000D02*
X4062010Y6840000D01*
X9650000Y5340000D02*
X9650000Y6840000D01*
X9350000Y5340000D02*
X9650000Y5340000D01*
X8186184Y5545212D02*
G75*
G02X9350000Y5340000I563816J-205212D01*
G01*
X9350000Y-5340000D02*
X9650000Y-5340000D01*
D11*
X9650000Y-3844177D02*
X9650000Y-5340000D01*
D10*
X7950000Y-5540000D02*
X8180674Y-5150611D01*
X8180674Y-5150611D02*
G75*
G02X8750000Y-4740000I569326J-189389D01*
G01*
X8750000Y-4740000D02*
G75*
G02X9350000Y-5340000I0J-600000D01*
G01*
X9650000Y-3844177D02*
X7349010Y-3844000D01*
X-4800000Y-5540000D02*
X7950000Y-5540000D01*
X-4800000Y-5340000D02*
X-4800000Y-5540000D01*
X5950000Y3149000D02*
X5950010Y-2444000D01*
X4062000Y9735000D02*
X4062000Y6840000D01*
X-3000000Y5540000D02*
X-3000000Y9735000D01*
X-4800000Y5540000D02*
X-3000000Y5540000D01*
X-5600000Y-4740000D02*
X-5600000Y4740000D01*
X-5400000Y-4740000D02*
X-5600000Y-4740000D01*
X-5400000Y-4740000D02*
G75*
G02X-4800000Y-5340000I0J-600000D01*
G01*
X-4800000Y5340000D02*
X-4800000Y5540000D01*
X-5400000Y4740000D02*
X-5600000Y4740000D01*
X-4800000Y5340000D02*
G75*
G02X-5400000Y4740000I-600000J0D01*
G01*
X-3000000Y9735000D02*
X4062000Y9735000D01*
X1275000Y0D02*
G75*
G03X1275000Y0I-1275000J0D01*
G01*
D12*
D13*
X-5319572Y-6011714D02*
X-5319572Y-5711714D01*
X-5248143Y-5711714D01*
X-5205286Y-5726000D01*
X-5176714Y-5754571D01*
X-5162429Y-5783143D01*
X-5148143Y-5840286D01*
X-5148143Y-5883143D01*
X-5162429Y-5940286D01*
X-5176714Y-5968857D01*
X-5205286Y-5997429D01*
X-5248143Y-6011714D01*
X-5319572Y-6011714D01*
X-5019572Y-6011714D02*
X-5019572Y-5811714D01*
X-5019572Y-5868857D02*
X-5005286Y-5840286D01*
X-4991000Y-5826000D01*
X-4962429Y-5811714D01*
X-4933857Y-5811714D01*
X-4833857Y-6011714D02*
X-4833857Y-5811714D01*
X-4833857Y-5711714D02*
X-4848143Y-5726000D01*
X-4833857Y-5740286D01*
X-4819572Y-5726000D01*
X-4833857Y-5711714D01*
X-4833857Y-5740286D01*
X-4648143Y-6011714D02*
X-4676714Y-5997429D01*
X-4691000Y-5968857D01*
X-4691000Y-5711714D01*
X-4491000Y-6011714D02*
X-4519572Y-5997429D01*
X-4533857Y-5968857D01*
X-4533857Y-5711714D01*
X-4148143Y-6011714D02*
X-4148143Y-5711714D01*
X-4048143Y-5926000D01*
X-3948143Y-5711714D01*
X-3948143Y-6011714D01*
X-3676714Y-6011714D02*
X-3676714Y-5854571D01*
X-3691000Y-5826000D01*
X-3719571Y-5811714D01*
X-3776714Y-5811714D01*
X-3805286Y-5826000D01*
X-3676714Y-5997429D02*
X-3705286Y-6011714D01*
X-3776714Y-6011714D01*
X-3805286Y-5997429D01*
X-3819571Y-5968857D01*
X-3819571Y-5940286D01*
X-3805286Y-5911714D01*
X-3776714Y-5897429D01*
X-3705286Y-5897429D01*
X-3676714Y-5883143D01*
X-3533857Y-5811714D02*
X-3533857Y-6111714D01*
X-3533857Y-5826000D02*
X-3505286Y-5811714D01*
X-3448143Y-5811714D01*
X-3419571Y-5826000D01*
X-3405286Y-5840286D01*
X-3391000Y-5868857D01*
X-3391000Y-5954571D01*
X-3405286Y-5983143D01*
X-3419571Y-5997429D01*
X-3448143Y-6011714D01*
X-3505286Y-6011714D01*
X-3533857Y-5997429D01*
X-3262429Y-5983143D02*
X-3248143Y-5997429D01*
X-3262429Y-6011714D01*
X-3276714Y-5997429D01*
X-3262429Y-5983143D01*
X-3262429Y-6011714D01*
X-3262429Y-5826000D02*
X-3248143Y-5840286D01*
X-3262429Y-5854571D01*
X-3276714Y-5840286D01*
X-3262429Y-5826000D01*
X-3262429Y-5854571D01*
M02*
