G04 #@! TF.GenerationSoftware,KiCad,Pcbnew,(5.1.0)-1*
G04 #@! TF.CreationDate,2020-08-12T15:13:27+01:00*
G04 #@! TF.ProjectId,PCB_coil_2,5043425f-636f-4696-9c5f-322e6b696361,rev?*
G04 #@! TF.SameCoordinates,Original*
G04 #@! TF.FileFunction,Soldermask,Top*
G04 #@! TF.FilePolarity,Negative*
%FSLAX46Y46*%
G04 Gerber Fmt 4.6, Leading zero omitted, Abs format (unit mm)*
G04 Created by KiCad (PCBNEW (5.1.0)-1) date 2020-08-12 15:13:27*
%MOMM*%
%LPD*%
G04 APERTURE LIST*
%ADD10C,0.100000*%
G04 APERTURE END LIST*
D10*
G36*
X-9421180Y67821897D02*
G01*
X-9387015Y67811533D01*
X-9355536Y67794707D01*
X-9327940Y67772060D01*
X-9305293Y67744464D01*
X-9288467Y67712985D01*
X-9278103Y67678820D01*
X-9274000Y67637158D01*
X-9274000Y66387842D01*
X-9278103Y66346180D01*
X-9288467Y66312015D01*
X-9305293Y66280536D01*
X-9327940Y66252940D01*
X-9355536Y66230293D01*
X-9387015Y66213467D01*
X-9421180Y66203103D01*
X-9462842Y66199000D01*
X-12537158Y66199000D01*
X-12578820Y66203103D01*
X-12612985Y66213467D01*
X-12644464Y66230293D01*
X-12672060Y66252940D01*
X-12694707Y66280536D01*
X-12711533Y66312015D01*
X-12721897Y66346180D01*
X-12726000Y66387842D01*
X-12726000Y67637158D01*
X-12721897Y67678820D01*
X-12711533Y67712985D01*
X-12694707Y67744464D01*
X-12672060Y67772060D01*
X-12644464Y67794707D01*
X-12612985Y67811533D01*
X-12578820Y67821897D01*
X-12537158Y67826000D01*
X-9462842Y67826000D01*
X-9421180Y67821897D01*
X-9421180Y67821897D01*
G37*
G36*
X13578820Y67821897D02*
G01*
X13612985Y67811533D01*
X13644464Y67794707D01*
X13672060Y67772060D01*
X13694707Y67744464D01*
X13711533Y67712985D01*
X13721897Y67678820D01*
X13726000Y67637158D01*
X13726000Y66387842D01*
X13721897Y66346180D01*
X13711533Y66312015D01*
X13694707Y66280536D01*
X13672060Y66252940D01*
X13644464Y66230293D01*
X13612985Y66213467D01*
X13578820Y66203103D01*
X13537158Y66199000D01*
X10462842Y66199000D01*
X10421180Y66203103D01*
X10387015Y66213467D01*
X10355536Y66230293D01*
X10327940Y66252940D01*
X10305293Y66280536D01*
X10288467Y66312015D01*
X10278103Y66346180D01*
X10274000Y66387842D01*
X10274000Y67637158D01*
X10278103Y67678820D01*
X10288467Y67712985D01*
X10305293Y67744464D01*
X10327940Y67772060D01*
X10355536Y67794707D01*
X10387015Y67811533D01*
X10421180Y67821897D01*
X10462842Y67826000D01*
X13537158Y67826000D01*
X13578820Y67821897D01*
X13578820Y67821897D01*
G37*
G36*
X20578820Y67821897D02*
G01*
X20612985Y67811533D01*
X20644464Y67794707D01*
X20672060Y67772060D01*
X20694707Y67744464D01*
X20711533Y67712985D01*
X20721897Y67678820D01*
X20726000Y67637158D01*
X20726000Y66387842D01*
X20721897Y66346180D01*
X20711533Y66312015D01*
X20694707Y66280536D01*
X20672060Y66252940D01*
X20644464Y66230293D01*
X20612985Y66213467D01*
X20578820Y66203103D01*
X20537158Y66199000D01*
X17462842Y66199000D01*
X17421180Y66203103D01*
X17387015Y66213467D01*
X17355536Y66230293D01*
X17327940Y66252940D01*
X17305293Y66280536D01*
X17288467Y66312015D01*
X17278103Y66346180D01*
X17274000Y66387842D01*
X17274000Y67637158D01*
X17278103Y67678820D01*
X17288467Y67712985D01*
X17305293Y67744464D01*
X17327940Y67772060D01*
X17355536Y67794707D01*
X17387015Y67811533D01*
X17421180Y67821897D01*
X17462842Y67826000D01*
X20537158Y67826000D01*
X20578820Y67821897D01*
X20578820Y67821897D01*
G37*
G36*
X-16421180Y67821897D02*
G01*
X-16387015Y67811533D01*
X-16355536Y67794707D01*
X-16327940Y67772060D01*
X-16305293Y67744464D01*
X-16288467Y67712985D01*
X-16278103Y67678820D01*
X-16274000Y67637158D01*
X-16274000Y66387842D01*
X-16278103Y66346180D01*
X-16288467Y66312015D01*
X-16305293Y66280536D01*
X-16327940Y66252940D01*
X-16355536Y66230293D01*
X-16387015Y66213467D01*
X-16421180Y66203103D01*
X-16462842Y66199000D01*
X-19537158Y66199000D01*
X-19578820Y66203103D01*
X-19612985Y66213467D01*
X-19644464Y66230293D01*
X-19672060Y66252940D01*
X-19694707Y66280536D01*
X-19711533Y66312015D01*
X-19721897Y66346180D01*
X-19726000Y66387842D01*
X-19726000Y67637158D01*
X-19721897Y67678820D01*
X-19711533Y67712985D01*
X-19694707Y67744464D01*
X-19672060Y67772060D01*
X-19644464Y67794707D01*
X-19612985Y67811533D01*
X-19578820Y67821897D01*
X-19537158Y67826000D01*
X-16462842Y67826000D01*
X-16421180Y67821897D01*
X-16421180Y67821897D01*
G37*
G36*
X-22211326Y69521535D02*
G01*
X-22173633Y69510101D01*
X-22138897Y69491534D01*
X-22108452Y69466548D01*
X-22083466Y69436103D01*
X-22064899Y69401367D01*
X-22053465Y69363674D01*
X-22049000Y69318339D01*
X-22049000Y68481661D01*
X-22053465Y68436326D01*
X-22064899Y68398633D01*
X-22083466Y68363897D01*
X-22108452Y68333452D01*
X-22138897Y68308466D01*
X-22173633Y68289899D01*
X-22211326Y68278465D01*
X-22256661Y68274000D01*
X-23343339Y68274000D01*
X-23388674Y68278465D01*
X-23426367Y68289899D01*
X-23461103Y68308466D01*
X-23491548Y68333452D01*
X-23516534Y68363897D01*
X-23535101Y68398633D01*
X-23546535Y68436326D01*
X-23551000Y68481661D01*
X-23551000Y69318339D01*
X-23546535Y69363674D01*
X-23535101Y69401367D01*
X-23516534Y69436103D01*
X-23491548Y69466548D01*
X-23461103Y69491534D01*
X-23426367Y69510101D01*
X-23388674Y69521535D01*
X-23343339Y69526000D01*
X-22256661Y69526000D01*
X-22211326Y69521535D01*
X-22211326Y69521535D01*
G37*
G36*
X8288674Y69796535D02*
G01*
X8326367Y69785101D01*
X8361103Y69766534D01*
X8391548Y69741548D01*
X8416534Y69711103D01*
X8435101Y69676367D01*
X8446535Y69638674D01*
X8451000Y69593339D01*
X8451000Y68756661D01*
X8446535Y68711326D01*
X8435101Y68673633D01*
X8416534Y68638897D01*
X8391548Y68608452D01*
X8361103Y68583466D01*
X8326367Y68564899D01*
X8288674Y68553465D01*
X8243339Y68549000D01*
X7156661Y68549000D01*
X7111326Y68553465D01*
X7073633Y68564899D01*
X7038897Y68583466D01*
X7008452Y68608452D01*
X6983466Y68638897D01*
X6964899Y68673633D01*
X6953465Y68711326D01*
X6949000Y68756661D01*
X6949000Y69593339D01*
X6953465Y69638674D01*
X6964899Y69676367D01*
X6983466Y69711103D01*
X7008452Y69741548D01*
X7038897Y69766534D01*
X7073633Y69785101D01*
X7111326Y69796535D01*
X7156661Y69801000D01*
X8243339Y69801000D01*
X8288674Y69796535D01*
X8288674Y69796535D01*
G37*
G36*
X-22211326Y71571535D02*
G01*
X-22173633Y71560101D01*
X-22138897Y71541534D01*
X-22108452Y71516548D01*
X-22083466Y71486103D01*
X-22064899Y71451367D01*
X-22053465Y71413674D01*
X-22049000Y71368339D01*
X-22049000Y70531661D01*
X-22053465Y70486326D01*
X-22064899Y70448633D01*
X-22083466Y70413897D01*
X-22108452Y70383452D01*
X-22138897Y70358466D01*
X-22173633Y70339899D01*
X-22211326Y70328465D01*
X-22256661Y70324000D01*
X-23343339Y70324000D01*
X-23388674Y70328465D01*
X-23426367Y70339899D01*
X-23461103Y70358466D01*
X-23491548Y70383452D01*
X-23516534Y70413897D01*
X-23535101Y70448633D01*
X-23546535Y70486326D01*
X-23551000Y70531661D01*
X-23551000Y71368339D01*
X-23546535Y71413674D01*
X-23535101Y71451367D01*
X-23516534Y71486103D01*
X-23491548Y71516548D01*
X-23461103Y71541534D01*
X-23426367Y71560101D01*
X-23388674Y71571535D01*
X-23343339Y71576000D01*
X-22256661Y71576000D01*
X-22211326Y71571535D01*
X-22211326Y71571535D01*
G37*
G36*
X8288674Y71846535D02*
G01*
X8326367Y71835101D01*
X8361103Y71816534D01*
X8391548Y71791548D01*
X8416534Y71761103D01*
X8435101Y71726367D01*
X8446535Y71688674D01*
X8451000Y71643339D01*
X8451000Y70806661D01*
X8446535Y70761326D01*
X8435101Y70723633D01*
X8416534Y70688897D01*
X8391548Y70658452D01*
X8361103Y70633466D01*
X8326367Y70614899D01*
X8288674Y70603465D01*
X8243339Y70599000D01*
X7156661Y70599000D01*
X7111326Y70603465D01*
X7073633Y70614899D01*
X7038897Y70633466D01*
X7008452Y70658452D01*
X6983466Y70688897D01*
X6964899Y70723633D01*
X6953465Y70761326D01*
X6949000Y70806661D01*
X6949000Y71643339D01*
X6953465Y71688674D01*
X6964899Y71726367D01*
X6983466Y71761103D01*
X7008452Y71791548D01*
X7038897Y71816534D01*
X7073633Y71835101D01*
X7111326Y71846535D01*
X7156661Y71851000D01*
X8243339Y71851000D01*
X8288674Y71846535D01*
X8288674Y71846535D01*
G37*
G36*
X20578820Y73796897D02*
G01*
X20612985Y73786533D01*
X20644464Y73769707D01*
X20672060Y73747060D01*
X20694707Y73719464D01*
X20711533Y73687985D01*
X20721897Y73653820D01*
X20726000Y73612158D01*
X20726000Y72362842D01*
X20721897Y72321180D01*
X20711533Y72287015D01*
X20694707Y72255536D01*
X20672060Y72227940D01*
X20644464Y72205293D01*
X20612985Y72188467D01*
X20578820Y72178103D01*
X20537158Y72174000D01*
X17462842Y72174000D01*
X17421180Y72178103D01*
X17387015Y72188467D01*
X17355536Y72205293D01*
X17327940Y72227940D01*
X17305293Y72255536D01*
X17288467Y72287015D01*
X17278103Y72321180D01*
X17274000Y72362842D01*
X17274000Y73612158D01*
X17278103Y73653820D01*
X17288467Y73687985D01*
X17305293Y73719464D01*
X17327940Y73747060D01*
X17355536Y73769707D01*
X17387015Y73786533D01*
X17421180Y73796897D01*
X17462842Y73801000D01*
X20537158Y73801000D01*
X20578820Y73796897D01*
X20578820Y73796897D01*
G37*
G36*
X13578820Y73796897D02*
G01*
X13612985Y73786533D01*
X13644464Y73769707D01*
X13672060Y73747060D01*
X13694707Y73719464D01*
X13711533Y73687985D01*
X13721897Y73653820D01*
X13726000Y73612158D01*
X13726000Y72362842D01*
X13721897Y72321180D01*
X13711533Y72287015D01*
X13694707Y72255536D01*
X13672060Y72227940D01*
X13644464Y72205293D01*
X13612985Y72188467D01*
X13578820Y72178103D01*
X13537158Y72174000D01*
X10462842Y72174000D01*
X10421180Y72178103D01*
X10387015Y72188467D01*
X10355536Y72205293D01*
X10327940Y72227940D01*
X10305293Y72255536D01*
X10288467Y72287015D01*
X10278103Y72321180D01*
X10274000Y72362842D01*
X10274000Y73612158D01*
X10278103Y73653820D01*
X10288467Y73687985D01*
X10305293Y73719464D01*
X10327940Y73747060D01*
X10355536Y73769707D01*
X10387015Y73786533D01*
X10421180Y73796897D01*
X10462842Y73801000D01*
X13537158Y73801000D01*
X13578820Y73796897D01*
X13578820Y73796897D01*
G37*
G36*
X-16421180Y73796897D02*
G01*
X-16387015Y73786533D01*
X-16355536Y73769707D01*
X-16327940Y73747060D01*
X-16305293Y73719464D01*
X-16288467Y73687985D01*
X-16278103Y73653820D01*
X-16274000Y73612158D01*
X-16274000Y72362842D01*
X-16278103Y72321180D01*
X-16288467Y72287015D01*
X-16305293Y72255536D01*
X-16327940Y72227940D01*
X-16355536Y72205293D01*
X-16387015Y72188467D01*
X-16421180Y72178103D01*
X-16462842Y72174000D01*
X-19537158Y72174000D01*
X-19578820Y72178103D01*
X-19612985Y72188467D01*
X-19644464Y72205293D01*
X-19672060Y72227940D01*
X-19694707Y72255536D01*
X-19711533Y72287015D01*
X-19721897Y72321180D01*
X-19726000Y72362842D01*
X-19726000Y73612158D01*
X-19721897Y73653820D01*
X-19711533Y73687985D01*
X-19694707Y73719464D01*
X-19672060Y73747060D01*
X-19644464Y73769707D01*
X-19612985Y73786533D01*
X-19578820Y73796897D01*
X-19537158Y73801000D01*
X-16462842Y73801000D01*
X-16421180Y73796897D01*
X-16421180Y73796897D01*
G37*
G36*
X-9421180Y73796897D02*
G01*
X-9387015Y73786533D01*
X-9355536Y73769707D01*
X-9327940Y73747060D01*
X-9305293Y73719464D01*
X-9288467Y73687985D01*
X-9278103Y73653820D01*
X-9274000Y73612158D01*
X-9274000Y72362842D01*
X-9278103Y72321180D01*
X-9288467Y72287015D01*
X-9305293Y72255536D01*
X-9327940Y72227940D01*
X-9355536Y72205293D01*
X-9387015Y72188467D01*
X-9421180Y72178103D01*
X-9462842Y72174000D01*
X-12537158Y72174000D01*
X-12578820Y72178103D01*
X-12612985Y72188467D01*
X-12644464Y72205293D01*
X-12672060Y72227940D01*
X-12694707Y72255536D01*
X-12711533Y72287015D01*
X-12721897Y72321180D01*
X-12726000Y72362842D01*
X-12726000Y73612158D01*
X-12721897Y73653820D01*
X-12711533Y73687985D01*
X-12694707Y73719464D01*
X-12672060Y73747060D01*
X-12644464Y73769707D01*
X-12612985Y73786533D01*
X-12578820Y73796897D01*
X-12537158Y73801000D01*
X-9462842Y73801000D01*
X-9421180Y73796897D01*
X-9421180Y73796897D01*
G37*
G36*
X-21111326Y76596535D02*
G01*
X-21073633Y76585101D01*
X-21038897Y76566534D01*
X-21008452Y76541548D01*
X-20983466Y76511103D01*
X-20964899Y76476367D01*
X-20953465Y76438674D01*
X-20949000Y76393339D01*
X-20949000Y75556661D01*
X-20953465Y75511326D01*
X-20964899Y75473633D01*
X-20983466Y75438897D01*
X-21008452Y75408452D01*
X-21038897Y75383466D01*
X-21073633Y75364899D01*
X-21111326Y75353465D01*
X-21156661Y75349000D01*
X-22243339Y75349000D01*
X-22288674Y75353465D01*
X-22326367Y75364899D01*
X-22361103Y75383466D01*
X-22391548Y75408452D01*
X-22416534Y75438897D01*
X-22435101Y75473633D01*
X-22446535Y75511326D01*
X-22451000Y75556661D01*
X-22451000Y76393339D01*
X-22446535Y76438674D01*
X-22435101Y76476367D01*
X-22416534Y76511103D01*
X-22391548Y76541548D01*
X-22361103Y76566534D01*
X-22326367Y76585101D01*
X-22288674Y76596535D01*
X-22243339Y76601000D01*
X-21156661Y76601000D01*
X-21111326Y76596535D01*
X-21111326Y76596535D01*
G37*
G36*
X-23511326Y76596535D02*
G01*
X-23473633Y76585101D01*
X-23438897Y76566534D01*
X-23408452Y76541548D01*
X-23383466Y76511103D01*
X-23364899Y76476367D01*
X-23353465Y76438674D01*
X-23349000Y76393339D01*
X-23349000Y75556661D01*
X-23353465Y75511326D01*
X-23364899Y75473633D01*
X-23383466Y75438897D01*
X-23408452Y75408452D01*
X-23438897Y75383466D01*
X-23473633Y75364899D01*
X-23511326Y75353465D01*
X-23556661Y75349000D01*
X-24643339Y75349000D01*
X-24688674Y75353465D01*
X-24726367Y75364899D01*
X-24761103Y75383466D01*
X-24791548Y75408452D01*
X-24816534Y75438897D01*
X-24835101Y75473633D01*
X-24846535Y75511326D01*
X-24851000Y75556661D01*
X-24851000Y76393339D01*
X-24846535Y76438674D01*
X-24835101Y76476367D01*
X-24816534Y76511103D01*
X-24791548Y76541548D01*
X-24761103Y76566534D01*
X-24726367Y76585101D01*
X-24688674Y76596535D01*
X-24643339Y76601000D01*
X-23556661Y76601000D01*
X-23511326Y76596535D01*
X-23511326Y76596535D01*
G37*
G36*
X10388674Y76596535D02*
G01*
X10426367Y76585101D01*
X10461103Y76566534D01*
X10491548Y76541548D01*
X10516534Y76511103D01*
X10535101Y76476367D01*
X10546535Y76438674D01*
X10551000Y76393339D01*
X10551000Y75556661D01*
X10546535Y75511326D01*
X10535101Y75473633D01*
X10516534Y75438897D01*
X10491548Y75408452D01*
X10461103Y75383466D01*
X10426367Y75364899D01*
X10388674Y75353465D01*
X10343339Y75349000D01*
X9256661Y75349000D01*
X9211326Y75353465D01*
X9173633Y75364899D01*
X9138897Y75383466D01*
X9108452Y75408452D01*
X9083466Y75438897D01*
X9064899Y75473633D01*
X9053465Y75511326D01*
X9049000Y75556661D01*
X9049000Y76393339D01*
X9053465Y76438674D01*
X9064899Y76476367D01*
X9083466Y76511103D01*
X9108452Y76541548D01*
X9138897Y76566534D01*
X9173633Y76585101D01*
X9211326Y76596535D01*
X9256661Y76601000D01*
X10343339Y76601000D01*
X10388674Y76596535D01*
X10388674Y76596535D01*
G37*
G36*
X12788674Y76596535D02*
G01*
X12826367Y76585101D01*
X12861103Y76566534D01*
X12891548Y76541548D01*
X12916534Y76511103D01*
X12935101Y76476367D01*
X12946535Y76438674D01*
X12951000Y76393339D01*
X12951000Y75556661D01*
X12946535Y75511326D01*
X12935101Y75473633D01*
X12916534Y75438897D01*
X12891548Y75408452D01*
X12861103Y75383466D01*
X12826367Y75364899D01*
X12788674Y75353465D01*
X12743339Y75349000D01*
X11656661Y75349000D01*
X11611326Y75353465D01*
X11573633Y75364899D01*
X11538897Y75383466D01*
X11508452Y75408452D01*
X11483466Y75438897D01*
X11464899Y75473633D01*
X11453465Y75511326D01*
X11449000Y75556661D01*
X11449000Y76393339D01*
X11453465Y76438674D01*
X11464899Y76476367D01*
X11483466Y76511103D01*
X11508452Y76541548D01*
X11538897Y76566534D01*
X11573633Y76585101D01*
X11611326Y76596535D01*
X11656661Y76601000D01*
X12743339Y76601000D01*
X12788674Y76596535D01*
X12788674Y76596535D01*
G37*
G36*
X7988674Y76596535D02*
G01*
X8026367Y76585101D01*
X8061103Y76566534D01*
X8091548Y76541548D01*
X8116534Y76511103D01*
X8135101Y76476367D01*
X8146535Y76438674D01*
X8151000Y76393339D01*
X8151000Y75556661D01*
X8146535Y75511326D01*
X8135101Y75473633D01*
X8116534Y75438897D01*
X8091548Y75408452D01*
X8061103Y75383466D01*
X8026367Y75364899D01*
X7988674Y75353465D01*
X7943339Y75349000D01*
X6856661Y75349000D01*
X6811326Y75353465D01*
X6773633Y75364899D01*
X6738897Y75383466D01*
X6708452Y75408452D01*
X6683466Y75438897D01*
X6664899Y75473633D01*
X6653465Y75511326D01*
X6649000Y75556661D01*
X6649000Y76393339D01*
X6653465Y76438674D01*
X6664899Y76476367D01*
X6683466Y76511103D01*
X6708452Y76541548D01*
X6738897Y76566534D01*
X6773633Y76585101D01*
X6811326Y76596535D01*
X6856661Y76601000D01*
X7943339Y76601000D01*
X7988674Y76596535D01*
X7988674Y76596535D01*
G37*
G36*
X-18711326Y76596535D02*
G01*
X-18673633Y76585101D01*
X-18638897Y76566534D01*
X-18608452Y76541548D01*
X-18583466Y76511103D01*
X-18564899Y76476367D01*
X-18553465Y76438674D01*
X-18549000Y76393339D01*
X-18549000Y75556661D01*
X-18553465Y75511326D01*
X-18564899Y75473633D01*
X-18583466Y75438897D01*
X-18608452Y75408452D01*
X-18638897Y75383466D01*
X-18673633Y75364899D01*
X-18711326Y75353465D01*
X-18756661Y75349000D01*
X-19843339Y75349000D01*
X-19888674Y75353465D01*
X-19926367Y75364899D01*
X-19961103Y75383466D01*
X-19991548Y75408452D01*
X-20016534Y75438897D01*
X-20035101Y75473633D01*
X-20046535Y75511326D01*
X-20051000Y75556661D01*
X-20051000Y76393339D01*
X-20046535Y76438674D01*
X-20035101Y76476367D01*
X-20016534Y76511103D01*
X-19991548Y76541548D01*
X-19961103Y76566534D01*
X-19926367Y76585101D01*
X-19888674Y76596535D01*
X-19843339Y76601000D01*
X-18756661Y76601000D01*
X-18711326Y76596535D01*
X-18711326Y76596535D01*
G37*
G36*
X-21111326Y78646535D02*
G01*
X-21073633Y78635101D01*
X-21038897Y78616534D01*
X-21008452Y78591548D01*
X-20983466Y78561103D01*
X-20964899Y78526367D01*
X-20953465Y78488674D01*
X-20949000Y78443339D01*
X-20949000Y77606661D01*
X-20953465Y77561326D01*
X-20964899Y77523633D01*
X-20983466Y77488897D01*
X-21008452Y77458452D01*
X-21038897Y77433466D01*
X-21073633Y77414899D01*
X-21111326Y77403465D01*
X-21156661Y77399000D01*
X-22243339Y77399000D01*
X-22288674Y77403465D01*
X-22326367Y77414899D01*
X-22361103Y77433466D01*
X-22391548Y77458452D01*
X-22416534Y77488897D01*
X-22435101Y77523633D01*
X-22446535Y77561326D01*
X-22451000Y77606661D01*
X-22451000Y78443339D01*
X-22446535Y78488674D01*
X-22435101Y78526367D01*
X-22416534Y78561103D01*
X-22391548Y78591548D01*
X-22361103Y78616534D01*
X-22326367Y78635101D01*
X-22288674Y78646535D01*
X-22243339Y78651000D01*
X-21156661Y78651000D01*
X-21111326Y78646535D01*
X-21111326Y78646535D01*
G37*
G36*
X-23511326Y78646535D02*
G01*
X-23473633Y78635101D01*
X-23438897Y78616534D01*
X-23408452Y78591548D01*
X-23383466Y78561103D01*
X-23364899Y78526367D01*
X-23353465Y78488674D01*
X-23349000Y78443339D01*
X-23349000Y77606661D01*
X-23353465Y77561326D01*
X-23364899Y77523633D01*
X-23383466Y77488897D01*
X-23408452Y77458452D01*
X-23438897Y77433466D01*
X-23473633Y77414899D01*
X-23511326Y77403465D01*
X-23556661Y77399000D01*
X-24643339Y77399000D01*
X-24688674Y77403465D01*
X-24726367Y77414899D01*
X-24761103Y77433466D01*
X-24791548Y77458452D01*
X-24816534Y77488897D01*
X-24835101Y77523633D01*
X-24846535Y77561326D01*
X-24851000Y77606661D01*
X-24851000Y78443339D01*
X-24846535Y78488674D01*
X-24835101Y78526367D01*
X-24816534Y78561103D01*
X-24791548Y78591548D01*
X-24761103Y78616534D01*
X-24726367Y78635101D01*
X-24688674Y78646535D01*
X-24643339Y78651000D01*
X-23556661Y78651000D01*
X-23511326Y78646535D01*
X-23511326Y78646535D01*
G37*
G36*
X7988674Y78646535D02*
G01*
X8026367Y78635101D01*
X8061103Y78616534D01*
X8091548Y78591548D01*
X8116534Y78561103D01*
X8135101Y78526367D01*
X8146535Y78488674D01*
X8151000Y78443339D01*
X8151000Y77606661D01*
X8146535Y77561326D01*
X8135101Y77523633D01*
X8116534Y77488897D01*
X8091548Y77458452D01*
X8061103Y77433466D01*
X8026367Y77414899D01*
X7988674Y77403465D01*
X7943339Y77399000D01*
X6856661Y77399000D01*
X6811326Y77403465D01*
X6773633Y77414899D01*
X6738897Y77433466D01*
X6708452Y77458452D01*
X6683466Y77488897D01*
X6664899Y77523633D01*
X6653465Y77561326D01*
X6649000Y77606661D01*
X6649000Y78443339D01*
X6653465Y78488674D01*
X6664899Y78526367D01*
X6683466Y78561103D01*
X6708452Y78591548D01*
X6738897Y78616534D01*
X6773633Y78635101D01*
X6811326Y78646535D01*
X6856661Y78651000D01*
X7943339Y78651000D01*
X7988674Y78646535D01*
X7988674Y78646535D01*
G37*
G36*
X10388674Y78646535D02*
G01*
X10426367Y78635101D01*
X10461103Y78616534D01*
X10491548Y78591548D01*
X10516534Y78561103D01*
X10535101Y78526367D01*
X10546535Y78488674D01*
X10551000Y78443339D01*
X10551000Y77606661D01*
X10546535Y77561326D01*
X10535101Y77523633D01*
X10516534Y77488897D01*
X10491548Y77458452D01*
X10461103Y77433466D01*
X10426367Y77414899D01*
X10388674Y77403465D01*
X10343339Y77399000D01*
X9256661Y77399000D01*
X9211326Y77403465D01*
X9173633Y77414899D01*
X9138897Y77433466D01*
X9108452Y77458452D01*
X9083466Y77488897D01*
X9064899Y77523633D01*
X9053465Y77561326D01*
X9049000Y77606661D01*
X9049000Y78443339D01*
X9053465Y78488674D01*
X9064899Y78526367D01*
X9083466Y78561103D01*
X9108452Y78591548D01*
X9138897Y78616534D01*
X9173633Y78635101D01*
X9211326Y78646535D01*
X9256661Y78651000D01*
X10343339Y78651000D01*
X10388674Y78646535D01*
X10388674Y78646535D01*
G37*
G36*
X12788674Y78646535D02*
G01*
X12826367Y78635101D01*
X12861103Y78616534D01*
X12891548Y78591548D01*
X12916534Y78561103D01*
X12935101Y78526367D01*
X12946535Y78488674D01*
X12951000Y78443339D01*
X12951000Y77606661D01*
X12946535Y77561326D01*
X12935101Y77523633D01*
X12916534Y77488897D01*
X12891548Y77458452D01*
X12861103Y77433466D01*
X12826367Y77414899D01*
X12788674Y77403465D01*
X12743339Y77399000D01*
X11656661Y77399000D01*
X11611326Y77403465D01*
X11573633Y77414899D01*
X11538897Y77433466D01*
X11508452Y77458452D01*
X11483466Y77488897D01*
X11464899Y77523633D01*
X11453465Y77561326D01*
X11449000Y77606661D01*
X11449000Y78443339D01*
X11453465Y78488674D01*
X11464899Y78526367D01*
X11483466Y78561103D01*
X11508452Y78591548D01*
X11538897Y78616534D01*
X11573633Y78635101D01*
X11611326Y78646535D01*
X11656661Y78651000D01*
X12743339Y78651000D01*
X12788674Y78646535D01*
X12788674Y78646535D01*
G37*
G36*
X-18711326Y78646535D02*
G01*
X-18673633Y78635101D01*
X-18638897Y78616534D01*
X-18608452Y78591548D01*
X-18583466Y78561103D01*
X-18564899Y78526367D01*
X-18553465Y78488674D01*
X-18549000Y78443339D01*
X-18549000Y77606661D01*
X-18553465Y77561326D01*
X-18564899Y77523633D01*
X-18583466Y77488897D01*
X-18608452Y77458452D01*
X-18638897Y77433466D01*
X-18673633Y77414899D01*
X-18711326Y77403465D01*
X-18756661Y77399000D01*
X-19843339Y77399000D01*
X-19888674Y77403465D01*
X-19926367Y77414899D01*
X-19961103Y77433466D01*
X-19991548Y77458452D01*
X-20016534Y77488897D01*
X-20035101Y77523633D01*
X-20046535Y77561326D01*
X-20051000Y77606661D01*
X-20051000Y78443339D01*
X-20046535Y78488674D01*
X-20035101Y78526367D01*
X-20016534Y78561103D01*
X-19991548Y78591548D01*
X-19961103Y78616534D01*
X-19926367Y78635101D01*
X-19888674Y78646535D01*
X-19843339Y78651000D01*
X-18756661Y78651000D01*
X-18711326Y78646535D01*
X-18711326Y78646535D01*
G37*
G36*
X11879099Y80158501D02*
G01*
X10264301Y80158501D01*
X10264301Y82641499D01*
X11879099Y82641499D01*
X11879099Y80158501D01*
X11879099Y80158501D01*
G37*
G36*
X7535699Y80158501D02*
G01*
X5920901Y80158501D01*
X5920901Y82641499D01*
X7535699Y82641499D01*
X7535699Y80158501D01*
X7535699Y80158501D01*
G37*
G36*
X-19370901Y80208501D02*
G01*
X-20985699Y80208501D01*
X-20985699Y82691499D01*
X-19370901Y82691499D01*
X-19370901Y80208501D01*
X-19370901Y80208501D01*
G37*
G36*
X-23714301Y80208501D02*
G01*
X-25329099Y80208501D01*
X-25329099Y82691499D01*
X-23714301Y82691499D01*
X-23714301Y80208501D01*
X-23714301Y80208501D01*
G37*
G36*
X-12916326Y82476535D02*
G01*
X-12878633Y82465101D01*
X-12843897Y82446534D01*
X-12813452Y82421548D01*
X-12788466Y82391103D01*
X-12769899Y82356367D01*
X-12758465Y82318674D01*
X-12754000Y82273339D01*
X-12754000Y81186661D01*
X-12758465Y81141326D01*
X-12769899Y81103633D01*
X-12788466Y81068897D01*
X-12813452Y81038452D01*
X-12843897Y81013466D01*
X-12878633Y80994899D01*
X-12916326Y80983465D01*
X-12961661Y80979000D01*
X-13798339Y80979000D01*
X-13843674Y80983465D01*
X-13881367Y80994899D01*
X-13916103Y81013466D01*
X-13946548Y81038452D01*
X-13971534Y81068897D01*
X-13990101Y81103633D01*
X-14001535Y81141326D01*
X-14006000Y81186661D01*
X-14006000Y82273339D01*
X-14001535Y82318674D01*
X-13990101Y82356367D01*
X-13971534Y82391103D01*
X-13946548Y82421548D01*
X-13916103Y82446534D01*
X-13881367Y82465101D01*
X-13843674Y82476535D01*
X-13798339Y82481000D01*
X-12961661Y82481000D01*
X-12916326Y82476535D01*
X-12916326Y82476535D01*
G37*
G36*
X-14966326Y82476535D02*
G01*
X-14928633Y82465101D01*
X-14893897Y82446534D01*
X-14863452Y82421548D01*
X-14838466Y82391103D01*
X-14819899Y82356367D01*
X-14808465Y82318674D01*
X-14804000Y82273339D01*
X-14804000Y81186661D01*
X-14808465Y81141326D01*
X-14819899Y81103633D01*
X-14838466Y81068897D01*
X-14863452Y81038452D01*
X-14893897Y81013466D01*
X-14928633Y80994899D01*
X-14966326Y80983465D01*
X-15011661Y80979000D01*
X-15848339Y80979000D01*
X-15893674Y80983465D01*
X-15931367Y80994899D01*
X-15966103Y81013466D01*
X-15996548Y81038452D01*
X-16021534Y81068897D01*
X-16040101Y81103633D01*
X-16051535Y81141326D01*
X-16056000Y81186661D01*
X-16056000Y82273339D01*
X-16051535Y82318674D01*
X-16040101Y82356367D01*
X-16021534Y82391103D01*
X-15996548Y82421548D01*
X-15966103Y82446534D01*
X-15931367Y82465101D01*
X-15893674Y82476535D01*
X-15848339Y82481000D01*
X-15011661Y82481000D01*
X-14966326Y82476535D01*
X-14966326Y82476535D01*
G37*
G36*
X16888674Y82546535D02*
G01*
X16926367Y82535101D01*
X16961103Y82516534D01*
X16991548Y82491548D01*
X17016534Y82461103D01*
X17035101Y82426367D01*
X17046535Y82388674D01*
X17051000Y82343339D01*
X17051000Y81256661D01*
X17046535Y81211326D01*
X17035101Y81173633D01*
X17016534Y81138897D01*
X16991548Y81108452D01*
X16961103Y81083466D01*
X16926367Y81064899D01*
X16888674Y81053465D01*
X16843339Y81049000D01*
X16006661Y81049000D01*
X15961326Y81053465D01*
X15923633Y81064899D01*
X15888897Y81083466D01*
X15858452Y81108452D01*
X15833466Y81138897D01*
X15814899Y81173633D01*
X15803465Y81211326D01*
X15799000Y81256661D01*
X15799000Y82343339D01*
X15803465Y82388674D01*
X15814899Y82426367D01*
X15833466Y82461103D01*
X15858452Y82491548D01*
X15888897Y82516534D01*
X15923633Y82535101D01*
X15961326Y82546535D01*
X16006661Y82551000D01*
X16843339Y82551000D01*
X16888674Y82546535D01*
X16888674Y82546535D01*
G37*
G36*
X14838674Y82546535D02*
G01*
X14876367Y82535101D01*
X14911103Y82516534D01*
X14941548Y82491548D01*
X14966534Y82461103D01*
X14985101Y82426367D01*
X14996535Y82388674D01*
X15001000Y82343339D01*
X15001000Y81256661D01*
X14996535Y81211326D01*
X14985101Y81173633D01*
X14966534Y81138897D01*
X14941548Y81108452D01*
X14911103Y81083466D01*
X14876367Y81064899D01*
X14838674Y81053465D01*
X14793339Y81049000D01*
X13956661Y81049000D01*
X13911326Y81053465D01*
X13873633Y81064899D01*
X13838897Y81083466D01*
X13808452Y81108452D01*
X13783466Y81138897D01*
X13764899Y81173633D01*
X13753465Y81211326D01*
X13749000Y81256661D01*
X13749000Y82343339D01*
X13753465Y82388674D01*
X13764899Y82426367D01*
X13783466Y82461103D01*
X13808452Y82491548D01*
X13838897Y82516534D01*
X13873633Y82535101D01*
X13911326Y82546535D01*
X13956661Y82551000D01*
X14793339Y82551000D01*
X14838674Y82546535D01*
X14838674Y82546535D01*
G37*
G36*
X6188674Y84796535D02*
G01*
X6226367Y84785101D01*
X6261103Y84766534D01*
X6291548Y84741548D01*
X6316534Y84711103D01*
X6335101Y84676367D01*
X6346535Y84638674D01*
X6351000Y84593339D01*
X6351000Y83756661D01*
X6346535Y83711326D01*
X6335101Y83673633D01*
X6316534Y83638897D01*
X6291548Y83608452D01*
X6261103Y83583466D01*
X6226367Y83564899D01*
X6188674Y83553465D01*
X6143339Y83549000D01*
X5056661Y83549000D01*
X5011326Y83553465D01*
X4973633Y83564899D01*
X4938897Y83583466D01*
X4908452Y83608452D01*
X4883466Y83638897D01*
X4864899Y83673633D01*
X4853465Y83711326D01*
X4849000Y83756661D01*
X4849000Y84593339D01*
X4853465Y84638674D01*
X4864899Y84676367D01*
X4883466Y84711103D01*
X4908452Y84741548D01*
X4938897Y84766534D01*
X4973633Y84785101D01*
X5011326Y84796535D01*
X5056661Y84801000D01*
X6143339Y84801000D01*
X6188674Y84796535D01*
X6188674Y84796535D01*
G37*
G36*
X-24411326Y84971535D02*
G01*
X-24373633Y84960101D01*
X-24338897Y84941534D01*
X-24308452Y84916548D01*
X-24283466Y84886103D01*
X-24264899Y84851367D01*
X-24253465Y84813674D01*
X-24249000Y84768339D01*
X-24249000Y83931661D01*
X-24253465Y83886326D01*
X-24264899Y83848633D01*
X-24283466Y83813897D01*
X-24308452Y83783452D01*
X-24338897Y83758466D01*
X-24373633Y83739899D01*
X-24411326Y83728465D01*
X-24456661Y83724000D01*
X-25543339Y83724000D01*
X-25588674Y83728465D01*
X-25626367Y83739899D01*
X-25661103Y83758466D01*
X-25691548Y83783452D01*
X-25716534Y83813897D01*
X-25735101Y83848633D01*
X-25746535Y83886326D01*
X-25751000Y83931661D01*
X-25751000Y84768339D01*
X-25746535Y84813674D01*
X-25735101Y84851367D01*
X-25716534Y84886103D01*
X-25691548Y84916548D01*
X-25661103Y84941534D01*
X-25626367Y84960101D01*
X-25588674Y84971535D01*
X-25543339Y84976000D01*
X-24456661Y84976000D01*
X-24411326Y84971535D01*
X-24411326Y84971535D01*
G37*
G36*
X-21936326Y86496535D02*
G01*
X-21898633Y86485101D01*
X-21863897Y86466534D01*
X-21833452Y86441548D01*
X-21808466Y86411103D01*
X-21789899Y86376367D01*
X-21778465Y86338674D01*
X-21774000Y86293339D01*
X-21774000Y85206661D01*
X-21778465Y85161326D01*
X-21789899Y85123633D01*
X-21808466Y85088897D01*
X-21833452Y85058452D01*
X-21863897Y85033466D01*
X-21898633Y85014899D01*
X-21936326Y85003465D01*
X-21981661Y84999000D01*
X-22818339Y84999000D01*
X-22863674Y85003465D01*
X-22901367Y85014899D01*
X-22936103Y85033466D01*
X-22966548Y85058452D01*
X-22991534Y85088897D01*
X-23010101Y85123633D01*
X-23021535Y85161326D01*
X-23026000Y85206661D01*
X-23026000Y86293339D01*
X-23021535Y86338674D01*
X-23010101Y86376367D01*
X-22991534Y86411103D01*
X-22966548Y86441548D01*
X-22936103Y86466534D01*
X-22901367Y86485101D01*
X-22863674Y86496535D01*
X-22818339Y86501000D01*
X-21981661Y86501000D01*
X-21936326Y86496535D01*
X-21936326Y86496535D01*
G37*
G36*
X-19886326Y86496535D02*
G01*
X-19848633Y86485101D01*
X-19813897Y86466534D01*
X-19783452Y86441548D01*
X-19758466Y86411103D01*
X-19739899Y86376367D01*
X-19728465Y86338674D01*
X-19724000Y86293339D01*
X-19724000Y85206661D01*
X-19728465Y85161326D01*
X-19739899Y85123633D01*
X-19758466Y85088897D01*
X-19783452Y85058452D01*
X-19813897Y85033466D01*
X-19848633Y85014899D01*
X-19886326Y85003465D01*
X-19931661Y84999000D01*
X-20768339Y84999000D01*
X-20813674Y85003465D01*
X-20851367Y85014899D01*
X-20886103Y85033466D01*
X-20916548Y85058452D01*
X-20941534Y85088897D01*
X-20960101Y85123633D01*
X-20971535Y85161326D01*
X-20976000Y85206661D01*
X-20976000Y86293339D01*
X-20971535Y86338674D01*
X-20960101Y86376367D01*
X-20941534Y86411103D01*
X-20916548Y86441548D01*
X-20886103Y86466534D01*
X-20851367Y86485101D01*
X-20813674Y86496535D01*
X-20768339Y86501000D01*
X-19931661Y86501000D01*
X-19886326Y86496535D01*
X-19886326Y86496535D01*
G37*
G36*
X10588674Y87046535D02*
G01*
X10626367Y87035101D01*
X10661103Y87016534D01*
X10691548Y86991548D01*
X10716534Y86961103D01*
X10735101Y86926367D01*
X10746535Y86888674D01*
X10751000Y86843339D01*
X10751000Y85756661D01*
X10746535Y85711326D01*
X10735101Y85673633D01*
X10716534Y85638897D01*
X10691548Y85608452D01*
X10661103Y85583466D01*
X10626367Y85564899D01*
X10588674Y85553465D01*
X10543339Y85549000D01*
X9706661Y85549000D01*
X9661326Y85553465D01*
X9623633Y85564899D01*
X9588897Y85583466D01*
X9558452Y85608452D01*
X9533466Y85638897D01*
X9514899Y85673633D01*
X9503465Y85711326D01*
X9499000Y85756661D01*
X9499000Y86843339D01*
X9503465Y86888674D01*
X9514899Y86926367D01*
X9533466Y86961103D01*
X9558452Y86991548D01*
X9588897Y87016534D01*
X9623633Y87035101D01*
X9661326Y87046535D01*
X9706661Y87051000D01*
X10543339Y87051000D01*
X10588674Y87046535D01*
X10588674Y87046535D01*
G37*
G36*
X8538674Y87046535D02*
G01*
X8576367Y87035101D01*
X8611103Y87016534D01*
X8641548Y86991548D01*
X8666534Y86961103D01*
X8685101Y86926367D01*
X8696535Y86888674D01*
X8701000Y86843339D01*
X8701000Y85756661D01*
X8696535Y85711326D01*
X8685101Y85673633D01*
X8666534Y85638897D01*
X8641548Y85608452D01*
X8611103Y85583466D01*
X8576367Y85564899D01*
X8538674Y85553465D01*
X8493339Y85549000D01*
X7656661Y85549000D01*
X7611326Y85553465D01*
X7573633Y85564899D01*
X7538897Y85583466D01*
X7508452Y85608452D01*
X7483466Y85638897D01*
X7464899Y85673633D01*
X7453465Y85711326D01*
X7449000Y85756661D01*
X7449000Y86843339D01*
X7453465Y86888674D01*
X7464899Y86926367D01*
X7483466Y86961103D01*
X7508452Y86991548D01*
X7538897Y87016534D01*
X7573633Y87035101D01*
X7611326Y87046535D01*
X7656661Y87051000D01*
X8493339Y87051000D01*
X8538674Y87046535D01*
X8538674Y87046535D01*
G37*
G36*
X6188674Y86846535D02*
G01*
X6226367Y86835101D01*
X6261103Y86816534D01*
X6291548Y86791548D01*
X6316534Y86761103D01*
X6335101Y86726367D01*
X6346535Y86688674D01*
X6351000Y86643339D01*
X6351000Y85806661D01*
X6346535Y85761326D01*
X6335101Y85723633D01*
X6316534Y85688897D01*
X6291548Y85658452D01*
X6261103Y85633466D01*
X6226367Y85614899D01*
X6188674Y85603465D01*
X6143339Y85599000D01*
X5056661Y85599000D01*
X5011326Y85603465D01*
X4973633Y85614899D01*
X4938897Y85633466D01*
X4908452Y85658452D01*
X4883466Y85688897D01*
X4864899Y85723633D01*
X4853465Y85761326D01*
X4849000Y85806661D01*
X4849000Y86643339D01*
X4853465Y86688674D01*
X4864899Y86726367D01*
X4883466Y86761103D01*
X4908452Y86791548D01*
X4938897Y86816534D01*
X4973633Y86835101D01*
X5011326Y86846535D01*
X5056661Y86851000D01*
X6143339Y86851000D01*
X6188674Y86846535D01*
X6188674Y86846535D01*
G37*
G36*
X-24411326Y87021535D02*
G01*
X-24373633Y87010101D01*
X-24338897Y86991534D01*
X-24308452Y86966548D01*
X-24283466Y86936103D01*
X-24264899Y86901367D01*
X-24253465Y86863674D01*
X-24249000Y86818339D01*
X-24249000Y85981661D01*
X-24253465Y85936326D01*
X-24264899Y85898633D01*
X-24283466Y85863897D01*
X-24308452Y85833452D01*
X-24338897Y85808466D01*
X-24373633Y85789899D01*
X-24411326Y85778465D01*
X-24456661Y85774000D01*
X-25543339Y85774000D01*
X-25588674Y85778465D01*
X-25626367Y85789899D01*
X-25661103Y85808466D01*
X-25691548Y85833452D01*
X-25716534Y85863897D01*
X-25735101Y85898633D01*
X-25746535Y85936326D01*
X-25751000Y85981661D01*
X-25751000Y86818339D01*
X-25746535Y86863674D01*
X-25735101Y86901367D01*
X-25716534Y86936103D01*
X-25691548Y86966548D01*
X-25661103Y86991534D01*
X-25626367Y87010101D01*
X-25588674Y87021535D01*
X-25543339Y87026000D01*
X-24456661Y87026000D01*
X-24411326Y87021535D01*
X-24411326Y87021535D01*
G37*
G36*
X-24848440Y90620936D02*
G01*
X-24696973Y90590807D01*
X-24482955Y90502158D01*
X-24482954Y90502157D01*
X-24290346Y90373461D01*
X-24126539Y90209654D01*
X-24040742Y90081249D01*
X-23997842Y90017045D01*
X-23909193Y89803027D01*
X-23864000Y89575826D01*
X-23864000Y89344174D01*
X-23909193Y89116973D01*
X-23997842Y88902955D01*
X-23997843Y88902954D01*
X-24126539Y88710346D01*
X-24290346Y88546539D01*
X-24418751Y88460742D01*
X-24482955Y88417842D01*
X-24696973Y88329193D01*
X-24848440Y88299064D01*
X-24924173Y88284000D01*
X-25155827Y88284000D01*
X-25231560Y88299064D01*
X-25383027Y88329193D01*
X-25597045Y88417842D01*
X-25661249Y88460742D01*
X-25789654Y88546539D01*
X-25953461Y88710346D01*
X-26082157Y88902954D01*
X-26082158Y88902955D01*
X-26170807Y89116973D01*
X-26216000Y89344174D01*
X-26216000Y89575826D01*
X-26170807Y89803027D01*
X-26082158Y90017045D01*
X-26039258Y90081249D01*
X-25953461Y90209654D01*
X-25789654Y90373461D01*
X-25597046Y90502157D01*
X-25597045Y90502158D01*
X-25383027Y90590807D01*
X-25231560Y90620936D01*
X-25155827Y90636000D01*
X-24924173Y90636000D01*
X-24848440Y90620936D01*
X-24848440Y90620936D01*
G37*
G36*
X-9848440Y90620936D02*
G01*
X-9696973Y90590807D01*
X-9482955Y90502158D01*
X-9482954Y90502157D01*
X-9290346Y90373461D01*
X-9126539Y90209654D01*
X-9040742Y90081249D01*
X-8997842Y90017045D01*
X-8909193Y89803027D01*
X-8864000Y89575826D01*
X-8864000Y89344174D01*
X-8909193Y89116973D01*
X-8997842Y88902955D01*
X-8997843Y88902954D01*
X-9126539Y88710346D01*
X-9290346Y88546539D01*
X-9418751Y88460742D01*
X-9482955Y88417842D01*
X-9696973Y88329193D01*
X-9848440Y88299064D01*
X-9924173Y88284000D01*
X-10155827Y88284000D01*
X-10231560Y88299064D01*
X-10383027Y88329193D01*
X-10597045Y88417842D01*
X-10661249Y88460742D01*
X-10789654Y88546539D01*
X-10953461Y88710346D01*
X-11082157Y88902954D01*
X-11082158Y88902955D01*
X-11170807Y89116973D01*
X-11216000Y89344174D01*
X-11216000Y89575826D01*
X-11170807Y89803027D01*
X-11082158Y90017045D01*
X-11039258Y90081249D01*
X-10953461Y90209654D01*
X-10789654Y90373461D01*
X-10597046Y90502157D01*
X-10597045Y90502158D01*
X-10383027Y90590807D01*
X-10231560Y90620936D01*
X-10155827Y90636000D01*
X-9924173Y90636000D01*
X-9848440Y90620936D01*
X-9848440Y90620936D01*
G37*
G36*
X-19768440Y90620936D02*
G01*
X-19616973Y90590807D01*
X-19402955Y90502158D01*
X-19402954Y90502157D01*
X-19210346Y90373461D01*
X-19046539Y90209654D01*
X-18960742Y90081249D01*
X-18917842Y90017045D01*
X-18829193Y89803027D01*
X-18784000Y89575826D01*
X-18784000Y89344174D01*
X-18829193Y89116973D01*
X-18917842Y88902955D01*
X-18917843Y88902954D01*
X-19046539Y88710346D01*
X-19210346Y88546539D01*
X-19338751Y88460742D01*
X-19402955Y88417842D01*
X-19616973Y88329193D01*
X-19768440Y88299064D01*
X-19844173Y88284000D01*
X-20075827Y88284000D01*
X-20151560Y88299064D01*
X-20303027Y88329193D01*
X-20517045Y88417842D01*
X-20581249Y88460742D01*
X-20709654Y88546539D01*
X-20873461Y88710346D01*
X-21002157Y88902954D01*
X-21002158Y88902955D01*
X-21090807Y89116973D01*
X-21136000Y89344174D01*
X-21136000Y89575826D01*
X-21090807Y89803027D01*
X-21002158Y90017045D01*
X-20959258Y90081249D01*
X-20873461Y90209654D01*
X-20709654Y90373461D01*
X-20517046Y90502157D01*
X-20517045Y90502158D01*
X-20303027Y90590807D01*
X-20151560Y90620936D01*
X-20075827Y90636000D01*
X-19844173Y90636000D01*
X-19768440Y90620936D01*
X-19768440Y90620936D01*
G37*
G36*
X25231560Y90620936D02*
G01*
X25383027Y90590807D01*
X25597045Y90502158D01*
X25597046Y90502157D01*
X25789654Y90373461D01*
X25953461Y90209654D01*
X26039258Y90081249D01*
X26082158Y90017045D01*
X26170807Y89803027D01*
X26216000Y89575826D01*
X26216000Y89344174D01*
X26170807Y89116973D01*
X26082158Y88902955D01*
X26082157Y88902954D01*
X25953461Y88710346D01*
X25789654Y88546539D01*
X25661249Y88460742D01*
X25597045Y88417842D01*
X25383027Y88329193D01*
X25231560Y88299064D01*
X25155827Y88284000D01*
X24924173Y88284000D01*
X24848440Y88299064D01*
X24696973Y88329193D01*
X24482955Y88417842D01*
X24418751Y88460742D01*
X24290346Y88546539D01*
X24126539Y88710346D01*
X23997843Y88902954D01*
X23997842Y88902955D01*
X23909193Y89116973D01*
X23864000Y89344174D01*
X23864000Y89575826D01*
X23909193Y89803027D01*
X23997842Y90017045D01*
X24040742Y90081249D01*
X24126539Y90209654D01*
X24290346Y90373461D01*
X24482954Y90502157D01*
X24482955Y90502158D01*
X24696973Y90590807D01*
X24848440Y90620936D01*
X24924173Y90636000D01*
X25155827Y90636000D01*
X25231560Y90620936D01*
X25231560Y90620936D01*
G37*
G36*
X-4768440Y90620936D02*
G01*
X-4616973Y90590807D01*
X-4402955Y90502158D01*
X-4402954Y90502157D01*
X-4210346Y90373461D01*
X-4046539Y90209654D01*
X-3960742Y90081249D01*
X-3917842Y90017045D01*
X-3829193Y89803027D01*
X-3784000Y89575826D01*
X-3784000Y89344174D01*
X-3829193Y89116973D01*
X-3917842Y88902955D01*
X-3917843Y88902954D01*
X-4046539Y88710346D01*
X-4210346Y88546539D01*
X-4338751Y88460742D01*
X-4402955Y88417842D01*
X-4616973Y88329193D01*
X-4768440Y88299064D01*
X-4844173Y88284000D01*
X-5075827Y88284000D01*
X-5151560Y88299064D01*
X-5303027Y88329193D01*
X-5517045Y88417842D01*
X-5581249Y88460742D01*
X-5709654Y88546539D01*
X-5873461Y88710346D01*
X-6002157Y88902954D01*
X-6002158Y88902955D01*
X-6090807Y89116973D01*
X-6136000Y89344174D01*
X-6136000Y89575826D01*
X-6090807Y89803027D01*
X-6002158Y90017045D01*
X-5959258Y90081249D01*
X-5873461Y90209654D01*
X-5709654Y90373461D01*
X-5517046Y90502157D01*
X-5517045Y90502158D01*
X-5303027Y90590807D01*
X-5151560Y90620936D01*
X-5075827Y90636000D01*
X-4844173Y90636000D01*
X-4768440Y90620936D01*
X-4768440Y90620936D01*
G37*
G36*
X20151560Y90620936D02*
G01*
X20303027Y90590807D01*
X20517045Y90502158D01*
X20517046Y90502157D01*
X20709654Y90373461D01*
X20873461Y90209654D01*
X20959258Y90081249D01*
X21002158Y90017045D01*
X21090807Y89803027D01*
X21136000Y89575826D01*
X21136000Y89344174D01*
X21090807Y89116973D01*
X21002158Y88902955D01*
X21002157Y88902954D01*
X20873461Y88710346D01*
X20709654Y88546539D01*
X20581249Y88460742D01*
X20517045Y88417842D01*
X20303027Y88329193D01*
X20151560Y88299064D01*
X20075827Y88284000D01*
X19844173Y88284000D01*
X19768440Y88299064D01*
X19616973Y88329193D01*
X19402955Y88417842D01*
X19338751Y88460742D01*
X19210346Y88546539D01*
X19046539Y88710346D01*
X18917843Y88902954D01*
X18917842Y88902955D01*
X18829193Y89116973D01*
X18784000Y89344174D01*
X18784000Y89575826D01*
X18829193Y89803027D01*
X18917842Y90017045D01*
X18960742Y90081249D01*
X19046539Y90209654D01*
X19210346Y90373461D01*
X19402954Y90502157D01*
X19402955Y90502158D01*
X19616973Y90590807D01*
X19768440Y90620936D01*
X19844173Y90636000D01*
X20075827Y90636000D01*
X20151560Y90620936D01*
X20151560Y90620936D01*
G37*
G36*
X10231560Y90620936D02*
G01*
X10383027Y90590807D01*
X10597045Y90502158D01*
X10597046Y90502157D01*
X10789654Y90373461D01*
X10953461Y90209654D01*
X11039258Y90081249D01*
X11082158Y90017045D01*
X11170807Y89803027D01*
X11216000Y89575826D01*
X11216000Y89344174D01*
X11170807Y89116973D01*
X11082158Y88902955D01*
X11082157Y88902954D01*
X10953461Y88710346D01*
X10789654Y88546539D01*
X10661249Y88460742D01*
X10597045Y88417842D01*
X10383027Y88329193D01*
X10231560Y88299064D01*
X10155827Y88284000D01*
X9924173Y88284000D01*
X9848440Y88299064D01*
X9696973Y88329193D01*
X9482955Y88417842D01*
X9418751Y88460742D01*
X9290346Y88546539D01*
X9126539Y88710346D01*
X8997843Y88902954D01*
X8997842Y88902955D01*
X8909193Y89116973D01*
X8864000Y89344174D01*
X8864000Y89575826D01*
X8909193Y89803027D01*
X8997842Y90017045D01*
X9040742Y90081249D01*
X9126539Y90209654D01*
X9290346Y90373461D01*
X9482954Y90502157D01*
X9482955Y90502158D01*
X9696973Y90590807D01*
X9848440Y90620936D01*
X9924173Y90636000D01*
X10155827Y90636000D01*
X10231560Y90620936D01*
X10231560Y90620936D01*
G37*
G36*
X5151560Y90620936D02*
G01*
X5303027Y90590807D01*
X5517045Y90502158D01*
X5517046Y90502157D01*
X5709654Y90373461D01*
X5873461Y90209654D01*
X5959258Y90081249D01*
X6002158Y90017045D01*
X6090807Y89803027D01*
X6136000Y89575826D01*
X6136000Y89344174D01*
X6090807Y89116973D01*
X6002158Y88902955D01*
X6002157Y88902954D01*
X5873461Y88710346D01*
X5709654Y88546539D01*
X5581249Y88460742D01*
X5517045Y88417842D01*
X5303027Y88329193D01*
X5151560Y88299064D01*
X5075827Y88284000D01*
X4844173Y88284000D01*
X4768440Y88299064D01*
X4616973Y88329193D01*
X4402955Y88417842D01*
X4338751Y88460742D01*
X4210346Y88546539D01*
X4046539Y88710346D01*
X3917843Y88902954D01*
X3917842Y88902955D01*
X3829193Y89116973D01*
X3784000Y89344174D01*
X3784000Y89575826D01*
X3829193Y89803027D01*
X3917842Y90017045D01*
X3960742Y90081249D01*
X4046539Y90209654D01*
X4210346Y90373461D01*
X4402954Y90502157D01*
X4402955Y90502158D01*
X4616973Y90590807D01*
X4768440Y90620936D01*
X4844173Y90636000D01*
X5075827Y90636000D01*
X5151560Y90620936D01*
X5151560Y90620936D01*
G37*
G36*
X33844683Y91147275D02*
G01*
X33875143Y91138034D01*
X33903223Y91123026D01*
X33927831Y91102831D01*
X33948026Y91078223D01*
X33963034Y91050143D01*
X33972275Y91019683D01*
X33976000Y90981860D01*
X33976000Y89618140D01*
X33972275Y89580317D01*
X33963034Y89549857D01*
X33948026Y89521777D01*
X33927831Y89497169D01*
X33903223Y89476974D01*
X33875143Y89461966D01*
X33844683Y89452725D01*
X33806860Y89449000D01*
X33243140Y89449000D01*
X33205317Y89452725D01*
X33174857Y89461966D01*
X33146777Y89476974D01*
X33122169Y89497169D01*
X33101974Y89521777D01*
X33086966Y89549857D01*
X33077725Y89580317D01*
X33074000Y89618140D01*
X33074000Y90981860D01*
X33077725Y91019683D01*
X33086966Y91050143D01*
X33101974Y91078223D01*
X33122169Y91102831D01*
X33146777Y91123026D01*
X33174857Y91138034D01*
X33205317Y91147275D01*
X33243140Y91151000D01*
X33806860Y91151000D01*
X33844683Y91147275D01*
X33844683Y91147275D01*
G37*
G36*
X32594683Y91147275D02*
G01*
X32625143Y91138034D01*
X32653223Y91123026D01*
X32677831Y91102831D01*
X32698026Y91078223D01*
X32713034Y91050143D01*
X32722275Y91019683D01*
X32726000Y90981860D01*
X32726000Y89618140D01*
X32722275Y89580317D01*
X32713034Y89549857D01*
X32698026Y89521777D01*
X32677831Y89497169D01*
X32653223Y89476974D01*
X32625143Y89461966D01*
X32594683Y89452725D01*
X32556860Y89449000D01*
X31993140Y89449000D01*
X31955317Y89452725D01*
X31924857Y89461966D01*
X31896777Y89476974D01*
X31872169Y89497169D01*
X31851974Y89521777D01*
X31836966Y89549857D01*
X31827725Y89580317D01*
X31824000Y89618140D01*
X31824000Y90981860D01*
X31827725Y91019683D01*
X31836966Y91050143D01*
X31851974Y91078223D01*
X31872169Y91102831D01*
X31896777Y91123026D01*
X31924857Y91138034D01*
X31955317Y91147275D01*
X31993140Y91151000D01*
X32556860Y91151000D01*
X32594683Y91147275D01*
X32594683Y91147275D01*
G37*
G36*
X-22308440Y93160936D02*
G01*
X-22156973Y93130807D01*
X-21942955Y93042158D01*
X-21942954Y93042157D01*
X-21750346Y92913461D01*
X-21586539Y92749654D01*
X-21500742Y92621249D01*
X-21457842Y92557045D01*
X-21369193Y92343027D01*
X-21324000Y92115826D01*
X-21324000Y91884174D01*
X-21369193Y91656973D01*
X-21457842Y91442955D01*
X-21457843Y91442954D01*
X-21586539Y91250346D01*
X-21750346Y91086539D01*
X-21803862Y91050781D01*
X-21942955Y90957842D01*
X-22156973Y90869193D01*
X-22308440Y90839064D01*
X-22384173Y90824000D01*
X-22615827Y90824000D01*
X-22691560Y90839064D01*
X-22843027Y90869193D01*
X-23057045Y90957842D01*
X-23196138Y91050781D01*
X-23249654Y91086539D01*
X-23413461Y91250346D01*
X-23542157Y91442954D01*
X-23542158Y91442955D01*
X-23630807Y91656973D01*
X-23676000Y91884174D01*
X-23676000Y92115826D01*
X-23630807Y92343027D01*
X-23542158Y92557045D01*
X-23499258Y92621249D01*
X-23413461Y92749654D01*
X-23249654Y92913461D01*
X-23057046Y93042157D01*
X-23057045Y93042158D01*
X-22843027Y93130807D01*
X-22691560Y93160936D01*
X-22615827Y93176000D01*
X-22384173Y93176000D01*
X-22308440Y93160936D01*
X-22308440Y93160936D01*
G37*
G36*
X-7308440Y93160936D02*
G01*
X-7156973Y93130807D01*
X-6942955Y93042158D01*
X-6942954Y93042157D01*
X-6750346Y92913461D01*
X-6586539Y92749654D01*
X-6500742Y92621249D01*
X-6457842Y92557045D01*
X-6369193Y92343027D01*
X-6324000Y92115826D01*
X-6324000Y91884174D01*
X-6369193Y91656973D01*
X-6457842Y91442955D01*
X-6457843Y91442954D01*
X-6586539Y91250346D01*
X-6750346Y91086539D01*
X-6803862Y91050781D01*
X-6942955Y90957842D01*
X-7156973Y90869193D01*
X-7308440Y90839064D01*
X-7384173Y90824000D01*
X-7615827Y90824000D01*
X-7691560Y90839064D01*
X-7843027Y90869193D01*
X-8057045Y90957842D01*
X-8196138Y91050781D01*
X-8249654Y91086539D01*
X-8413461Y91250346D01*
X-8542157Y91442954D01*
X-8542158Y91442955D01*
X-8630807Y91656973D01*
X-8676000Y91884174D01*
X-8676000Y92115826D01*
X-8630807Y92343027D01*
X-8542158Y92557045D01*
X-8499258Y92621249D01*
X-8413461Y92749654D01*
X-8249654Y92913461D01*
X-8057046Y93042157D01*
X-8057045Y93042158D01*
X-7843027Y93130807D01*
X-7691560Y93160936D01*
X-7615827Y93176000D01*
X-7384173Y93176000D01*
X-7308440Y93160936D01*
X-7308440Y93160936D01*
G37*
G36*
X7691560Y93160936D02*
G01*
X7843027Y93130807D01*
X8057045Y93042158D01*
X8057046Y93042157D01*
X8249654Y92913461D01*
X8413461Y92749654D01*
X8499258Y92621249D01*
X8542158Y92557045D01*
X8630807Y92343027D01*
X8676000Y92115826D01*
X8676000Y91884174D01*
X8630807Y91656973D01*
X8542158Y91442955D01*
X8542157Y91442954D01*
X8413461Y91250346D01*
X8249654Y91086539D01*
X8196138Y91050781D01*
X8057045Y90957842D01*
X7843027Y90869193D01*
X7691560Y90839064D01*
X7615827Y90824000D01*
X7384173Y90824000D01*
X7308440Y90839064D01*
X7156973Y90869193D01*
X6942955Y90957842D01*
X6803862Y91050781D01*
X6750346Y91086539D01*
X6586539Y91250346D01*
X6457843Y91442954D01*
X6457842Y91442955D01*
X6369193Y91656973D01*
X6324000Y91884174D01*
X6324000Y92115826D01*
X6369193Y92343027D01*
X6457842Y92557045D01*
X6500742Y92621249D01*
X6586539Y92749654D01*
X6750346Y92913461D01*
X6942954Y93042157D01*
X6942955Y93042158D01*
X7156973Y93130807D01*
X7308440Y93160936D01*
X7384173Y93176000D01*
X7615827Y93176000D01*
X7691560Y93160936D01*
X7691560Y93160936D01*
G37*
G36*
X22691560Y93160936D02*
G01*
X22843027Y93130807D01*
X23057045Y93042158D01*
X23057046Y93042157D01*
X23249654Y92913461D01*
X23413461Y92749654D01*
X23499258Y92621249D01*
X23542158Y92557045D01*
X23630807Y92343027D01*
X23676000Y92115826D01*
X23676000Y91884174D01*
X23630807Y91656973D01*
X23542158Y91442955D01*
X23542157Y91442954D01*
X23413461Y91250346D01*
X23249654Y91086539D01*
X23196138Y91050781D01*
X23057045Y90957842D01*
X22843027Y90869193D01*
X22691560Y90839064D01*
X22615827Y90824000D01*
X22384173Y90824000D01*
X22308440Y90839064D01*
X22156973Y90869193D01*
X21942955Y90957842D01*
X21803862Y91050781D01*
X21750346Y91086539D01*
X21586539Y91250346D01*
X21457843Y91442954D01*
X21457842Y91442955D01*
X21369193Y91656973D01*
X21324000Y91884174D01*
X21324000Y92115826D01*
X21369193Y92343027D01*
X21457842Y92557045D01*
X21500742Y92621249D01*
X21586539Y92749654D01*
X21750346Y92913461D01*
X21942954Y93042157D01*
X21942955Y93042158D01*
X22156973Y93130807D01*
X22308440Y93160936D01*
X22384173Y93176000D01*
X22615827Y93176000D01*
X22691560Y93160936D01*
X22691560Y93160936D01*
G37*
G36*
X30691536Y94747200D02*
G01*
X30722738Y94737735D01*
X30751486Y94722369D01*
X30776687Y94701687D01*
X30797369Y94676486D01*
X30812735Y94647738D01*
X30822200Y94616536D01*
X30826000Y94577954D01*
X30826000Y91822046D01*
X30822200Y91783464D01*
X30812735Y91752262D01*
X30797369Y91723514D01*
X30776687Y91698313D01*
X30751486Y91677631D01*
X30722738Y91662265D01*
X30691536Y91652800D01*
X30652954Y91649000D01*
X28797046Y91649000D01*
X28758464Y91652800D01*
X28727262Y91662265D01*
X28698514Y91677631D01*
X28673313Y91698313D01*
X28652631Y91723514D01*
X28637265Y91752262D01*
X28627800Y91783464D01*
X28624000Y91822046D01*
X28624000Y94577954D01*
X28627800Y94616536D01*
X28637265Y94647738D01*
X28652631Y94676486D01*
X28673313Y94701687D01*
X28698514Y94722369D01*
X28727262Y94737735D01*
X28758464Y94747200D01*
X28797046Y94751000D01*
X30652954Y94751000D01*
X30691536Y94747200D01*
X30691536Y94747200D01*
G37*
G36*
X37041536Y94747200D02*
G01*
X37072738Y94737735D01*
X37101486Y94722369D01*
X37126687Y94701687D01*
X37147369Y94676486D01*
X37162735Y94647738D01*
X37172200Y94616536D01*
X37176000Y94577954D01*
X37176000Y91822046D01*
X37172200Y91783464D01*
X37162735Y91752262D01*
X37147369Y91723514D01*
X37126687Y91698313D01*
X37101486Y91677631D01*
X37072738Y91662265D01*
X37041536Y91652800D01*
X37002954Y91649000D01*
X35147046Y91649000D01*
X35108464Y91652800D01*
X35077262Y91662265D01*
X35048514Y91677631D01*
X35023313Y91698313D01*
X35002631Y91723514D01*
X34987265Y91752262D01*
X34977800Y91783464D01*
X34974000Y91822046D01*
X34974000Y94577954D01*
X34977800Y94616536D01*
X34987265Y94647738D01*
X35002631Y94676486D01*
X35023313Y94701687D01*
X35048514Y94722369D01*
X35077262Y94737735D01*
X35108464Y94747200D01*
X35147046Y94751000D01*
X37002954Y94751000D01*
X37041536Y94747200D01*
X37041536Y94747200D01*
G37*
G36*
X-4768440Y95700936D02*
G01*
X-4616973Y95670807D01*
X-4402955Y95582158D01*
X-4402954Y95582157D01*
X-4210346Y95453461D01*
X-4046539Y95289654D01*
X-3960742Y95161249D01*
X-3917842Y95097045D01*
X-3829193Y94883027D01*
X-3829193Y94883025D01*
X-3788109Y94676486D01*
X-3784000Y94655826D01*
X-3784000Y94424174D01*
X-3829193Y94196973D01*
X-3917842Y93982955D01*
X-3917843Y93982954D01*
X-4046539Y93790346D01*
X-4210346Y93626539D01*
X-4338751Y93540742D01*
X-4402955Y93497842D01*
X-4616973Y93409193D01*
X-4768440Y93379064D01*
X-4844173Y93364000D01*
X-5075827Y93364000D01*
X-5151560Y93379064D01*
X-5303027Y93409193D01*
X-5517045Y93497842D01*
X-5581249Y93540742D01*
X-5709654Y93626539D01*
X-5873461Y93790346D01*
X-6002157Y93982954D01*
X-6002158Y93982955D01*
X-6090807Y94196973D01*
X-6136000Y94424174D01*
X-6136000Y94655826D01*
X-6131890Y94676486D01*
X-6090807Y94883025D01*
X-6090807Y94883027D01*
X-6002158Y95097045D01*
X-5959258Y95161249D01*
X-5873461Y95289654D01*
X-5709654Y95453461D01*
X-5517046Y95582157D01*
X-5517045Y95582158D01*
X-5303027Y95670807D01*
X-5151560Y95700936D01*
X-5075827Y95716000D01*
X-4844173Y95716000D01*
X-4768440Y95700936D01*
X-4768440Y95700936D01*
G37*
G36*
X5151560Y95700936D02*
G01*
X5303027Y95670807D01*
X5517045Y95582158D01*
X5517046Y95582157D01*
X5709654Y95453461D01*
X5873461Y95289654D01*
X5959258Y95161249D01*
X6002158Y95097045D01*
X6090807Y94883027D01*
X6090807Y94883025D01*
X6131891Y94676486D01*
X6136000Y94655826D01*
X6136000Y94424174D01*
X6090807Y94196973D01*
X6002158Y93982955D01*
X6002157Y93982954D01*
X5873461Y93790346D01*
X5709654Y93626539D01*
X5581249Y93540742D01*
X5517045Y93497842D01*
X5303027Y93409193D01*
X5151560Y93379064D01*
X5075827Y93364000D01*
X4844173Y93364000D01*
X4768440Y93379064D01*
X4616973Y93409193D01*
X4402955Y93497842D01*
X4338751Y93540742D01*
X4210346Y93626539D01*
X4046539Y93790346D01*
X3917843Y93982954D01*
X3917842Y93982955D01*
X3829193Y94196973D01*
X3784000Y94424174D01*
X3784000Y94655826D01*
X3788110Y94676486D01*
X3829193Y94883025D01*
X3829193Y94883027D01*
X3917842Y95097045D01*
X3960742Y95161249D01*
X4046539Y95289654D01*
X4210346Y95453461D01*
X4402954Y95582157D01*
X4402955Y95582158D01*
X4616973Y95670807D01*
X4768440Y95700936D01*
X4844173Y95716000D01*
X5075827Y95716000D01*
X5151560Y95700936D01*
X5151560Y95700936D01*
G37*
G36*
X10231560Y95700936D02*
G01*
X10383027Y95670807D01*
X10597045Y95582158D01*
X10597046Y95582157D01*
X10789654Y95453461D01*
X10953461Y95289654D01*
X11039258Y95161249D01*
X11082158Y95097045D01*
X11170807Y94883027D01*
X11170807Y94883025D01*
X11211891Y94676486D01*
X11216000Y94655826D01*
X11216000Y94424174D01*
X11170807Y94196973D01*
X11082158Y93982955D01*
X11082157Y93982954D01*
X10953461Y93790346D01*
X10789654Y93626539D01*
X10661249Y93540742D01*
X10597045Y93497842D01*
X10383027Y93409193D01*
X10231560Y93379064D01*
X10155827Y93364000D01*
X9924173Y93364000D01*
X9848440Y93379064D01*
X9696973Y93409193D01*
X9482955Y93497842D01*
X9418751Y93540742D01*
X9290346Y93626539D01*
X9126539Y93790346D01*
X8997843Y93982954D01*
X8997842Y93982955D01*
X8909193Y94196973D01*
X8864000Y94424174D01*
X8864000Y94655826D01*
X8868110Y94676486D01*
X8909193Y94883025D01*
X8909193Y94883027D01*
X8997842Y95097045D01*
X9040742Y95161249D01*
X9126539Y95289654D01*
X9290346Y95453461D01*
X9482954Y95582157D01*
X9482955Y95582158D01*
X9696973Y95670807D01*
X9848440Y95700936D01*
X9924173Y95716000D01*
X10155827Y95716000D01*
X10231560Y95700936D01*
X10231560Y95700936D01*
G37*
G36*
X-9848440Y95700936D02*
G01*
X-9696973Y95670807D01*
X-9482955Y95582158D01*
X-9482954Y95582157D01*
X-9290346Y95453461D01*
X-9126539Y95289654D01*
X-9040742Y95161249D01*
X-8997842Y95097045D01*
X-8909193Y94883027D01*
X-8909193Y94883025D01*
X-8868109Y94676486D01*
X-8864000Y94655826D01*
X-8864000Y94424174D01*
X-8909193Y94196973D01*
X-8997842Y93982955D01*
X-8997843Y93982954D01*
X-9126539Y93790346D01*
X-9290346Y93626539D01*
X-9418751Y93540742D01*
X-9482955Y93497842D01*
X-9696973Y93409193D01*
X-9848440Y93379064D01*
X-9924173Y93364000D01*
X-10155827Y93364000D01*
X-10231560Y93379064D01*
X-10383027Y93409193D01*
X-10597045Y93497842D01*
X-10661249Y93540742D01*
X-10789654Y93626539D01*
X-10953461Y93790346D01*
X-11082157Y93982954D01*
X-11082158Y93982955D01*
X-11170807Y94196973D01*
X-11216000Y94424174D01*
X-11216000Y94655826D01*
X-11211890Y94676486D01*
X-11170807Y94883025D01*
X-11170807Y94883027D01*
X-11082158Y95097045D01*
X-11039258Y95161249D01*
X-10953461Y95289654D01*
X-10789654Y95453461D01*
X-10597046Y95582157D01*
X-10597045Y95582158D01*
X-10383027Y95670807D01*
X-10231560Y95700936D01*
X-10155827Y95716000D01*
X-9924173Y95716000D01*
X-9848440Y95700936D01*
X-9848440Y95700936D01*
G37*
G36*
X20151560Y95700936D02*
G01*
X20303027Y95670807D01*
X20517045Y95582158D01*
X20517046Y95582157D01*
X20709654Y95453461D01*
X20873461Y95289654D01*
X20959258Y95161249D01*
X21002158Y95097045D01*
X21090807Y94883027D01*
X21090807Y94883025D01*
X21131891Y94676486D01*
X21136000Y94655826D01*
X21136000Y94424174D01*
X21090807Y94196973D01*
X21002158Y93982955D01*
X21002157Y93982954D01*
X20873461Y93790346D01*
X20709654Y93626539D01*
X20581249Y93540742D01*
X20517045Y93497842D01*
X20303027Y93409193D01*
X20151560Y93379064D01*
X20075827Y93364000D01*
X19844173Y93364000D01*
X19768440Y93379064D01*
X19616973Y93409193D01*
X19402955Y93497842D01*
X19338751Y93540742D01*
X19210346Y93626539D01*
X19046539Y93790346D01*
X18917843Y93982954D01*
X18917842Y93982955D01*
X18829193Y94196973D01*
X18784000Y94424174D01*
X18784000Y94655826D01*
X18788110Y94676486D01*
X18829193Y94883025D01*
X18829193Y94883027D01*
X18917842Y95097045D01*
X18960742Y95161249D01*
X19046539Y95289654D01*
X19210346Y95453461D01*
X19402954Y95582157D01*
X19402955Y95582158D01*
X19616973Y95670807D01*
X19768440Y95700936D01*
X19844173Y95716000D01*
X20075827Y95716000D01*
X20151560Y95700936D01*
X20151560Y95700936D01*
G37*
G36*
X25231560Y95700936D02*
G01*
X25383027Y95670807D01*
X25597045Y95582158D01*
X25597046Y95582157D01*
X25789654Y95453461D01*
X25953461Y95289654D01*
X26039258Y95161249D01*
X26082158Y95097045D01*
X26170807Y94883027D01*
X26170807Y94883025D01*
X26211891Y94676486D01*
X26216000Y94655826D01*
X26216000Y94424174D01*
X26170807Y94196973D01*
X26082158Y93982955D01*
X26082157Y93982954D01*
X25953461Y93790346D01*
X25789654Y93626539D01*
X25661249Y93540742D01*
X25597045Y93497842D01*
X25383027Y93409193D01*
X25231560Y93379064D01*
X25155827Y93364000D01*
X24924173Y93364000D01*
X24848440Y93379064D01*
X24696973Y93409193D01*
X24482955Y93497842D01*
X24418751Y93540742D01*
X24290346Y93626539D01*
X24126539Y93790346D01*
X23997843Y93982954D01*
X23997842Y93982955D01*
X23909193Y94196973D01*
X23864000Y94424174D01*
X23864000Y94655826D01*
X23868110Y94676486D01*
X23909193Y94883025D01*
X23909193Y94883027D01*
X23997842Y95097045D01*
X24040742Y95161249D01*
X24126539Y95289654D01*
X24290346Y95453461D01*
X24482954Y95582157D01*
X24482955Y95582158D01*
X24696973Y95670807D01*
X24848440Y95700936D01*
X24924173Y95716000D01*
X25155827Y95716000D01*
X25231560Y95700936D01*
X25231560Y95700936D01*
G37*
G36*
X-19768440Y95700936D02*
G01*
X-19616973Y95670807D01*
X-19402955Y95582158D01*
X-19402954Y95582157D01*
X-19210346Y95453461D01*
X-19046539Y95289654D01*
X-18960742Y95161249D01*
X-18917842Y95097045D01*
X-18829193Y94883027D01*
X-18829193Y94883025D01*
X-18788109Y94676486D01*
X-18784000Y94655826D01*
X-18784000Y94424174D01*
X-18829193Y94196973D01*
X-18917842Y93982955D01*
X-18917843Y93982954D01*
X-19046539Y93790346D01*
X-19210346Y93626539D01*
X-19338751Y93540742D01*
X-19402955Y93497842D01*
X-19616973Y93409193D01*
X-19768440Y93379064D01*
X-19844173Y93364000D01*
X-20075827Y93364000D01*
X-20151560Y93379064D01*
X-20303027Y93409193D01*
X-20517045Y93497842D01*
X-20581249Y93540742D01*
X-20709654Y93626539D01*
X-20873461Y93790346D01*
X-21002157Y93982954D01*
X-21002158Y93982955D01*
X-21090807Y94196973D01*
X-21136000Y94424174D01*
X-21136000Y94655826D01*
X-21131890Y94676486D01*
X-21090807Y94883025D01*
X-21090807Y94883027D01*
X-21002158Y95097045D01*
X-20959258Y95161249D01*
X-20873461Y95289654D01*
X-20709654Y95453461D01*
X-20517046Y95582157D01*
X-20517045Y95582158D01*
X-20303027Y95670807D01*
X-20151560Y95700936D01*
X-20075827Y95716000D01*
X-19844173Y95716000D01*
X-19768440Y95700936D01*
X-19768440Y95700936D01*
G37*
G36*
X-24848440Y95700936D02*
G01*
X-24696973Y95670807D01*
X-24482955Y95582158D01*
X-24482954Y95582157D01*
X-24290346Y95453461D01*
X-24126539Y95289654D01*
X-24040742Y95161249D01*
X-23997842Y95097045D01*
X-23909193Y94883027D01*
X-23909193Y94883025D01*
X-23868109Y94676486D01*
X-23864000Y94655826D01*
X-23864000Y94424174D01*
X-23909193Y94196973D01*
X-23997842Y93982955D01*
X-23997843Y93982954D01*
X-24126539Y93790346D01*
X-24290346Y93626539D01*
X-24418751Y93540742D01*
X-24482955Y93497842D01*
X-24696973Y93409193D01*
X-24848440Y93379064D01*
X-24924173Y93364000D01*
X-25155827Y93364000D01*
X-25231560Y93379064D01*
X-25383027Y93409193D01*
X-25597045Y93497842D01*
X-25661249Y93540742D01*
X-25789654Y93626539D01*
X-25953461Y93790346D01*
X-26082157Y93982954D01*
X-26082158Y93982955D01*
X-26170807Y94196973D01*
X-26216000Y94424174D01*
X-26216000Y94655826D01*
X-26211890Y94676486D01*
X-26170807Y94883025D01*
X-26170807Y94883027D01*
X-26082158Y95097045D01*
X-26039258Y95161249D01*
X-25953461Y95289654D01*
X-25789654Y95453461D01*
X-25597046Y95582157D01*
X-25597045Y95582158D01*
X-25383027Y95670807D01*
X-25231560Y95700936D01*
X-25155827Y95716000D01*
X-24924173Y95716000D01*
X-24848440Y95700936D01*
X-24848440Y95700936D01*
G37*
M02*
