%FSLAX45Y45*%
G04 Gerber Fmt 4.5, Leading zero omitted, Abs format (unit mm)*
G04 Created by KiCad (PCBNEW (5.1.0)-1) date 2020-09-17 18:32:13*
%MOMM*%
%LPD*%
G04 APERTURE LIST*
%ADD10C,0.100000*%
%ADD11C,0.200000*%
%ADD12C,0.300000*%
G04 APERTURE END LIST*
D10*
X11700000Y-6140000D02*
X11700000Y-16040000D01*
X11700000Y-16040000D02*
X21500000Y-16040000D01*
X21500000Y-16040000D02*
X21500000Y-7940000D01*
X21500000Y-7940000D02*
X21500000Y-6140000D01*
X21500000Y-6140000D02*
X11700000Y-6140000D01*
D11*
X12980000Y-8920000D02*
X13020000Y-8960000D01*
X13020000Y-8920000D02*
X12980000Y-8960000D01*
X12980000Y-10520000D02*
X13020000Y-10560000D01*
X13020000Y-10520000D02*
X12980000Y-10560000D01*
X14780000Y-8820000D02*
X14820000Y-8860000D01*
X14820000Y-8820000D02*
X14780000Y-8860000D01*
X14780000Y-11420000D02*
X14820000Y-11460000D01*
X14820000Y-11420000D02*
X14780000Y-11460000D01*
X15780000Y-11520000D02*
X15820000Y-11560000D01*
X15820000Y-11520000D02*
X15780000Y-11560000D01*
X15880000Y-8720000D02*
X15920000Y-8760000D01*
X15920000Y-8720000D02*
X15880000Y-8760000D01*
X16080000Y-11820000D02*
X16120000Y-11860000D01*
X16120000Y-11820000D02*
X16080000Y-11860000D01*
X16180000Y-12820000D02*
X16220000Y-12860000D01*
X16220000Y-12820000D02*
X16180000Y-12860000D01*
X16280000Y-14720000D02*
X16320000Y-14760000D01*
X16320000Y-14720000D02*
X16280000Y-14760000D01*
X17880000Y-14720000D02*
X17920000Y-14760000D01*
X17920000Y-14720000D02*
X17880000Y-14760000D01*
X18780000Y-12820000D02*
X18820000Y-12860000D01*
X18820000Y-12820000D02*
X18780000Y-12860000D01*
X18880000Y-11820000D02*
X18920000Y-11860000D01*
X18920000Y-11820000D02*
X18880000Y-11860000D01*
X17321000Y-15286000D02*
G75*
G03X17321000Y-15286000I-75000J0D01*
G01*
X17321000Y-15794000D02*
G75*
G03X17321000Y-15794000I-75000J0D01*
G01*
X17575000Y-15540000D02*
G75*
G03X17575000Y-15540000I-75000J0D01*
G01*
X17829000Y-15286000D02*
G75*
G03X17829000Y-15286000I-75000J0D01*
G01*
X17829000Y-15794000D02*
G75*
G03X17829000Y-15794000I-75000J0D01*
G01*
X12021000Y-9886000D02*
G75*
G03X12021000Y-9886000I-75000J0D01*
G01*
X12021000Y-10394000D02*
G75*
G03X12021000Y-10394000I-75000J0D01*
G01*
X12275000Y-10140000D02*
G75*
G03X12275000Y-10140000I-75000J0D01*
G01*
X12529000Y-9886000D02*
G75*
G03X12529000Y-9886000I-75000J0D01*
G01*
X12529000Y-10394000D02*
G75*
G03X12529000Y-10394000I-75000J0D01*
G01*
X12500000Y-6725000D02*
X12500000Y-7155000D01*
X12285000Y-6940000D02*
X12715000Y-6940000D01*
X20700000Y-6725000D02*
X20700000Y-7155000D01*
X20485000Y-6940000D02*
X20915000Y-6940000D01*
X20700000Y-15025000D02*
X20700000Y-15455000D01*
X20485000Y-15240000D02*
X20915000Y-15240000D01*
X12500000Y-15025000D02*
X12500000Y-15455000D01*
X12285000Y-15240000D02*
X12715000Y-15240000D01*
D12*
X11981428Y-16510714D02*
X11981428Y-16210714D01*
X12052857Y-16210714D01*
X12095714Y-16225000D01*
X12124286Y-16253571D01*
X12138571Y-16282143D01*
X12152857Y-16339286D01*
X12152857Y-16382143D01*
X12138571Y-16439286D01*
X12124286Y-16467857D01*
X12095714Y-16496429D01*
X12052857Y-16510714D01*
X11981428Y-16510714D01*
X12281428Y-16510714D02*
X12281428Y-16310714D01*
X12281428Y-16367857D02*
X12295714Y-16339286D01*
X12310000Y-16325000D01*
X12338571Y-16310714D01*
X12367143Y-16310714D01*
X12467143Y-16510714D02*
X12467143Y-16310714D01*
X12467143Y-16210714D02*
X12452857Y-16225000D01*
X12467143Y-16239286D01*
X12481428Y-16225000D01*
X12467143Y-16210714D01*
X12467143Y-16239286D01*
X12652857Y-16510714D02*
X12624286Y-16496429D01*
X12610000Y-16467857D01*
X12610000Y-16210714D01*
X12810000Y-16510714D02*
X12781428Y-16496429D01*
X12767143Y-16467857D01*
X12767143Y-16210714D01*
X13152857Y-16510714D02*
X13152857Y-16210714D01*
X13252857Y-16425000D01*
X13352857Y-16210714D01*
X13352857Y-16510714D01*
X13624286Y-16510714D02*
X13624286Y-16353571D01*
X13610000Y-16325000D01*
X13581428Y-16310714D01*
X13524286Y-16310714D01*
X13495714Y-16325000D01*
X13624286Y-16496429D02*
X13595714Y-16510714D01*
X13524286Y-16510714D01*
X13495714Y-16496429D01*
X13481428Y-16467857D01*
X13481428Y-16439286D01*
X13495714Y-16410714D01*
X13524286Y-16396429D01*
X13595714Y-16396429D01*
X13624286Y-16382143D01*
X13767143Y-16310714D02*
X13767143Y-16610714D01*
X13767143Y-16325000D02*
X13795714Y-16310714D01*
X13852857Y-16310714D01*
X13881428Y-16325000D01*
X13895714Y-16339286D01*
X13910000Y-16367857D01*
X13910000Y-16453571D01*
X13895714Y-16482143D01*
X13881428Y-16496429D01*
X13852857Y-16510714D01*
X13795714Y-16510714D01*
X13767143Y-16496429D01*
X14038571Y-16482143D02*
X14052857Y-16496429D01*
X14038571Y-16510714D01*
X14024286Y-16496429D01*
X14038571Y-16482143D01*
X14038571Y-16510714D01*
X14038571Y-16325000D02*
X14052857Y-16339286D01*
X14038571Y-16353571D01*
X14024286Y-16339286D01*
X14038571Y-16325000D01*
X14038571Y-16353571D01*
X11655000Y-16985000D02*
X11695000Y-17025000D01*
X11695000Y-16985000D02*
X11655000Y-17025000D01*
X12038571Y-16840714D02*
X12067143Y-16840714D01*
X12095714Y-16855000D01*
X12110000Y-16869286D01*
X12124286Y-16897857D01*
X12138571Y-16955000D01*
X12138571Y-17026429D01*
X12124286Y-17083572D01*
X12110000Y-17112143D01*
X12095714Y-17126429D01*
X12067143Y-17140714D01*
X12038571Y-17140714D01*
X12010000Y-17126429D01*
X11995714Y-17112143D01*
X11981428Y-17083572D01*
X11967143Y-17026429D01*
X11967143Y-16955000D01*
X11981428Y-16897857D01*
X11995714Y-16869286D01*
X12010000Y-16855000D01*
X12038571Y-16840714D01*
X12267143Y-17112143D02*
X12281428Y-17126429D01*
X12267143Y-17140714D01*
X12252857Y-17126429D01*
X12267143Y-17112143D01*
X12267143Y-17140714D01*
X12538571Y-16940714D02*
X12538571Y-17140714D01*
X12467143Y-16826429D02*
X12395714Y-17040714D01*
X12581428Y-17040714D01*
X12752857Y-16840714D02*
X12781428Y-16840714D01*
X12810000Y-16855000D01*
X12824286Y-16869286D01*
X12838571Y-16897857D01*
X12852857Y-16955000D01*
X12852857Y-17026429D01*
X12838571Y-17083572D01*
X12824286Y-17112143D01*
X12810000Y-17126429D01*
X12781428Y-17140714D01*
X12752857Y-17140714D01*
X12724286Y-17126429D01*
X12710000Y-17112143D01*
X12695714Y-17083572D01*
X12681428Y-17026429D01*
X12681428Y-16955000D01*
X12695714Y-16897857D01*
X12710000Y-16869286D01*
X12724286Y-16855000D01*
X12752857Y-16840714D01*
X12981428Y-17140714D02*
X12981428Y-16940714D01*
X12981428Y-16969286D02*
X12995714Y-16955000D01*
X13024286Y-16940714D01*
X13067143Y-16940714D01*
X13095714Y-16955000D01*
X13110000Y-16983572D01*
X13110000Y-17140714D01*
X13110000Y-16983572D02*
X13124286Y-16955000D01*
X13152857Y-16940714D01*
X13195714Y-16940714D01*
X13224286Y-16955000D01*
X13238571Y-16983572D01*
X13238571Y-17140714D01*
X13381428Y-17140714D02*
X13381428Y-16940714D01*
X13381428Y-16969286D02*
X13395714Y-16955000D01*
X13424286Y-16940714D01*
X13467143Y-16940714D01*
X13495714Y-16955000D01*
X13510000Y-16983572D01*
X13510000Y-17140714D01*
X13510000Y-16983572D02*
X13524286Y-16955000D01*
X13552857Y-16940714D01*
X13595714Y-16940714D01*
X13624286Y-16955000D01*
X13638571Y-16983572D01*
X13638571Y-17140714D01*
X14224286Y-16826429D02*
X13967143Y-17212143D01*
X14610000Y-16840714D02*
X14638571Y-16840714D01*
X14667143Y-16855000D01*
X14681428Y-16869286D01*
X14695714Y-16897857D01*
X14710000Y-16955000D01*
X14710000Y-17026429D01*
X14695714Y-17083572D01*
X14681428Y-17112143D01*
X14667143Y-17126429D01*
X14638571Y-17140714D01*
X14610000Y-17140714D01*
X14581428Y-17126429D01*
X14567143Y-17112143D01*
X14552857Y-17083572D01*
X14538571Y-17026429D01*
X14538571Y-16955000D01*
X14552857Y-16897857D01*
X14567143Y-16869286D01*
X14581428Y-16855000D01*
X14610000Y-16840714D01*
X14838571Y-17112143D02*
X14852857Y-17126429D01*
X14838571Y-17140714D01*
X14824286Y-17126429D01*
X14838571Y-17112143D01*
X14838571Y-17140714D01*
X15038571Y-16840714D02*
X15067143Y-16840714D01*
X15095714Y-16855000D01*
X15110000Y-16869286D01*
X15124286Y-16897857D01*
X15138571Y-16955000D01*
X15138571Y-17026429D01*
X15124286Y-17083572D01*
X15110000Y-17112143D01*
X15095714Y-17126429D01*
X15067143Y-17140714D01*
X15038571Y-17140714D01*
X15010000Y-17126429D01*
X14995714Y-17112143D01*
X14981428Y-17083572D01*
X14967143Y-17026429D01*
X14967143Y-16955000D01*
X14981428Y-16897857D01*
X14995714Y-16869286D01*
X15010000Y-16855000D01*
X15038571Y-16840714D01*
X15424286Y-17140714D02*
X15252857Y-17140714D01*
X15338571Y-17140714D02*
X15338571Y-16840714D01*
X15310000Y-16883572D01*
X15281428Y-16912143D01*
X15252857Y-16926429D01*
X15681428Y-16840714D02*
X15624286Y-16840714D01*
X15595714Y-16855000D01*
X15581428Y-16869286D01*
X15552857Y-16912143D01*
X15538571Y-16969286D01*
X15538571Y-17083572D01*
X15552857Y-17112143D01*
X15567143Y-17126429D01*
X15595714Y-17140714D01*
X15652857Y-17140714D01*
X15681428Y-17126429D01*
X15695714Y-17112143D01*
X15710000Y-17083572D01*
X15710000Y-17012143D01*
X15695714Y-16983572D01*
X15681428Y-16969286D01*
X15652857Y-16955000D01*
X15595714Y-16955000D01*
X15567143Y-16969286D01*
X15552857Y-16983572D01*
X15538571Y-17012143D01*
X15824286Y-16840714D02*
X15824286Y-16897857D01*
X15938571Y-16840714D02*
X15938571Y-16897857D01*
X16381428Y-17255000D02*
X16367143Y-17240714D01*
X16338571Y-17197857D01*
X16324286Y-17169286D01*
X16310000Y-17126429D01*
X16295714Y-17055000D01*
X16295714Y-16997857D01*
X16310000Y-16926429D01*
X16324286Y-16883572D01*
X16338571Y-16855000D01*
X16367143Y-16812143D01*
X16381428Y-16797857D01*
X16652857Y-17140714D02*
X16481428Y-17140714D01*
X16567143Y-17140714D02*
X16567143Y-16840714D01*
X16538571Y-16883572D01*
X16510000Y-16912143D01*
X16481428Y-16926429D01*
X16767143Y-16869286D02*
X16781428Y-16855000D01*
X16810000Y-16840714D01*
X16881428Y-16840714D01*
X16910000Y-16855000D01*
X16924286Y-16869286D01*
X16938571Y-16897857D01*
X16938571Y-16926429D01*
X16924286Y-16969286D01*
X16752857Y-17140714D01*
X16938571Y-17140714D01*
X17295714Y-17140714D02*
X17295714Y-16840714D01*
X17424286Y-17140714D02*
X17424286Y-16983572D01*
X17410000Y-16955000D01*
X17381428Y-16940714D01*
X17338571Y-16940714D01*
X17310000Y-16955000D01*
X17295714Y-16969286D01*
X17610000Y-17140714D02*
X17581428Y-17126429D01*
X17567143Y-17112143D01*
X17552857Y-17083572D01*
X17552857Y-16997857D01*
X17567143Y-16969286D01*
X17581428Y-16955000D01*
X17610000Y-16940714D01*
X17652857Y-16940714D01*
X17681428Y-16955000D01*
X17695714Y-16969286D01*
X17710000Y-16997857D01*
X17710000Y-17083572D01*
X17695714Y-17112143D01*
X17681428Y-17126429D01*
X17652857Y-17140714D01*
X17610000Y-17140714D01*
X17881428Y-17140714D02*
X17852857Y-17126429D01*
X17838571Y-17097857D01*
X17838571Y-16840714D01*
X18110000Y-17126429D02*
X18081428Y-17140714D01*
X18024286Y-17140714D01*
X17995714Y-17126429D01*
X17981428Y-17097857D01*
X17981428Y-16983572D01*
X17995714Y-16955000D01*
X18024286Y-16940714D01*
X18081428Y-16940714D01*
X18110000Y-16955000D01*
X18124286Y-16983572D01*
X18124286Y-17012143D01*
X17981428Y-17040714D01*
X18238571Y-17126429D02*
X18267143Y-17140714D01*
X18324286Y-17140714D01*
X18352857Y-17126429D01*
X18367143Y-17097857D01*
X18367143Y-17083572D01*
X18352857Y-17055000D01*
X18324286Y-17040714D01*
X18281428Y-17040714D01*
X18252857Y-17026429D01*
X18238571Y-16997857D01*
X18238571Y-16983572D01*
X18252857Y-16955000D01*
X18281428Y-16940714D01*
X18324286Y-16940714D01*
X18352857Y-16955000D01*
X18467143Y-17255000D02*
X18481428Y-17240714D01*
X18510000Y-17197857D01*
X18524286Y-17169286D01*
X18538571Y-17126429D01*
X18552857Y-17055000D01*
X18552857Y-16997857D01*
X18538571Y-16926429D01*
X18524286Y-16883572D01*
X18510000Y-16855000D01*
X18481428Y-16812143D01*
X18467143Y-16797857D01*
X11695000Y-17401000D02*
G75*
G03X11695000Y-17401000I-75000J0D01*
G01*
X12138571Y-17536714D02*
X11967143Y-17536714D01*
X12052857Y-17536714D02*
X12052857Y-17236714D01*
X12024286Y-17279572D01*
X11995714Y-17308143D01*
X11967143Y-17322429D01*
X12267143Y-17508143D02*
X12281428Y-17522429D01*
X12267143Y-17536714D01*
X12252857Y-17522429D01*
X12267143Y-17508143D01*
X12267143Y-17536714D01*
X12552857Y-17236714D02*
X12410000Y-17236714D01*
X12395714Y-17379572D01*
X12410000Y-17365286D01*
X12438571Y-17351000D01*
X12510000Y-17351000D01*
X12538571Y-17365286D01*
X12552857Y-17379572D01*
X12567143Y-17408143D01*
X12567143Y-17479572D01*
X12552857Y-17508143D01*
X12538571Y-17522429D01*
X12510000Y-17536714D01*
X12438571Y-17536714D01*
X12410000Y-17522429D01*
X12395714Y-17508143D01*
X12752857Y-17236714D02*
X12781428Y-17236714D01*
X12810000Y-17251000D01*
X12824286Y-17265286D01*
X12838571Y-17293857D01*
X12852857Y-17351000D01*
X12852857Y-17422429D01*
X12838571Y-17479572D01*
X12824286Y-17508143D01*
X12810000Y-17522429D01*
X12781428Y-17536714D01*
X12752857Y-17536714D01*
X12724286Y-17522429D01*
X12710000Y-17508143D01*
X12695714Y-17479572D01*
X12681428Y-17422429D01*
X12681428Y-17351000D01*
X12695714Y-17293857D01*
X12710000Y-17265286D01*
X12724286Y-17251000D01*
X12752857Y-17236714D01*
X12981428Y-17536714D02*
X12981428Y-17336714D01*
X12981428Y-17365286D02*
X12995714Y-17351000D01*
X13024286Y-17336714D01*
X13067143Y-17336714D01*
X13095714Y-17351000D01*
X13110000Y-17379572D01*
X13110000Y-17536714D01*
X13110000Y-17379572D02*
X13124286Y-17351000D01*
X13152857Y-17336714D01*
X13195714Y-17336714D01*
X13224286Y-17351000D01*
X13238571Y-17379572D01*
X13238571Y-17536714D01*
X13381428Y-17536714D02*
X13381428Y-17336714D01*
X13381428Y-17365286D02*
X13395714Y-17351000D01*
X13424286Y-17336714D01*
X13467143Y-17336714D01*
X13495714Y-17351000D01*
X13510000Y-17379572D01*
X13510000Y-17536714D01*
X13510000Y-17379572D02*
X13524286Y-17351000D01*
X13552857Y-17336714D01*
X13595714Y-17336714D01*
X13624286Y-17351000D01*
X13638571Y-17379572D01*
X13638571Y-17536714D01*
X14224286Y-17222429D02*
X13967143Y-17608143D01*
X14610000Y-17236714D02*
X14638571Y-17236714D01*
X14667143Y-17251000D01*
X14681428Y-17265286D01*
X14695714Y-17293857D01*
X14710000Y-17351000D01*
X14710000Y-17422429D01*
X14695714Y-17479572D01*
X14681428Y-17508143D01*
X14667143Y-17522429D01*
X14638571Y-17536714D01*
X14610000Y-17536714D01*
X14581428Y-17522429D01*
X14567143Y-17508143D01*
X14552857Y-17479572D01*
X14538571Y-17422429D01*
X14538571Y-17351000D01*
X14552857Y-17293857D01*
X14567143Y-17265286D01*
X14581428Y-17251000D01*
X14610000Y-17236714D01*
X14838571Y-17508143D02*
X14852857Y-17522429D01*
X14838571Y-17536714D01*
X14824286Y-17522429D01*
X14838571Y-17508143D01*
X14838571Y-17536714D01*
X15038571Y-17236714D02*
X15067143Y-17236714D01*
X15095714Y-17251000D01*
X15110000Y-17265286D01*
X15124286Y-17293857D01*
X15138571Y-17351000D01*
X15138571Y-17422429D01*
X15124286Y-17479572D01*
X15110000Y-17508143D01*
X15095714Y-17522429D01*
X15067143Y-17536714D01*
X15038571Y-17536714D01*
X15010000Y-17522429D01*
X14995714Y-17508143D01*
X14981428Y-17479572D01*
X14967143Y-17422429D01*
X14967143Y-17351000D01*
X14981428Y-17293857D01*
X14995714Y-17265286D01*
X15010000Y-17251000D01*
X15038571Y-17236714D01*
X15410000Y-17236714D02*
X15267143Y-17236714D01*
X15252857Y-17379572D01*
X15267143Y-17365286D01*
X15295714Y-17351000D01*
X15367143Y-17351000D01*
X15395714Y-17365286D01*
X15410000Y-17379572D01*
X15424286Y-17408143D01*
X15424286Y-17479572D01*
X15410000Y-17508143D01*
X15395714Y-17522429D01*
X15367143Y-17536714D01*
X15295714Y-17536714D01*
X15267143Y-17522429D01*
X15252857Y-17508143D01*
X15567143Y-17536714D02*
X15624286Y-17536714D01*
X15652857Y-17522429D01*
X15667143Y-17508143D01*
X15695714Y-17465286D01*
X15710000Y-17408143D01*
X15710000Y-17293857D01*
X15695714Y-17265286D01*
X15681428Y-17251000D01*
X15652857Y-17236714D01*
X15595714Y-17236714D01*
X15567143Y-17251000D01*
X15552857Y-17265286D01*
X15538571Y-17293857D01*
X15538571Y-17365286D01*
X15552857Y-17393857D01*
X15567143Y-17408143D01*
X15595714Y-17422429D01*
X15652857Y-17422429D01*
X15681428Y-17408143D01*
X15695714Y-17393857D01*
X15710000Y-17365286D01*
X15824286Y-17236714D02*
X15824286Y-17293857D01*
X15938571Y-17236714D02*
X15938571Y-17293857D01*
X16381428Y-17651000D02*
X16367143Y-17636714D01*
X16338571Y-17593857D01*
X16324286Y-17565286D01*
X16310000Y-17522429D01*
X16295714Y-17451000D01*
X16295714Y-17393857D01*
X16310000Y-17322429D01*
X16324286Y-17279572D01*
X16338571Y-17251000D01*
X16367143Y-17208143D01*
X16381428Y-17193857D01*
X16652857Y-17536714D02*
X16481428Y-17536714D01*
X16567143Y-17536714D02*
X16567143Y-17236714D01*
X16538571Y-17279572D01*
X16510000Y-17308143D01*
X16481428Y-17322429D01*
X16838571Y-17236714D02*
X16867143Y-17236714D01*
X16895714Y-17251000D01*
X16910000Y-17265286D01*
X16924286Y-17293857D01*
X16938571Y-17351000D01*
X16938571Y-17422429D01*
X16924286Y-17479572D01*
X16910000Y-17508143D01*
X16895714Y-17522429D01*
X16867143Y-17536714D01*
X16838571Y-17536714D01*
X16810000Y-17522429D01*
X16795714Y-17508143D01*
X16781428Y-17479572D01*
X16767143Y-17422429D01*
X16767143Y-17351000D01*
X16781428Y-17293857D01*
X16795714Y-17265286D01*
X16810000Y-17251000D01*
X16838571Y-17236714D01*
X17295714Y-17536714D02*
X17295714Y-17236714D01*
X17424286Y-17536714D02*
X17424286Y-17379572D01*
X17410000Y-17351000D01*
X17381428Y-17336714D01*
X17338571Y-17336714D01*
X17310000Y-17351000D01*
X17295714Y-17365286D01*
X17610000Y-17536714D02*
X17581428Y-17522429D01*
X17567143Y-17508143D01*
X17552857Y-17479572D01*
X17552857Y-17393857D01*
X17567143Y-17365286D01*
X17581428Y-17351000D01*
X17610000Y-17336714D01*
X17652857Y-17336714D01*
X17681428Y-17351000D01*
X17695714Y-17365286D01*
X17710000Y-17393857D01*
X17710000Y-17479572D01*
X17695714Y-17508143D01*
X17681428Y-17522429D01*
X17652857Y-17536714D01*
X17610000Y-17536714D01*
X17881428Y-17536714D02*
X17852857Y-17522429D01*
X17838571Y-17493857D01*
X17838571Y-17236714D01*
X18110000Y-17522429D02*
X18081428Y-17536714D01*
X18024286Y-17536714D01*
X17995714Y-17522429D01*
X17981428Y-17493857D01*
X17981428Y-17379572D01*
X17995714Y-17351000D01*
X18024286Y-17336714D01*
X18081428Y-17336714D01*
X18110000Y-17351000D01*
X18124286Y-17379572D01*
X18124286Y-17408143D01*
X17981428Y-17436714D01*
X18238571Y-17522429D02*
X18267143Y-17536714D01*
X18324286Y-17536714D01*
X18352857Y-17522429D01*
X18367143Y-17493857D01*
X18367143Y-17479572D01*
X18352857Y-17451000D01*
X18324286Y-17436714D01*
X18281428Y-17436714D01*
X18252857Y-17422429D01*
X18238571Y-17393857D01*
X18238571Y-17379572D01*
X18252857Y-17351000D01*
X18281428Y-17336714D01*
X18324286Y-17336714D01*
X18352857Y-17351000D01*
X18467143Y-17651000D02*
X18481428Y-17636714D01*
X18510000Y-17593857D01*
X18524286Y-17565286D01*
X18538571Y-17522429D01*
X18552857Y-17451000D01*
X18552857Y-17393857D01*
X18538571Y-17322429D01*
X18524286Y-17279572D01*
X18510000Y-17251000D01*
X18481428Y-17208143D01*
X18467143Y-17193857D01*
X11480000Y-17582000D02*
X11480000Y-18012000D01*
X11265000Y-17797000D02*
X11695000Y-17797000D01*
X12110000Y-17732714D02*
X12110000Y-17932714D01*
X12038571Y-17618429D02*
X11967143Y-17832714D01*
X12152857Y-17832714D01*
X12267143Y-17904143D02*
X12281428Y-17918429D01*
X12267143Y-17932714D01*
X12252857Y-17918429D01*
X12267143Y-17904143D01*
X12267143Y-17932714D01*
X12381428Y-17632714D02*
X12567143Y-17632714D01*
X12467143Y-17747000D01*
X12510000Y-17747000D01*
X12538571Y-17761286D01*
X12552857Y-17775572D01*
X12567143Y-17804143D01*
X12567143Y-17875572D01*
X12552857Y-17904143D01*
X12538571Y-17918429D01*
X12510000Y-17932714D01*
X12424286Y-17932714D01*
X12395714Y-17918429D01*
X12381428Y-17904143D01*
X12752857Y-17632714D02*
X12781428Y-17632714D01*
X12810000Y-17647000D01*
X12824286Y-17661286D01*
X12838571Y-17689857D01*
X12852857Y-17747000D01*
X12852857Y-17818429D01*
X12838571Y-17875572D01*
X12824286Y-17904143D01*
X12810000Y-17918429D01*
X12781428Y-17932714D01*
X12752857Y-17932714D01*
X12724286Y-17918429D01*
X12710000Y-17904143D01*
X12695714Y-17875572D01*
X12681428Y-17818429D01*
X12681428Y-17747000D01*
X12695714Y-17689857D01*
X12710000Y-17661286D01*
X12724286Y-17647000D01*
X12752857Y-17632714D01*
X12981428Y-17932714D02*
X12981428Y-17732714D01*
X12981428Y-17761286D02*
X12995714Y-17747000D01*
X13024286Y-17732714D01*
X13067143Y-17732714D01*
X13095714Y-17747000D01*
X13110000Y-17775572D01*
X13110000Y-17932714D01*
X13110000Y-17775572D02*
X13124286Y-17747000D01*
X13152857Y-17732714D01*
X13195714Y-17732714D01*
X13224286Y-17747000D01*
X13238571Y-17775572D01*
X13238571Y-17932714D01*
X13381428Y-17932714D02*
X13381428Y-17732714D01*
X13381428Y-17761286D02*
X13395714Y-17747000D01*
X13424286Y-17732714D01*
X13467143Y-17732714D01*
X13495714Y-17747000D01*
X13510000Y-17775572D01*
X13510000Y-17932714D01*
X13510000Y-17775572D02*
X13524286Y-17747000D01*
X13552857Y-17732714D01*
X13595714Y-17732714D01*
X13624286Y-17747000D01*
X13638571Y-17775572D01*
X13638571Y-17932714D01*
X14224286Y-17618429D02*
X13967143Y-18004143D01*
X14610000Y-17632714D02*
X14638571Y-17632714D01*
X14667143Y-17647000D01*
X14681428Y-17661286D01*
X14695714Y-17689857D01*
X14710000Y-17747000D01*
X14710000Y-17818429D01*
X14695714Y-17875572D01*
X14681428Y-17904143D01*
X14667143Y-17918429D01*
X14638571Y-17932714D01*
X14610000Y-17932714D01*
X14581428Y-17918429D01*
X14567143Y-17904143D01*
X14552857Y-17875572D01*
X14538571Y-17818429D01*
X14538571Y-17747000D01*
X14552857Y-17689857D01*
X14567143Y-17661286D01*
X14581428Y-17647000D01*
X14610000Y-17632714D01*
X14838571Y-17904143D02*
X14852857Y-17918429D01*
X14838571Y-17932714D01*
X14824286Y-17918429D01*
X14838571Y-17904143D01*
X14838571Y-17932714D01*
X15138571Y-17932714D02*
X14967143Y-17932714D01*
X15052857Y-17932714D02*
X15052857Y-17632714D01*
X15024286Y-17675572D01*
X14995714Y-17704143D01*
X14967143Y-17718429D01*
X15395714Y-17632714D02*
X15338571Y-17632714D01*
X15310000Y-17647000D01*
X15295714Y-17661286D01*
X15267143Y-17704143D01*
X15252857Y-17761286D01*
X15252857Y-17875572D01*
X15267143Y-17904143D01*
X15281428Y-17918429D01*
X15310000Y-17932714D01*
X15367143Y-17932714D01*
X15395714Y-17918429D01*
X15410000Y-17904143D01*
X15424286Y-17875572D01*
X15424286Y-17804143D01*
X15410000Y-17775572D01*
X15395714Y-17761286D01*
X15367143Y-17747000D01*
X15310000Y-17747000D01*
X15281428Y-17761286D01*
X15267143Y-17775572D01*
X15252857Y-17804143D01*
X15567143Y-17932714D02*
X15624286Y-17932714D01*
X15652857Y-17918429D01*
X15667143Y-17904143D01*
X15695714Y-17861286D01*
X15710000Y-17804143D01*
X15710000Y-17689857D01*
X15695714Y-17661286D01*
X15681428Y-17647000D01*
X15652857Y-17632714D01*
X15595714Y-17632714D01*
X15567143Y-17647000D01*
X15552857Y-17661286D01*
X15538571Y-17689857D01*
X15538571Y-17761286D01*
X15552857Y-17789857D01*
X15567143Y-17804143D01*
X15595714Y-17818429D01*
X15652857Y-17818429D01*
X15681428Y-17804143D01*
X15695714Y-17789857D01*
X15710000Y-17761286D01*
X15824286Y-17632714D02*
X15824286Y-17689857D01*
X15938571Y-17632714D02*
X15938571Y-17689857D01*
X16381428Y-18047000D02*
X16367143Y-18032714D01*
X16338571Y-17989857D01*
X16324286Y-17961286D01*
X16310000Y-17918429D01*
X16295714Y-17847000D01*
X16295714Y-17789857D01*
X16310000Y-17718429D01*
X16324286Y-17675572D01*
X16338571Y-17647000D01*
X16367143Y-17604143D01*
X16381428Y-17589857D01*
X16624286Y-17732714D02*
X16624286Y-17932714D01*
X16552857Y-17618429D02*
X16481428Y-17832714D01*
X16667143Y-17832714D01*
X17010000Y-17932714D02*
X17010000Y-17632714D01*
X17138571Y-17932714D02*
X17138571Y-17775572D01*
X17124286Y-17747000D01*
X17095714Y-17732714D01*
X17052857Y-17732714D01*
X17024286Y-17747000D01*
X17010000Y-17761286D01*
X17324286Y-17932714D02*
X17295714Y-17918429D01*
X17281428Y-17904143D01*
X17267143Y-17875572D01*
X17267143Y-17789857D01*
X17281428Y-17761286D01*
X17295714Y-17747000D01*
X17324286Y-17732714D01*
X17367143Y-17732714D01*
X17395714Y-17747000D01*
X17410000Y-17761286D01*
X17424286Y-17789857D01*
X17424286Y-17875572D01*
X17410000Y-17904143D01*
X17395714Y-17918429D01*
X17367143Y-17932714D01*
X17324286Y-17932714D01*
X17595714Y-17932714D02*
X17567143Y-17918429D01*
X17552857Y-17889857D01*
X17552857Y-17632714D01*
X17824286Y-17918429D02*
X17795714Y-17932714D01*
X17738571Y-17932714D01*
X17710000Y-17918429D01*
X17695714Y-17889857D01*
X17695714Y-17775572D01*
X17710000Y-17747000D01*
X17738571Y-17732714D01*
X17795714Y-17732714D01*
X17824286Y-17747000D01*
X17838571Y-17775572D01*
X17838571Y-17804143D01*
X17695714Y-17832714D01*
X17952857Y-17918429D02*
X17981428Y-17932714D01*
X18038571Y-17932714D01*
X18067143Y-17918429D01*
X18081428Y-17889857D01*
X18081428Y-17875572D01*
X18067143Y-17847000D01*
X18038571Y-17832714D01*
X17995714Y-17832714D01*
X17967143Y-17818429D01*
X17952857Y-17789857D01*
X17952857Y-17775572D01*
X17967143Y-17747000D01*
X17995714Y-17732714D01*
X18038571Y-17732714D01*
X18067143Y-17747000D01*
X18181428Y-18047000D02*
X18195714Y-18032714D01*
X18224286Y-17989857D01*
X18238571Y-17961286D01*
X18252857Y-17918429D01*
X18267143Y-17847000D01*
X18267143Y-17789857D01*
X18252857Y-17718429D01*
X18238571Y-17675572D01*
X18224286Y-17647000D01*
X18195714Y-17604143D01*
X18181428Y-17589857D01*
M02*
