ISO-10303-21;
HEADER;
FILE_DESCRIPTION(('KiCad electronic assembly'),'2;1');
FILE_NAME('shims.step','2020-10-23T13:50:17',('An Author'),('A Company')
  ,'Open CASCADE STEP processor 6.9','KiCad to STEP converter','Unknown'
  );
FILE_SCHEMA(('AUTOMOTIVE_DESIGN { 1 0 10303 214 1 1 1 1 }'));
ENDSEC;
DATA;
#1 = APPLICATION_PROTOCOL_DEFINITION('international standard',
  'automotive_design',2000,#2);
#2 = APPLICATION_CONTEXT(
  'core data for automotive mechanical design processes');
#3 = SHAPE_DEFINITION_REPRESENTATION(#4,#10);
#4 = PRODUCT_DEFINITION_SHAPE('','',#5);
#5 = PRODUCT_DEFINITION('design','',#6,#9);
#6 = PRODUCT_DEFINITION_FORMATION('','',#7);
#7 = PRODUCT('Open CASCADE STEP translator 6.9 1',
  'Open CASCADE STEP translator 6.9 1','',(#8));
#8 = PRODUCT_CONTEXT('',#2,'mechanical');
#9 = PRODUCT_DEFINITION_CONTEXT('part definition',#2,'design');
#10 = SHAPE_REPRESENTATION('',(#11,#15),#19);
#11 = AXIS2_PLACEMENT_3D('',#12,#13,#14);
#12 = CARTESIAN_POINT('',(0.E+000,0.E+000,0.E+000));
#13 = DIRECTION('',(0.E+000,0.E+000,1.));
#14 = DIRECTION('',(1.,0.E+000,-0.E+000));
#15 = AXIS2_PLACEMENT_3D('',#16,#17,#18);
#16 = CARTESIAN_POINT('',(0.E+000,0.E+000,0.E+000));
#17 = DIRECTION('',(0.E+000,0.E+000,1.));
#18 = DIRECTION('',(1.,0.E+000,-0.E+000));
#19 = ( GEOMETRIC_REPRESENTATION_CONTEXT(3) 
GLOBAL_UNCERTAINTY_ASSIGNED_CONTEXT((#23)) GLOBAL_UNIT_ASSIGNED_CONTEXT(
(#20,#21,#22)) REPRESENTATION_CONTEXT('Context #1',
  '3D Context with UNIT and UNCERTAINTY') );
#20 = ( LENGTH_UNIT() NAMED_UNIT(*) SI_UNIT(.MILLI.,.METRE.) );
#21 = ( NAMED_UNIT(*) PLANE_ANGLE_UNIT() SI_UNIT($,.RADIAN.) );
#22 = ( NAMED_UNIT(*) SI_UNIT($,.STERADIAN.) SOLID_ANGLE_UNIT() );
#23 = UNCERTAINTY_MEASURE_WITH_UNIT(LENGTH_MEASURE(1.E-006),#20,
  'distance_accuracy_value','confusion accuracy');
#24 = PRODUCT_RELATED_PRODUCT_CATEGORY('part',$,(#7));
#25 = ADVANCED_BREP_SHAPE_REPRESENTATION('',(#11,#26),#522);
#26 = MANIFOLD_SOLID_BREP('',#27);
#27 = CLOSED_SHELL('',(#28,#158,#234,#310,#386,#457,#504,#513));
#28 = ADVANCED_FACE('',(#29),#43,.F.);
#29 = FACE_BOUND('',#30,.T.);
#30 = EDGE_LOOP('',(#31,#66,#99,#127));
#31 = ORIENTED_EDGE('',*,*,#32,.T.);
#32 = EDGE_CURVE('',#33,#35,#37,.T.);
#33 = VERTEX_POINT('',#34);
#34 = CARTESIAN_POINT('',(0.E+000,7.,0.E+000));
#35 = VERTEX_POINT('',#36);
#36 = CARTESIAN_POINT('',(0.E+000,7.,1.6));
#37 = SURFACE_CURVE('',#38,(#42,#54),.PCURVE_S1.);
#38 = LINE('',#39,#40);
#39 = CARTESIAN_POINT('',(0.E+000,7.,0.E+000));
#40 = VECTOR('',#41,1.);
#41 = DIRECTION('',(0.E+000,0.E+000,1.));
#42 = PCURVE('',#43,#48);
#43 = CYLINDRICAL_SURFACE('',#44,7.);
#44 = AXIS2_PLACEMENT_3D('',#45,#46,#47);
#45 = CARTESIAN_POINT('',(0.E+000,-0.E+000,0.E+000));
#46 = DIRECTION('',(-0.E+000,-0.E+000,-1.));
#47 = DIRECTION('',(1.,0.E+000,-0.E+000));
#48 = DEFINITIONAL_REPRESENTATION('',(#49),#53);
#49 = LINE('',#50,#51);
#50 = CARTESIAN_POINT('',(-1.570796326795,0.E+000));
#51 = VECTOR('',#52,1.);
#52 = DIRECTION('',(-0.E+000,-1.));
#53 = ( GEOMETRIC_REPRESENTATION_CONTEXT(2) 
PARAMETRIC_REPRESENTATION_CONTEXT() REPRESENTATION_CONTEXT('2D SPACE',''
  ) );
#54 = PCURVE('',#55,#60);
#55 = PLANE('',#56);
#56 = AXIS2_PLACEMENT_3D('',#57,#58,#59);
#57 = CARTESIAN_POINT('',(0.E+000,10.,0.E+000));
#58 = DIRECTION('',(1.,0.E+000,-0.E+000));
#59 = DIRECTION('',(0.E+000,-1.,0.E+000));
#60 = DEFINITIONAL_REPRESENTATION('',(#61),#65);
#61 = LINE('',#62,#63);
#62 = CARTESIAN_POINT('',(3.,0.E+000));
#63 = VECTOR('',#64,1.);
#64 = DIRECTION('',(0.E+000,-1.));
#65 = ( GEOMETRIC_REPRESENTATION_CONTEXT(2) 
PARAMETRIC_REPRESENTATION_CONTEXT() REPRESENTATION_CONTEXT('2D SPACE',''
  ) );
#66 = ORIENTED_EDGE('',*,*,#67,.T.);
#67 = EDGE_CURVE('',#35,#68,#70,.T.);
#68 = VERTEX_POINT('',#69);
#69 = CARTESIAN_POINT('',(-1.285836671513E-015,-7.,1.6));
#70 = SURFACE_CURVE('',#71,(#76,#83),.PCURVE_S1.);
#71 = CIRCLE('',#72,7.);
#72 = AXIS2_PLACEMENT_3D('',#73,#74,#75);
#73 = CARTESIAN_POINT('',(0.E+000,0.E+000,1.6));
#74 = DIRECTION('',(0.E+000,0.E+000,1.));
#75 = DIRECTION('',(1.,0.E+000,-0.E+000));
#76 = PCURVE('',#43,#77);
#77 = DEFINITIONAL_REPRESENTATION('',(#78),#82);
#78 = LINE('',#79,#80);
#79 = CARTESIAN_POINT('',(-0.E+000,-1.6));
#80 = VECTOR('',#81,1.);
#81 = DIRECTION('',(-1.,0.E+000));
#82 = ( GEOMETRIC_REPRESENTATION_CONTEXT(2) 
PARAMETRIC_REPRESENTATION_CONTEXT() REPRESENTATION_CONTEXT('2D SPACE',''
  ) );
#83 = PCURVE('',#84,#89);
#84 = PLANE('',#85);
#85 = AXIS2_PLACEMENT_3D('',#86,#87,#88);
#86 = CARTESIAN_POINT('',(-5.744335665237,8.484092367285E-016,1.6));
#87 = DIRECTION('',(-0.E+000,-0.E+000,-1.));
#88 = DIRECTION('',(-1.,0.E+000,0.E+000));
#89 = DEFINITIONAL_REPRESENTATION('',(#90),#98);
#90 = ( BOUNDED_CURVE() B_SPLINE_CURVE(2,(#91,#92,#93,#94,#95,#96,#97),
.UNSPECIFIED.,.F.,.F.) B_SPLINE_CURVE_WITH_KNOTS((1,2,2,2,2,1),(
    -2.094395102393,0.E+000,2.094395102393,4.188790204786,6.28318530718,
8.377580409573),.UNSPECIFIED.) CURVE() GEOMETRIC_REPRESENTATION_ITEM() 
RATIONAL_B_SPLINE_CURVE((1.,0.5,1.,0.5,1.,0.5,1.)) REPRESENTATION_ITEM(
  '') );
#91 = CARTESIAN_POINT('',(-12.74433566523,-8.484092367285E-016));
#92 = CARTESIAN_POINT('',(-12.74433566523,12.124355652982));
#93 = CARTESIAN_POINT('',(-2.244335665237,6.062177826491));
#94 = CARTESIAN_POINT('',(8.255664334763,8.660396586228E-016));
#95 = CARTESIAN_POINT('',(-2.244335665237,-6.062177826491));
#96 = CARTESIAN_POINT('',(-12.74433566523,-12.12435565298));
#97 = CARTESIAN_POINT('',(-12.74433566523,-8.484092367285E-016));
#98 = ( GEOMETRIC_REPRESENTATION_CONTEXT(2) 
PARAMETRIC_REPRESENTATION_CONTEXT() REPRESENTATION_CONTEXT('2D SPACE',''
  ) );
#99 = ORIENTED_EDGE('',*,*,#100,.F.);
#100 = EDGE_CURVE('',#101,#68,#103,.T.);
#101 = VERTEX_POINT('',#102);
#102 = CARTESIAN_POINT('',(-1.285836671513E-015,-7.,0.E+000));
#103 = SURFACE_CURVE('',#104,(#108,#115),.PCURVE_S1.);
#104 = LINE('',#105,#106);
#105 = CARTESIAN_POINT('',(-1.285836671513E-015,-7.,0.E+000));
#106 = VECTOR('',#107,1.);
#107 = DIRECTION('',(0.E+000,0.E+000,1.));
#108 = PCURVE('',#43,#109);
#109 = DEFINITIONAL_REPRESENTATION('',(#110),#114);
#110 = LINE('',#111,#112);
#111 = CARTESIAN_POINT('',(-4.712388980385,0.E+000));
#112 = VECTOR('',#113,1.);
#113 = DIRECTION('',(-0.E+000,-1.));
#114 = ( GEOMETRIC_REPRESENTATION_CONTEXT(2) 
PARAMETRIC_REPRESENTATION_CONTEXT() REPRESENTATION_CONTEXT('2D SPACE',''
  ) );
#115 = PCURVE('',#116,#121);
#116 = PLANE('',#117);
#117 = AXIS2_PLACEMENT_3D('',#118,#119,#120);
#118 = CARTESIAN_POINT('',(-1.285836671513E-015,-7.,0.E+000));
#119 = DIRECTION('',(1.,4.286122238378E-016,-0.E+000));
#120 = DIRECTION('',(4.286122238378E-016,-1.,0.E+000));
#121 = DEFINITIONAL_REPRESENTATION('',(#122),#126);
#122 = LINE('',#123,#124);
#123 = CARTESIAN_POINT('',(0.E+000,0.E+000));
#124 = VECTOR('',#125,1.);
#125 = DIRECTION('',(0.E+000,-1.));
#126 = ( GEOMETRIC_REPRESENTATION_CONTEXT(2) 
PARAMETRIC_REPRESENTATION_CONTEXT() REPRESENTATION_CONTEXT('2D SPACE',''
  ) );
#127 = ORIENTED_EDGE('',*,*,#128,.F.);
#128 = EDGE_CURVE('',#33,#101,#129,.T.);
#129 = SURFACE_CURVE('',#130,(#135,#142),.PCURVE_S1.);
#130 = CIRCLE('',#131,7.);
#131 = AXIS2_PLACEMENT_3D('',#132,#133,#134);
#132 = CARTESIAN_POINT('',(0.E+000,-0.E+000,0.E+000));
#133 = DIRECTION('',(0.E+000,0.E+000,1.));
#134 = DIRECTION('',(1.,0.E+000,-0.E+000));
#135 = PCURVE('',#43,#136);
#136 = DEFINITIONAL_REPRESENTATION('',(#137),#141);
#137 = LINE('',#138,#139);
#138 = CARTESIAN_POINT('',(-0.E+000,0.E+000));
#139 = VECTOR('',#140,1.);
#140 = DIRECTION('',(-1.,0.E+000));
#141 = ( GEOMETRIC_REPRESENTATION_CONTEXT(2) 
PARAMETRIC_REPRESENTATION_CONTEXT() REPRESENTATION_CONTEXT('2D SPACE',''
  ) );
#142 = PCURVE('',#143,#148);
#143 = PLANE('',#144);
#144 = AXIS2_PLACEMENT_3D('',#145,#146,#147);
#145 = CARTESIAN_POINT('',(-5.744335665237,8.484092367285E-016,0.E+000)
  );
#146 = DIRECTION('',(-0.E+000,-0.E+000,-1.));
#147 = DIRECTION('',(-1.,0.E+000,0.E+000));
#148 = DEFINITIONAL_REPRESENTATION('',(#149),#157);
#149 = ( BOUNDED_CURVE() B_SPLINE_CURVE(2,(#150,#151,#152,#153,#154,#155
,#156),.UNSPECIFIED.,.F.,.F.) B_SPLINE_CURVE_WITH_KNOTS((1,2,2,2,2,1),(
    -2.094395102393,0.E+000,2.094395102393,4.188790204786,6.28318530718,
8.377580409573),.UNSPECIFIED.) CURVE() GEOMETRIC_REPRESENTATION_ITEM() 
RATIONAL_B_SPLINE_CURVE((1.,0.5,1.,0.5,1.,0.5,1.)) REPRESENTATION_ITEM(
  '') );
#150 = CARTESIAN_POINT('',(-12.74433566523,-8.484092367285E-016));
#151 = CARTESIAN_POINT('',(-12.74433566523,12.124355652982));
#152 = CARTESIAN_POINT('',(-2.244335665237,6.062177826491));
#153 = CARTESIAN_POINT('',(8.255664334763,8.660396586228E-016));
#154 = CARTESIAN_POINT('',(-2.244335665237,-6.062177826491));
#155 = CARTESIAN_POINT('',(-12.74433566523,-12.12435565298));
#156 = CARTESIAN_POINT('',(-12.74433566523,-8.484092367285E-016));
#157 = ( GEOMETRIC_REPRESENTATION_CONTEXT(2) 
PARAMETRIC_REPRESENTATION_CONTEXT() REPRESENTATION_CONTEXT('2D SPACE',''
  ) );
#158 = ADVANCED_FACE('',(#159),#116,.T.);
#159 = FACE_BOUND('',#160,.T.);
#160 = EDGE_LOOP('',(#161,#162,#185,#213));
#161 = ORIENTED_EDGE('',*,*,#100,.T.);
#162 = ORIENTED_EDGE('',*,*,#163,.T.);
#163 = EDGE_CURVE('',#68,#164,#166,.T.);
#164 = VERTEX_POINT('',#165);
#165 = CARTESIAN_POINT('',(0.E+000,-10.,1.6));
#166 = SURFACE_CURVE('',#167,(#171,#178),.PCURVE_S1.);
#167 = LINE('',#168,#169);
#168 = CARTESIAN_POINT('',(-1.285836671513E-015,-7.,1.6));
#169 = VECTOR('',#170,1.);
#170 = DIRECTION('',(4.286122238378E-016,-1.,0.E+000));
#171 = PCURVE('',#116,#172);
#172 = DEFINITIONAL_REPRESENTATION('',(#173),#177);
#173 = LINE('',#174,#175);
#174 = CARTESIAN_POINT('',(0.E+000,-1.6));
#175 = VECTOR('',#176,1.);
#176 = DIRECTION('',(1.,0.E+000));
#177 = ( GEOMETRIC_REPRESENTATION_CONTEXT(2) 
PARAMETRIC_REPRESENTATION_CONTEXT() REPRESENTATION_CONTEXT('2D SPACE',''
  ) );
#178 = PCURVE('',#84,#179);
#179 = DEFINITIONAL_REPRESENTATION('',(#180),#184);
#180 = LINE('',#181,#182);
#181 = CARTESIAN_POINT('',(-5.744335665237,-7.));
#182 = VECTOR('',#183,1.);
#183 = DIRECTION('',(-4.286122238378E-016,-1.));
#184 = ( GEOMETRIC_REPRESENTATION_CONTEXT(2) 
PARAMETRIC_REPRESENTATION_CONTEXT() REPRESENTATION_CONTEXT('2D SPACE',''
  ) );
#185 = ORIENTED_EDGE('',*,*,#186,.F.);
#186 = EDGE_CURVE('',#187,#164,#189,.T.);
#187 = VERTEX_POINT('',#188);
#188 = CARTESIAN_POINT('',(0.E+000,-10.,0.E+000));
#189 = SURFACE_CURVE('',#190,(#194,#201),.PCURVE_S1.);
#190 = LINE('',#191,#192);
#191 = CARTESIAN_POINT('',(0.E+000,-10.,0.E+000));
#192 = VECTOR('',#193,1.);
#193 = DIRECTION('',(0.E+000,0.E+000,1.));
#194 = PCURVE('',#116,#195);
#195 = DEFINITIONAL_REPRESENTATION('',(#196),#200);
#196 = LINE('',#197,#198);
#197 = CARTESIAN_POINT('',(3.,0.E+000));
#198 = VECTOR('',#199,1.);
#199 = DIRECTION('',(0.E+000,-1.));
#200 = ( GEOMETRIC_REPRESENTATION_CONTEXT(2) 
PARAMETRIC_REPRESENTATION_CONTEXT() REPRESENTATION_CONTEXT('2D SPACE',''
  ) );
#201 = PCURVE('',#202,#207);
#202 = PLANE('',#203);
#203 = AXIS2_PLACEMENT_3D('',#204,#205,#206);
#204 = CARTESIAN_POINT('',(0.E+000,-10.,0.E+000));
#205 = DIRECTION('',(0.E+000,-1.,0.E+000));
#206 = DIRECTION('',(-1.,0.E+000,0.E+000));
#207 = DEFINITIONAL_REPRESENTATION('',(#208),#212);
#208 = LINE('',#209,#210);
#209 = CARTESIAN_POINT('',(0.E+000,-0.E+000));
#210 = VECTOR('',#211,1.);
#211 = DIRECTION('',(0.E+000,-1.));
#212 = ( GEOMETRIC_REPRESENTATION_CONTEXT(2) 
PARAMETRIC_REPRESENTATION_CONTEXT() REPRESENTATION_CONTEXT('2D SPACE',''
  ) );
#213 = ORIENTED_EDGE('',*,*,#214,.F.);
#214 = EDGE_CURVE('',#101,#187,#215,.T.);
#215 = SURFACE_CURVE('',#216,(#220,#227),.PCURVE_S1.);
#216 = LINE('',#217,#218);
#217 = CARTESIAN_POINT('',(-1.285836671513E-015,-7.,0.E+000));
#218 = VECTOR('',#219,1.);
#219 = DIRECTION('',(4.286122238378E-016,-1.,0.E+000));
#220 = PCURVE('',#116,#221);
#221 = DEFINITIONAL_REPRESENTATION('',(#222),#226);
#222 = LINE('',#223,#224);
#223 = CARTESIAN_POINT('',(0.E+000,0.E+000));
#224 = VECTOR('',#225,1.);
#225 = DIRECTION('',(1.,0.E+000));
#226 = ( GEOMETRIC_REPRESENTATION_CONTEXT(2) 
PARAMETRIC_REPRESENTATION_CONTEXT() REPRESENTATION_CONTEXT('2D SPACE',''
  ) );
#227 = PCURVE('',#143,#228);
#228 = DEFINITIONAL_REPRESENTATION('',(#229),#233);
#229 = LINE('',#230,#231);
#230 = CARTESIAN_POINT('',(-5.744335665237,-7.));
#231 = VECTOR('',#232,1.);
#232 = DIRECTION('',(-4.286122238378E-016,-1.));
#233 = ( GEOMETRIC_REPRESENTATION_CONTEXT(2) 
PARAMETRIC_REPRESENTATION_CONTEXT() REPRESENTATION_CONTEXT('2D SPACE',''
  ) );
#234 = ADVANCED_FACE('',(#235),#202,.T.);
#235 = FACE_BOUND('',#236,.T.);
#236 = EDGE_LOOP('',(#237,#238,#261,#289));
#237 = ORIENTED_EDGE('',*,*,#186,.T.);
#238 = ORIENTED_EDGE('',*,*,#239,.T.);
#239 = EDGE_CURVE('',#164,#240,#242,.T.);
#240 = VERTEX_POINT('',#241);
#241 = CARTESIAN_POINT('',(-10.,-10.,1.6));
#242 = SURFACE_CURVE('',#243,(#247,#254),.PCURVE_S1.);
#243 = LINE('',#244,#245);
#244 = CARTESIAN_POINT('',(0.E+000,-10.,1.6));
#245 = VECTOR('',#246,1.);
#246 = DIRECTION('',(-1.,0.E+000,0.E+000));
#247 = PCURVE('',#202,#248);
#248 = DEFINITIONAL_REPRESENTATION('',(#249),#253);
#249 = LINE('',#250,#251);
#250 = CARTESIAN_POINT('',(0.E+000,-1.6));
#251 = VECTOR('',#252,1.);
#252 = DIRECTION('',(1.,0.E+000));
#253 = ( GEOMETRIC_REPRESENTATION_CONTEXT(2) 
PARAMETRIC_REPRESENTATION_CONTEXT() REPRESENTATION_CONTEXT('2D SPACE',''
  ) );
#254 = PCURVE('',#84,#255);
#255 = DEFINITIONAL_REPRESENTATION('',(#256),#260);
#256 = LINE('',#257,#258);
#257 = CARTESIAN_POINT('',(-5.744335665237,-10.));
#258 = VECTOR('',#259,1.);
#259 = DIRECTION('',(1.,0.E+000));
#260 = ( GEOMETRIC_REPRESENTATION_CONTEXT(2) 
PARAMETRIC_REPRESENTATION_CONTEXT() REPRESENTATION_CONTEXT('2D SPACE',''
  ) );
#261 = ORIENTED_EDGE('',*,*,#262,.F.);
#262 = EDGE_CURVE('',#263,#240,#265,.T.);
#263 = VERTEX_POINT('',#264);
#264 = CARTESIAN_POINT('',(-10.,-10.,0.E+000));
#265 = SURFACE_CURVE('',#266,(#270,#277),.PCURVE_S1.);
#266 = LINE('',#267,#268);
#267 = CARTESIAN_POINT('',(-10.,-10.,0.E+000));
#268 = VECTOR('',#269,1.);
#269 = DIRECTION('',(0.E+000,0.E+000,1.));
#270 = PCURVE('',#202,#271);
#271 = DEFINITIONAL_REPRESENTATION('',(#272),#276);
#272 = LINE('',#273,#274);
#273 = CARTESIAN_POINT('',(10.,0.E+000));
#274 = VECTOR('',#275,1.);
#275 = DIRECTION('',(0.E+000,-1.));
#276 = ( GEOMETRIC_REPRESENTATION_CONTEXT(2) 
PARAMETRIC_REPRESENTATION_CONTEXT() REPRESENTATION_CONTEXT('2D SPACE',''
  ) );
#277 = PCURVE('',#278,#283);
#278 = PLANE('',#279);
#279 = AXIS2_PLACEMENT_3D('',#280,#281,#282);
#280 = CARTESIAN_POINT('',(-10.,-10.,0.E+000));
#281 = DIRECTION('',(-1.,0.E+000,0.E+000));
#282 = DIRECTION('',(0.E+000,1.,0.E+000));
#283 = DEFINITIONAL_REPRESENTATION('',(#284),#288);
#284 = LINE('',#285,#286);
#285 = CARTESIAN_POINT('',(0.E+000,0.E+000));
#286 = VECTOR('',#287,1.);
#287 = DIRECTION('',(0.E+000,-1.));
#288 = ( GEOMETRIC_REPRESENTATION_CONTEXT(2) 
PARAMETRIC_REPRESENTATION_CONTEXT() REPRESENTATION_CONTEXT('2D SPACE',''
  ) );
#289 = ORIENTED_EDGE('',*,*,#290,.F.);
#290 = EDGE_CURVE('',#187,#263,#291,.T.);
#291 = SURFACE_CURVE('',#292,(#296,#303),.PCURVE_S1.);
#292 = LINE('',#293,#294);
#293 = CARTESIAN_POINT('',(0.E+000,-10.,0.E+000));
#294 = VECTOR('',#295,1.);
#295 = DIRECTION('',(-1.,0.E+000,0.E+000));
#296 = PCURVE('',#202,#297);
#297 = DEFINITIONAL_REPRESENTATION('',(#298),#302);
#298 = LINE('',#299,#300);
#299 = CARTESIAN_POINT('',(0.E+000,-0.E+000));
#300 = VECTOR('',#301,1.);
#301 = DIRECTION('',(1.,0.E+000));
#302 = ( GEOMETRIC_REPRESENTATION_CONTEXT(2) 
PARAMETRIC_REPRESENTATION_CONTEXT() REPRESENTATION_CONTEXT('2D SPACE',''
  ) );
#303 = PCURVE('',#143,#304);
#304 = DEFINITIONAL_REPRESENTATION('',(#305),#309);
#305 = LINE('',#306,#307);
#306 = CARTESIAN_POINT('',(-5.744335665237,-10.));
#307 = VECTOR('',#308,1.);
#308 = DIRECTION('',(1.,0.E+000));
#309 = ( GEOMETRIC_REPRESENTATION_CONTEXT(2) 
PARAMETRIC_REPRESENTATION_CONTEXT() REPRESENTATION_CONTEXT('2D SPACE',''
  ) );
#310 = ADVANCED_FACE('',(#311),#278,.T.);
#311 = FACE_BOUND('',#312,.T.);
#312 = EDGE_LOOP('',(#313,#314,#337,#365));
#313 = ORIENTED_EDGE('',*,*,#262,.T.);
#314 = ORIENTED_EDGE('',*,*,#315,.T.);
#315 = EDGE_CURVE('',#240,#316,#318,.T.);
#316 = VERTEX_POINT('',#317);
#317 = CARTESIAN_POINT('',(-10.,10.,1.6));
#318 = SURFACE_CURVE('',#319,(#323,#330),.PCURVE_S1.);
#319 = LINE('',#320,#321);
#320 = CARTESIAN_POINT('',(-10.,-10.,1.6));
#321 = VECTOR('',#322,1.);
#322 = DIRECTION('',(0.E+000,1.,0.E+000));
#323 = PCURVE('',#278,#324);
#324 = DEFINITIONAL_REPRESENTATION('',(#325),#329);
#325 = LINE('',#326,#327);
#326 = CARTESIAN_POINT('',(0.E+000,-1.6));
#327 = VECTOR('',#328,1.);
#328 = DIRECTION('',(1.,0.E+000));
#329 = ( GEOMETRIC_REPRESENTATION_CONTEXT(2) 
PARAMETRIC_REPRESENTATION_CONTEXT() REPRESENTATION_CONTEXT('2D SPACE',''
  ) );
#330 = PCURVE('',#84,#331);
#331 = DEFINITIONAL_REPRESENTATION('',(#332),#336);
#332 = LINE('',#333,#334);
#333 = CARTESIAN_POINT('',(4.255664334763,-10.));
#334 = VECTOR('',#335,1.);
#335 = DIRECTION('',(0.E+000,1.));
#336 = ( GEOMETRIC_REPRESENTATION_CONTEXT(2) 
PARAMETRIC_REPRESENTATION_CONTEXT() REPRESENTATION_CONTEXT('2D SPACE',''
  ) );
#337 = ORIENTED_EDGE('',*,*,#338,.F.);
#338 = EDGE_CURVE('',#339,#316,#341,.T.);
#339 = VERTEX_POINT('',#340);
#340 = CARTESIAN_POINT('',(-10.,10.,0.E+000));
#341 = SURFACE_CURVE('',#342,(#346,#353),.PCURVE_S1.);
#342 = LINE('',#343,#344);
#343 = CARTESIAN_POINT('',(-10.,10.,0.E+000));
#344 = VECTOR('',#345,1.);
#345 = DIRECTION('',(0.E+000,0.E+000,1.));
#346 = PCURVE('',#278,#347);
#347 = DEFINITIONAL_REPRESENTATION('',(#348),#352);
#348 = LINE('',#349,#350);
#349 = CARTESIAN_POINT('',(20.,0.E+000));
#350 = VECTOR('',#351,1.);
#351 = DIRECTION('',(0.E+000,-1.));
#352 = ( GEOMETRIC_REPRESENTATION_CONTEXT(2) 
PARAMETRIC_REPRESENTATION_CONTEXT() REPRESENTATION_CONTEXT('2D SPACE',''
  ) );
#353 = PCURVE('',#354,#359);
#354 = PLANE('',#355);
#355 = AXIS2_PLACEMENT_3D('',#356,#357,#358);
#356 = CARTESIAN_POINT('',(-10.,10.,0.E+000));
#357 = DIRECTION('',(0.E+000,1.,0.E+000));
#358 = DIRECTION('',(1.,0.E+000,0.E+000));
#359 = DEFINITIONAL_REPRESENTATION('',(#360),#364);
#360 = LINE('',#361,#362);
#361 = CARTESIAN_POINT('',(0.E+000,0.E+000));
#362 = VECTOR('',#363,1.);
#363 = DIRECTION('',(0.E+000,-1.));
#364 = ( GEOMETRIC_REPRESENTATION_CONTEXT(2) 
PARAMETRIC_REPRESENTATION_CONTEXT() REPRESENTATION_CONTEXT('2D SPACE',''
  ) );
#365 = ORIENTED_EDGE('',*,*,#366,.F.);
#366 = EDGE_CURVE('',#263,#339,#367,.T.);
#367 = SURFACE_CURVE('',#368,(#372,#379),.PCURVE_S1.);
#368 = LINE('',#369,#370);
#369 = CARTESIAN_POINT('',(-10.,-10.,0.E+000));
#370 = VECTOR('',#371,1.);
#371 = DIRECTION('',(0.E+000,1.,0.E+000));
#372 = PCURVE('',#278,#373);
#373 = DEFINITIONAL_REPRESENTATION('',(#374),#378);
#374 = LINE('',#375,#376);
#375 = CARTESIAN_POINT('',(0.E+000,0.E+000));
#376 = VECTOR('',#377,1.);
#377 = DIRECTION('',(1.,0.E+000));
#378 = ( GEOMETRIC_REPRESENTATION_CONTEXT(2) 
PARAMETRIC_REPRESENTATION_CONTEXT() REPRESENTATION_CONTEXT('2D SPACE',''
  ) );
#379 = PCURVE('',#143,#380);
#380 = DEFINITIONAL_REPRESENTATION('',(#381),#385);
#381 = LINE('',#382,#383);
#382 = CARTESIAN_POINT('',(4.255664334763,-10.));
#383 = VECTOR('',#384,1.);
#384 = DIRECTION('',(0.E+000,1.));
#385 = ( GEOMETRIC_REPRESENTATION_CONTEXT(2) 
PARAMETRIC_REPRESENTATION_CONTEXT() REPRESENTATION_CONTEXT('2D SPACE',''
  ) );
#386 = ADVANCED_FACE('',(#387),#354,.T.);
#387 = FACE_BOUND('',#388,.T.);
#388 = EDGE_LOOP('',(#389,#390,#413,#436));
#389 = ORIENTED_EDGE('',*,*,#338,.T.);
#390 = ORIENTED_EDGE('',*,*,#391,.T.);
#391 = EDGE_CURVE('',#316,#392,#394,.T.);
#392 = VERTEX_POINT('',#393);
#393 = CARTESIAN_POINT('',(0.E+000,10.,1.6));
#394 = SURFACE_CURVE('',#395,(#399,#406),.PCURVE_S1.);
#395 = LINE('',#396,#397);
#396 = CARTESIAN_POINT('',(-10.,10.,1.6));
#397 = VECTOR('',#398,1.);
#398 = DIRECTION('',(1.,0.E+000,0.E+000));
#399 = PCURVE('',#354,#400);
#400 = DEFINITIONAL_REPRESENTATION('',(#401),#405);
#401 = LINE('',#402,#403);
#402 = CARTESIAN_POINT('',(0.E+000,-1.6));
#403 = VECTOR('',#404,1.);
#404 = DIRECTION('',(1.,0.E+000));
#405 = ( GEOMETRIC_REPRESENTATION_CONTEXT(2) 
PARAMETRIC_REPRESENTATION_CONTEXT() REPRESENTATION_CONTEXT('2D SPACE',''
  ) );
#406 = PCURVE('',#84,#407);
#407 = DEFINITIONAL_REPRESENTATION('',(#408),#412);
#408 = LINE('',#409,#410);
#409 = CARTESIAN_POINT('',(4.255664334763,10.));
#410 = VECTOR('',#411,1.);
#411 = DIRECTION('',(-1.,0.E+000));
#412 = ( GEOMETRIC_REPRESENTATION_CONTEXT(2) 
PARAMETRIC_REPRESENTATION_CONTEXT() REPRESENTATION_CONTEXT('2D SPACE',''
  ) );
#413 = ORIENTED_EDGE('',*,*,#414,.F.);
#414 = EDGE_CURVE('',#415,#392,#417,.T.);
#415 = VERTEX_POINT('',#416);
#416 = CARTESIAN_POINT('',(0.E+000,10.,0.E+000));
#417 = SURFACE_CURVE('',#418,(#422,#429),.PCURVE_S1.);
#418 = LINE('',#419,#420);
#419 = CARTESIAN_POINT('',(0.E+000,10.,0.E+000));
#420 = VECTOR('',#421,1.);
#421 = DIRECTION('',(0.E+000,0.E+000,1.));
#422 = PCURVE('',#354,#423);
#423 = DEFINITIONAL_REPRESENTATION('',(#424),#428);
#424 = LINE('',#425,#426);
#425 = CARTESIAN_POINT('',(10.,0.E+000));
#426 = VECTOR('',#427,1.);
#427 = DIRECTION('',(0.E+000,-1.));
#428 = ( GEOMETRIC_REPRESENTATION_CONTEXT(2) 
PARAMETRIC_REPRESENTATION_CONTEXT() REPRESENTATION_CONTEXT('2D SPACE',''
  ) );
#429 = PCURVE('',#55,#430);
#430 = DEFINITIONAL_REPRESENTATION('',(#431),#435);
#431 = LINE('',#432,#433);
#432 = CARTESIAN_POINT('',(0.E+000,0.E+000));
#433 = VECTOR('',#434,1.);
#434 = DIRECTION('',(0.E+000,-1.));
#435 = ( GEOMETRIC_REPRESENTATION_CONTEXT(2) 
PARAMETRIC_REPRESENTATION_CONTEXT() REPRESENTATION_CONTEXT('2D SPACE',''
  ) );
#436 = ORIENTED_EDGE('',*,*,#437,.F.);
#437 = EDGE_CURVE('',#339,#415,#438,.T.);
#438 = SURFACE_CURVE('',#439,(#443,#450),.PCURVE_S1.);
#439 = LINE('',#440,#441);
#440 = CARTESIAN_POINT('',(-10.,10.,0.E+000));
#441 = VECTOR('',#442,1.);
#442 = DIRECTION('',(1.,0.E+000,0.E+000));
#443 = PCURVE('',#354,#444);
#444 = DEFINITIONAL_REPRESENTATION('',(#445),#449);
#445 = LINE('',#446,#447);
#446 = CARTESIAN_POINT('',(0.E+000,0.E+000));
#447 = VECTOR('',#448,1.);
#448 = DIRECTION('',(1.,0.E+000));
#449 = ( GEOMETRIC_REPRESENTATION_CONTEXT(2) 
PARAMETRIC_REPRESENTATION_CONTEXT() REPRESENTATION_CONTEXT('2D SPACE',''
  ) );
#450 = PCURVE('',#143,#451);
#451 = DEFINITIONAL_REPRESENTATION('',(#452),#456);
#452 = LINE('',#453,#454);
#453 = CARTESIAN_POINT('',(4.255664334763,10.));
#454 = VECTOR('',#455,1.);
#455 = DIRECTION('',(-1.,0.E+000));
#456 = ( GEOMETRIC_REPRESENTATION_CONTEXT(2) 
PARAMETRIC_REPRESENTATION_CONTEXT() REPRESENTATION_CONTEXT('2D SPACE',''
  ) );
#457 = ADVANCED_FACE('',(#458),#55,.T.);
#458 = FACE_BOUND('',#459,.T.);
#459 = EDGE_LOOP('',(#460,#461,#482,#483));
#460 = ORIENTED_EDGE('',*,*,#414,.T.);
#461 = ORIENTED_EDGE('',*,*,#462,.T.);
#462 = EDGE_CURVE('',#392,#35,#463,.T.);
#463 = SURFACE_CURVE('',#464,(#468,#475),.PCURVE_S1.);
#464 = LINE('',#465,#466);
#465 = CARTESIAN_POINT('',(0.E+000,10.,1.6));
#466 = VECTOR('',#467,1.);
#467 = DIRECTION('',(0.E+000,-1.,0.E+000));
#468 = PCURVE('',#55,#469);
#469 = DEFINITIONAL_REPRESENTATION('',(#470),#474);
#470 = LINE('',#471,#472);
#471 = CARTESIAN_POINT('',(0.E+000,-1.6));
#472 = VECTOR('',#473,1.);
#473 = DIRECTION('',(1.,0.E+000));
#474 = ( GEOMETRIC_REPRESENTATION_CONTEXT(2) 
PARAMETRIC_REPRESENTATION_CONTEXT() REPRESENTATION_CONTEXT('2D SPACE',''
  ) );
#475 = PCURVE('',#84,#476);
#476 = DEFINITIONAL_REPRESENTATION('',(#477),#481);
#477 = LINE('',#478,#479);
#478 = CARTESIAN_POINT('',(-5.744335665237,10.));
#479 = VECTOR('',#480,1.);
#480 = DIRECTION('',(0.E+000,-1.));
#481 = ( GEOMETRIC_REPRESENTATION_CONTEXT(2) 
PARAMETRIC_REPRESENTATION_CONTEXT() REPRESENTATION_CONTEXT('2D SPACE',''
  ) );
#482 = ORIENTED_EDGE('',*,*,#32,.F.);
#483 = ORIENTED_EDGE('',*,*,#484,.F.);
#484 = EDGE_CURVE('',#415,#33,#485,.T.);
#485 = SURFACE_CURVE('',#486,(#490,#497),.PCURVE_S1.);
#486 = LINE('',#487,#488);
#487 = CARTESIAN_POINT('',(0.E+000,10.,0.E+000));
#488 = VECTOR('',#489,1.);
#489 = DIRECTION('',(0.E+000,-1.,0.E+000));
#490 = PCURVE('',#55,#491);
#491 = DEFINITIONAL_REPRESENTATION('',(#492),#496);
#492 = LINE('',#493,#494);
#493 = CARTESIAN_POINT('',(0.E+000,0.E+000));
#494 = VECTOR('',#495,1.);
#495 = DIRECTION('',(1.,0.E+000));
#496 = ( GEOMETRIC_REPRESENTATION_CONTEXT(2) 
PARAMETRIC_REPRESENTATION_CONTEXT() REPRESENTATION_CONTEXT('2D SPACE',''
  ) );
#497 = PCURVE('',#143,#498);
#498 = DEFINITIONAL_REPRESENTATION('',(#499),#503);
#499 = LINE('',#500,#501);
#500 = CARTESIAN_POINT('',(-5.744335665237,10.));
#501 = VECTOR('',#502,1.);
#502 = DIRECTION('',(0.E+000,-1.));
#503 = ( GEOMETRIC_REPRESENTATION_CONTEXT(2) 
PARAMETRIC_REPRESENTATION_CONTEXT() REPRESENTATION_CONTEXT('2D SPACE',''
  ) );
#504 = ADVANCED_FACE('',(#505),#143,.T.);
#505 = FACE_BOUND('',#506,.T.);
#506 = EDGE_LOOP('',(#507,#508,#509,#510,#511,#512));
#507 = ORIENTED_EDGE('',*,*,#128,.T.);
#508 = ORIENTED_EDGE('',*,*,#214,.T.);
#509 = ORIENTED_EDGE('',*,*,#290,.T.);
#510 = ORIENTED_EDGE('',*,*,#366,.T.);
#511 = ORIENTED_EDGE('',*,*,#437,.T.);
#512 = ORIENTED_EDGE('',*,*,#484,.T.);
#513 = ADVANCED_FACE('',(#514),#84,.F.);
#514 = FACE_BOUND('',#515,.F.);
#515 = EDGE_LOOP('',(#516,#517,#518,#519,#520,#521));
#516 = ORIENTED_EDGE('',*,*,#67,.T.);
#517 = ORIENTED_EDGE('',*,*,#163,.T.);
#518 = ORIENTED_EDGE('',*,*,#239,.T.);
#519 = ORIENTED_EDGE('',*,*,#315,.T.);
#520 = ORIENTED_EDGE('',*,*,#391,.T.);
#521 = ORIENTED_EDGE('',*,*,#462,.T.);
#522 = ( GEOMETRIC_REPRESENTATION_CONTEXT(3) 
GLOBAL_UNCERTAINTY_ASSIGNED_CONTEXT((#526)) GLOBAL_UNIT_ASSIGNED_CONTEXT
((#523,#524,#525)) REPRESENTATION_CONTEXT('Context #1',
  '3D Context with UNIT and UNCERTAINTY') );
#523 = ( LENGTH_UNIT() NAMED_UNIT(*) SI_UNIT(.MILLI.,.METRE.) );
#524 = ( NAMED_UNIT(*) PLANE_ANGLE_UNIT() SI_UNIT($,.RADIAN.) );
#525 = ( NAMED_UNIT(*) SI_UNIT($,.STERADIAN.) SOLID_ANGLE_UNIT() );
#526 = UNCERTAINTY_MEASURE_WITH_UNIT(LENGTH_MEASURE(1.E-006),#523,
  'distance_accuracy_value','confusion accuracy');
#527 = SHAPE_DEFINITION_REPRESENTATION(#528,#25);
#528 = PRODUCT_DEFINITION_SHAPE('','',#529);
#529 = PRODUCT_DEFINITION('design','',#530,#533);
#530 = PRODUCT_DEFINITION_FORMATION('','',#531);
#531 = PRODUCT('SOLID','SOLID','',(#532));
#532 = PRODUCT_CONTEXT('',#2,'mechanical');
#533 = PRODUCT_DEFINITION_CONTEXT('part definition',#2,'design');
#534 = CONTEXT_DEPENDENT_SHAPE_REPRESENTATION(#535,#537);
#535 = ( REPRESENTATION_RELATIONSHIP('','',#25,#10) 
REPRESENTATION_RELATIONSHIP_WITH_TRANSFORMATION(#536) 
SHAPE_REPRESENTATION_RELATIONSHIP() );
#536 = ITEM_DEFINED_TRANSFORMATION('','',#11,#15);
#537 = PRODUCT_DEFINITION_SHAPE('Placement','Placement of an item',#538
  );
#538 = NEXT_ASSEMBLY_USAGE_OCCURRENCE('1','','',#5,#529,$);
#539 = PRODUCT_RELATED_PRODUCT_CATEGORY('part',$,(#531));
#540 = SHAPE_DEFINITION_REPRESENTATION(#537,#541);
#541 = SHAPE_REPRESENTATION('',(#15),#522);
#542 = MECHANICAL_DESIGN_GEOMETRIC_PRESENTATION_REPRESENTATION('',(#543,
    #551),#522);
#543 = STYLED_ITEM('color',(#544),#26);
#544 = PRESENTATION_STYLE_ASSIGNMENT((#545));
#545 = SURFACE_STYLE_USAGE(.BOTH.,#546);
#546 = SURFACE_SIDE_STYLE('',(#547));
#547 = SURFACE_STYLE_FILL_AREA(#548);
#548 = FILL_AREA_STYLE('',(#549));
#549 = FILL_AREA_STYLE_COLOUR('',#550);
#550 = COLOUR_RGB('',5.99999986589E-002,0.40000000596,5.99999986589E-002
  );
#551 = OVER_RIDING_STYLED_ITEM('overriding color',(#552),#26,#543);
#552 = PRESENTATION_STYLE_BY_CONTEXT((#553),#541);
#553 = SURFACE_STYLE_USAGE(.BOTH.,#554);
#554 = SURFACE_SIDE_STYLE('',(#555));
#555 = SURFACE_STYLE_FILL_AREA(#556);
#556 = FILL_AREA_STYLE('',(#557));
#557 = FILL_AREA_STYLE_COLOUR('',#558);
#558 = COLOUR_RGB('',5.99999986589E-002,0.40000000596,5.99999986589E-002
  );
ENDSEC;
END-ISO-10303-21;
