EESchema Schematic File Version 4
LIBS:3Dcoil-cache
EELAYER 29 0
EELAYER END
$Descr A4 11693 8268
encoding utf-8
Sheet 1 1
Title ""
Date ""
Rev ""
Comp ""
Comment1 ""
Comment2 ""
Comment3 ""
Comment4 ""
$EndDescr
$Comp
L antenna:Antenna A1
U 1 1 5F7E2E02
P 5550 1400
F 0 "A1" H 5575 1775 50  0000 C CNN
F 1 "Antenna" H 5575 1684 50  0000 C CNN
F 2 "antenna:antenna_1" H 5550 1400 50  0001 C CNN
F 3 "" H 5550 1400 50  0001 C CNN
	1    5550 1400
	1    0    0    -1  
$EndComp
$Comp
L antenna:Antenna A2
U 1 1 5F7E3B5E
P 6850 1400
F 0 "A2" H 6875 1775 50  0000 C CNN
F 1 "Antenna" H 6875 1684 50  0000 C CNN
F 2 "antenna:antenna_2" H 6850 1400 50  0001 C CNN
F 3 "" H 6850 1400 50  0001 C CNN
	1    6850 1400
	1    0    0    -1  
$EndComp
$Comp
L Device:C C1
U 1 1 5F7E4686
P 3950 1050
F 0 "C1" V 3698 1050 50  0000 C CNN
F 1 "C" V 3789 1050 50  0000 C CNN
F 2 "Capacitor_SMD:C_0805_2012Metric_Pad1.15x1.40mm_HandSolder" H 3988 900 50  0001 C CNN
F 3 "~" H 3950 1050 50  0001 C CNN
	1    3950 1050
	0    1    1    0   
$EndComp
$Comp
L Device:C C2
U 1 1 5F7E56BB
P 3950 1450
F 0 "C2" V 3698 1450 50  0000 C CNN
F 1 "C" V 3789 1450 50  0000 C CNN
F 2 "Capacitor_SMD:C_0805_2012Metric_Pad1.15x1.40mm_HandSolder" H 3988 1300 50  0001 C CNN
F 3 "~" H 3950 1450 50  0001 C CNN
	1    3950 1450
	0    1    1    0   
$EndComp
$Comp
L Device:C C3
U 1 1 5F7E6143
P 4400 1050
F 0 "C3" V 4148 1050 50  0000 C CNN
F 1 "C" V 4239 1050 50  0000 C CNN
F 2 "Capacitor_SMD:C_0805_2012Metric_Pad1.15x1.40mm_HandSolder" H 4438 900 50  0001 C CNN
F 3 "~" H 4400 1050 50  0001 C CNN
	1    4400 1050
	0    1    1    0   
$EndComp
$Comp
L Device:C C4
U 1 1 5F7E6149
P 4400 1450
F 0 "C4" V 4148 1450 50  0000 C CNN
F 1 "C" V 4239 1450 50  0000 C CNN
F 2 "Capacitor_SMD:C_0805_2012Metric_Pad1.15x1.40mm_HandSolder" H 4438 1300 50  0001 C CNN
F 3 "~" H 4400 1450 50  0001 C CNN
	1    4400 1450
	0    1    1    0   
$EndComp
$Comp
L Device:C C5
U 1 1 5F7E66CF
P 4850 1050
F 0 "C5" V 4598 1050 50  0000 C CNN
F 1 "C" V 4689 1050 50  0000 C CNN
F 2 "Capacitor_SMD:C_0805_2012Metric_Pad1.15x1.40mm_HandSolder" H 4888 900 50  0001 C CNN
F 3 "~" H 4850 1050 50  0001 C CNN
	1    4850 1050
	0    1    1    0   
$EndComp
$Comp
L Device:C C6
U 1 1 5F7E66D5
P 4850 1450
F 0 "C6" V 4598 1450 50  0000 C CNN
F 1 "C" V 4689 1450 50  0000 C CNN
F 2 "Capacitor_SMD:C_0805_2012Metric_Pad1.15x1.40mm_HandSolder" H 4888 1300 50  0001 C CNN
F 3 "~" H 4850 1450 50  0001 C CNN
	1    4850 1450
	0    1    1    0   
$EndComp
$Comp
L Connector:Conn_Coaxial J1
U 1 1 5F7E680B
P 1750 1250
F 0 "J1" H 1678 1488 50  0000 C CNN
F 1 "Conn_Coaxial" H 1678 1397 50  0000 C CNN
F 2 "Connector_Coaxial:SMA_Molex_73251-2200_Horizontal" H 1750 1250 50  0001 C CNN
F 3 " ~" H 1750 1250 50  0001 C CNN
	1    1750 1250
	-1   0    0    -1  
$EndComp
$Comp
L power:GND #PWR0101
U 1 1 5F7E7AF4
P 1750 1750
F 0 "#PWR0101" H 1750 1500 50  0001 C CNN
F 1 "GND" H 1755 1577 50  0000 C CNN
F 2 "" H 1750 1750 50  0001 C CNN
F 3 "" H 1750 1750 50  0001 C CNN
	1    1750 1750
	1    0    0    -1  
$EndComp
$Comp
L power:GND #PWR0102
U 1 1 5F7E7DE5
P 7450 1750
F 0 "#PWR0102" H 7450 1500 50  0001 C CNN
F 1 "GND" H 7455 1577 50  0000 C CNN
F 2 "" H 7450 1750 50  0001 C CNN
F 3 "" H 7450 1750 50  0001 C CNN
	1    7450 1750
	1    0    0    -1  
$EndComp
Wire Wire Line
	4100 1050 4100 1250
Wire Wire Line
	4250 1050 4250 1250
Wire Wire Line
	4700 1050 4700 1250
Wire Wire Line
	4550 1050 4550 1250
Wire Wire Line
	5750 1250 6650 1250
Wire Wire Line
	7050 1250 7450 1250
Wire Wire Line
	7450 1250 7450 1750
Wire Wire Line
	4100 1250 4250 1250
Connection ~ 4100 1250
Wire Wire Line
	4100 1250 4100 1450
Connection ~ 4250 1250
Wire Wire Line
	4250 1250 4250 1450
Wire Wire Line
	4550 1250 4700 1250
Connection ~ 4550 1250
Wire Wire Line
	4550 1250 4550 1450
Connection ~ 4700 1250
Wire Wire Line
	4700 1250 4700 1450
Wire Wire Line
	1750 1450 1750 1750
$Comp
L antenna:Antenna A3
U 1 1 5F7FAA3D
P 5500 2450
F 0 "A3" H 5525 2825 50  0000 C CNN
F 1 "Antenna" H 5525 2734 50  0000 C CNN
F 2 "antenna:antenna_3" H 5500 2450 50  0001 C CNN
F 3 "" H 5500 2450 50  0001 C CNN
	1    5500 2450
	-1   0    0    1   
$EndComp
$Comp
L antenna:Antenna A4
U 1 1 5F7FAA43
P 6850 2750
F 0 "A4" H 6875 3125 50  0000 C CNN
F 1 "Antenna" H 6875 3034 50  0000 C CNN
F 2 "antenna:antenna_4" H 6850 2750 50  0001 C CNN
F 3 "" H 6850 2750 50  0001 C CNN
	1    6850 2750
	1    0    0    -1  
$EndComp
$Comp
L Device:C C7
U 1 1 5F7FAA49
P 3850 2400
F 0 "C7" V 3598 2400 50  0000 C CNN
F 1 "C" V 3689 2400 50  0000 C CNN
F 2 "Capacitor_SMD:C_0805_2012Metric_Pad1.15x1.40mm_HandSolder" H 3888 2250 50  0001 C CNN
F 3 "~" H 3850 2400 50  0001 C CNN
	1    3850 2400
	0    1    1    0   
$EndComp
$Comp
L Device:C C8
U 1 1 5F7FAA4F
P 3850 2800
F 0 "C8" V 3598 2800 50  0000 C CNN
F 1 "C" V 3689 2800 50  0000 C CNN
F 2 "Capacitor_SMD:C_0805_2012Metric_Pad1.15x1.40mm_HandSolder" H 3888 2650 50  0001 C CNN
F 3 "~" H 3850 2800 50  0001 C CNN
	1    3850 2800
	0    1    1    0   
$EndComp
$Comp
L Device:C C9
U 1 1 5F7FAA55
P 4300 2400
F 0 "C9" V 4048 2400 50  0000 C CNN
F 1 "C" V 4139 2400 50  0000 C CNN
F 2 "Capacitor_SMD:C_0805_2012Metric_Pad1.15x1.40mm_HandSolder" H 4338 2250 50  0001 C CNN
F 3 "~" H 4300 2400 50  0001 C CNN
	1    4300 2400
	0    1    1    0   
$EndComp
$Comp
L Device:C C10
U 1 1 5F7FAA5B
P 4300 2800
F 0 "C10" V 4048 2800 50  0000 C CNN
F 1 "C" V 4139 2800 50  0000 C CNN
F 2 "Capacitor_SMD:C_0805_2012Metric_Pad1.15x1.40mm_HandSolder" H 4338 2650 50  0001 C CNN
F 3 "~" H 4300 2800 50  0001 C CNN
	1    4300 2800
	0    1    1    0   
$EndComp
$Comp
L Device:C C11
U 1 1 5F7FAA61
P 4750 2400
F 0 "C11" V 4498 2400 50  0000 C CNN
F 1 "C" V 4589 2400 50  0000 C CNN
F 2 "Capacitor_SMD:C_0805_2012Metric_Pad1.15x1.40mm_HandSolder" H 4788 2250 50  0001 C CNN
F 3 "~" H 4750 2400 50  0001 C CNN
	1    4750 2400
	0    1    1    0   
$EndComp
$Comp
L Device:C C12
U 1 1 5F7FAA67
P 4750 2800
F 0 "C12" V 4498 2800 50  0000 C CNN
F 1 "C" V 4589 2800 50  0000 C CNN
F 2 "Capacitor_SMD:C_0805_2012Metric_Pad1.15x1.40mm_HandSolder" H 4788 2650 50  0001 C CNN
F 3 "~" H 4750 2800 50  0001 C CNN
	1    4750 2800
	0    1    1    0   
$EndComp
$Comp
L Connector:Conn_Coaxial J2
U 1 1 5F7FAA6D
P 1800 2600
F 0 "J2" H 1728 2838 50  0000 C CNN
F 1 "Conn_Coaxial" H 1728 2747 50  0000 C CNN
F 2 "Connector_Coaxial:SMA_Molex_73251-2200_Horizontal" H 1800 2600 50  0001 C CNN
F 3 " ~" H 1800 2600 50  0001 C CNN
	1    1800 2600
	-1   0    0    -1  
$EndComp
$Comp
L power:GND #PWR0103
U 1 1 5F7FAA73
P 1800 3100
F 0 "#PWR0103" H 1800 2850 50  0001 C CNN
F 1 "GND" H 1805 2927 50  0000 C CNN
F 2 "" H 1800 3100 50  0001 C CNN
F 3 "" H 1800 3100 50  0001 C CNN
	1    1800 3100
	1    0    0    -1  
$EndComp
$Comp
L power:GND #PWR0104
U 1 1 5F7FAA79
P 7450 3100
F 0 "#PWR0104" H 7450 2850 50  0001 C CNN
F 1 "GND" H 7455 2927 50  0000 C CNN
F 2 "" H 7450 3100 50  0001 C CNN
F 3 "" H 7450 3100 50  0001 C CNN
	1    7450 3100
	1    0    0    -1  
$EndComp
Wire Wire Line
	4000 2400 4000 2600
Wire Wire Line
	4150 2400 4150 2600
Wire Wire Line
	4600 2400 4600 2600
Wire Wire Line
	4450 2400 4450 2600
Wire Wire Line
	4900 2600 5300 2600
Wire Wire Line
	5750 2600 6650 2600
Wire Wire Line
	7050 2600 7450 2600
Wire Wire Line
	7450 2600 7450 3100
Wire Wire Line
	4000 2600 4150 2600
Connection ~ 4000 2600
Wire Wire Line
	4000 2600 4000 2800
Connection ~ 4150 2600
Wire Wire Line
	4150 2600 4150 2800
Wire Wire Line
	4450 2600 4600 2600
Connection ~ 4450 2600
Wire Wire Line
	4450 2600 4450 2800
Connection ~ 4600 2600
Wire Wire Line
	4600 2600 4600 2800
Wire Wire Line
	1800 2800 1800 3100
Connection ~ 5300 2600
Wire Wire Line
	5300 2600 5350 2600
Wire Wire Line
	5000 1050 5000 1250
Wire Wire Line
	5350 1250 5000 1250
Connection ~ 5000 1250
Wire Wire Line
	5000 1250 5000 1450
$Comp
L Device:R R3
U 1 1 5FB12A80
P 3400 1250
F 0 "R3" V 3193 1250 50  0000 C CNN
F 1 "10R" V 3284 1250 50  0000 C CNN
F 2 "SamacSys_Parts:PWR163S2550R0F" V 3330 1250 50  0001 C CNN
F 3 "~" H 3400 1250 50  0001 C CNN
	1    3400 1250
	0    1    1    0   
$EndComp
Wire Wire Line
	3800 1050 3800 1250
$Comp
L Device:R R2
U 1 1 5FB18D1C
P 3000 1250
F 0 "R2" V 2793 1250 50  0000 C CNN
F 1 "20R" V 2884 1250 50  0000 C CNN
F 2 "SamacSys_Parts:PWR163S2550R0F" V 2930 1250 50  0001 C CNN
F 3 "~" H 3000 1250 50  0001 C CNN
	1    3000 1250
	0    1    1    0   
$EndComp
$Comp
L Device:R R1
U 1 1 5FB199BB
P 2600 1250
F 0 "R1" V 2393 1250 50  0000 C CNN
F 1 "20R" V 2484 1250 50  0000 C CNN
F 2 "SamacSys_Parts:PWR163S2550R0F" V 2530 1250 50  0001 C CNN
F 3 "~" H 2600 1250 50  0001 C CNN
	1    2600 1250
	0    1    1    0   
$EndComp
Wire Wire Line
	1950 1250 2450 1250
Wire Wire Line
	2750 1250 2850 1250
Wire Wire Line
	3150 1250 3250 1250
Wire Wire Line
	3550 1250 3800 1250
Connection ~ 3800 1250
Wire Wire Line
	3800 1250 3800 1450
Wire Wire Line
	4900 2400 4900 2600
Connection ~ 4900 2600
Wire Wire Line
	4900 2600 4900 2800
$Comp
L Device:R R6
U 1 1 5FB2AC77
P 3200 2600
F 0 "R6" V 2993 2600 50  0000 C CNN
F 1 "10R" V 3084 2600 50  0000 C CNN
F 2 "SamacSys_Parts:PWR163S2550R0F" V 3130 2600 50  0001 C CNN
F 3 "~" H 3200 2600 50  0001 C CNN
	1    3200 2600
	0    1    1    0   
$EndComp
$Comp
L Device:R R5
U 1 1 5FB2AC7D
P 2800 2600
F 0 "R5" V 2593 2600 50  0000 C CNN
F 1 "20R" V 2684 2600 50  0000 C CNN
F 2 "SamacSys_Parts:PWR163S2550R0F" V 2730 2600 50  0001 C CNN
F 3 "~" H 2800 2600 50  0001 C CNN
	1    2800 2600
	0    1    1    0   
$EndComp
$Comp
L Device:R R4
U 1 1 5FB2AC83
P 2400 2600
F 0 "R4" V 2193 2600 50  0000 C CNN
F 1 "20R" V 2284 2600 50  0000 C CNN
F 2 "SamacSys_Parts:PWR163S2550R0F" V 2330 2600 50  0001 C CNN
F 3 "~" H 2400 2600 50  0001 C CNN
	1    2400 2600
	0    1    1    0   
$EndComp
Wire Wire Line
	2550 2600 2650 2600
Wire Wire Line
	2950 2600 3050 2600
Wire Wire Line
	3700 2400 3700 2600
Wire Wire Line
	3350 2600 3700 2600
Connection ~ 3700 2600
Wire Wire Line
	3700 2600 3700 2800
Wire Wire Line
	2250 2600 2000 2600
$EndSCHEMATC
