(module antenna_2 (layer F.Cu) (tedit 5F7CE158)
  (fp_text reference REF** (at 2.4 1.4) (layer F.SilkS)
    (effects (font (size 1 1) (thickness 0.15)))
  )
  (fp_text value antenna_2 (at -2.3 0.6) (layer F.Fab)
    (effects (font (size 1 1) (thickness 0.15)))
  )
  (fp_line (start 0 0) (end 0 -40) (layer B.Cu) (width 0.75))
  (fp_line (start -2.194686 -0.120781) (end -2.2 -35.6) (layer B.Cu) (width 0.75))
  (fp_line (start -4.398059 -4.555631) (end -4.4 -31.2) (layer B.Cu) (width 0.75))
  (fp_arc (start 0 -20) (end 0 -40) (angle -173.7) (layer B.Cu) (width 0.75))
  (fp_arc (start -2.2 -20) (end -2.2 -35.6) (angle -171.9) (layer B.Cu) (width 0.75))
  (fp_arc (start -4.4 -20) (end -4.4 -31.2) (angle -90) (layer B.Cu) (width 0.75))
  (pad 1 smd circle (at 0 0) (size 0.5 0.5) (layers Dwgs.User))
  (pad 2 smd circle (at -15.6 -20) (size 0.5 0.5) (layers Dwgs.User))
)
