(module antenna_2 (layer F.Cu) (tedit 5F6374B7)
  (fp_text reference REF** (at -2 4) (layer F.SilkS)
    (effects (font (size 1 1) (thickness 0.15)))
  )
  (fp_text value antenna_2 (at 4 2) (layer F.Fab)
    (effects (font (size 1 1) (thickness 0.15)))
  )
  (fp_arc (start -3 -2) (end -2 -2) (angle 90) (layer B.Cu) (width 0.75))
  (fp_arc (start -31 -38) (end -32 -38) (angle 90) (layer B.Cu) (width 0.75))
  (fp_line (start -31 -1) (end -3 -1) (layer B.Cu) (width 0.75))
  (fp_line (start -32 -38) (end -32 -2) (layer B.Cu) (width 0.75))
  (fp_arc (start -31 -2) (end -31 -1) (angle 90) (layer B.Cu) (width 0.75))
  (fp_arc (start -32 -1) (end -32 0) (angle 90) (layer B.Cu) (width 0.75))
  (fp_line (start -1 -1) (end -1 -38) (layer B.Cu) (width 0.75))
  (fp_arc (start -2 -38) (end -2 -39) (angle 90) (layer B.Cu) (width 0.75))
  (fp_arc (start -2 -1) (end -1 -1) (angle 90) (layer B.Cu) (width 0.75))
  (fp_arc (start -32 -39) (end -33 -39) (angle 90) (layer B.Cu) (width 0.75))
  (fp_line (start -2 -39) (end -31 -39) (layer B.Cu) (width 0.75))
  (fp_line (start -29 -3) (end -9 -3) (layer B.Cu) (width 0.75))
  (fp_line (start -30 -36) (end -30 -4) (layer B.Cu) (width 0.75))
  (fp_arc (start -29 -36) (end -30 -36) (angle 90) (layer B.Cu) (width 0.75))
  (fp_arc (start -29 -4) (end -29 -3) (angle 90) (layer B.Cu) (width 0.75))
  (fp_arc (start -4 -36) (end -4 -37) (angle 90) (layer B.Cu) (width 0.75))
  (fp_line (start -4 -37) (end -29 -37) (layer B.Cu) (width 0.75))
  (fp_line (start -30 -2) (end -4 -2) (layer B.Cu) (width 0.75))
  (fp_line (start -3 -3) (end -3 -36) (layer B.Cu) (width 0.75))
  (fp_arc (start -4 -3) (end -3 -3) (angle 90) (layer B.Cu) (width 0.75))
  (fp_arc (start -30 -37) (end -31 -37) (angle 90) (layer B.Cu) (width 0.75))
  (fp_arc (start -30 -3) (end -30 -2) (angle 90) (layer B.Cu) (width 0.75))
  (fp_line (start -31 -37) (end -31 -3) (layer B.Cu) (width 0.75))
  (fp_arc (start -3 -37) (end -3 -38) (angle 90) (layer B.Cu) (width 0.75))
  (fp_line (start -2 -2) (end -2 -37) (layer B.Cu) (width 0.75))
  (fp_line (start -3 -38) (end -30 -38) (layer B.Cu) (width 0.75))
  (fp_arc (start -1 -39) (end -1 -40) (angle 90) (layer B.Cu) (width 0.75))
  (fp_line (start -33 -39) (end -33 -1) (layer B.Cu) (width 0.75))
  (fp_line (start -1 -40) (end -32 -40) (layer B.Cu) (width 0.75))
  (fp_line (start 0 0) (end 0 -39) (layer B.Cu) (width 0.75))
  (fp_line (start -32 0) (end -2 0) (layer B.Cu) (width 0.75))
  (pad 2 smd circle (at -9 -3 270) (size 0.5 0.5) (layers B.Cu))
  (pad 1 smd circle (at 0 0) (size 0.5 0.5) (layers B.Cu))
)
